ratio:0.5
seed:1001  N:100
elapsed:3.9830
hole: 45 area:2.0002e+08
score:4.0505e+11

seed:1002  N:100
elapsed:3.9950
hole: 49 area:1.6614e+08
score:3.9889e+11

seed:1003  N:100
elapsed:4.0030
hole: 44 area:2.2560e+08
score:4.3676e+11

seed:1004  N:100
elapsed:3.9990
hole: 47 area:1.9616e+08
score:4.3331e+11

seed:1005  N:100
elapsed:3.9910
hole: 48 area:1.7868e+08
score:4.1169e+11

seed:1006  N:100
elapsed:3.9900
hole: 49 area:1.8384e+08
score:4.4141e+11

seed:1007  N:100
elapsed:3.9850
hole: 48 area:1.7819e+08
score:4.1054e+11

seed:1008  N:100
elapsed:3.9840
hole: 46 area:1.9598e+08
score:4.1470e+11

seed:1009  N:100
elapsed:3.9990
hole: 49 area:1.7045e+08
score:4.0926e+11

seed:1010  N:100
elapsed:3.9990
hole: 48 area:1.8593e+08
score:4.2838e+11

seed:1011  N:100
elapsed:3.9990
hole: 46 area:2.0645e+08
score:4.3685e+11

seed:1012  N:100
elapsed:3.9990
hole: 48 area:1.6983e+08
score:3.9128e+11

seed:1013  N:100
elapsed:3.9990
hole: 48 area:1.6971e+08
score:3.9102e+11

seed:1014  N:100
elapsed:3.9780
hole: 48 area:1.5756e+08
score:3.6302e+11

seed:1015  N:100
elapsed:3.9990
hole: 47 area:1.8827e+08
score:4.1588e+11

seed:1016  N:100
elapsed:3.9990
hole: 48 area:1.7546e+08
score:4.0426e+11

seed:1017  N:100
elapsed:3.9990
hole: 45 area:2.0322e+08
score:4.1153e+11

seed:1018  N:100
elapsed:3.9990
hole: 48 area:1.8688e+08
score:4.3057e+11

seed:1019  N:100
elapsed:3.9990
hole: 47 area:1.6747e+08
score:3.6994e+11

seed:1020  N:100
elapsed:3.9970
hole: 48 area:1.6790e+08
score:3.8685e+11

seed:1021  N:100
elapsed:3.9810
hole: 48 area:1.7999e+08
score:4.1469e+11

seed:1022  N:100
elapsed:3.9880
hole: 48 area:1.7883e+08
score:4.1202e+11

seed:1023  N:100
elapsed:3.9840
hole: 47 area:1.7913e+08
score:3.9569e+11

seed:1024  N:100
elapsed:3.9990
hole: 48 area:1.8529e+08
score:4.2692e+11

seed:1025  N:100
elapsed:3.9990
hole: 46 area:2.0668e+08
score:4.3733e+11

seed:1026  N:100
elapsed:3.9990
hole: 48 area:1.8879e+08
score:4.3498e+11

seed:1027  N:100
elapsed:3.9810
hole: 48 area:1.6942e+08
score:3.9034e+11

seed:1028  N:100
elapsed:3.9850
hole: 49 area:1.7370e+08
score:4.1706e+11

seed:1029  N:100
elapsed:3.9890
hole: 48 area:1.8494e+08
score:4.2611e+11

seed:1030  N:100
elapsed:3.9990
hole: 44 area:2.1507e+08
score:4.1637e+11

seed:1031  N:100
elapsed:3.9990
hole: 49 area:1.6138e+08
score:3.8748e+11

seed:1032  N:100
elapsed:4.0220
hole: 47 area:1.8562e+08
score:4.1004e+11

seed:1033  N:100
elapsed:3.9990
hole: 47 area:1.6150e+08
score:3.5675e+11

seed:1034  N:100
elapsed:3.9990
hole: 48 area:1.7846e+08
score:4.1117e+11

seed:1035  N:100
elapsed:3.9780
hole: 49 area:1.7836e+08
score:4.2825e+11

seed:1036  N:100
elapsed:3.9830
hole: 48 area:1.8276e+08
score:4.2109e+11

seed:1037  N:100
elapsed:3.9990
hole: 49 area:1.7957e+08
score:4.3115e+11

seed:1038  N:100
elapsed:3.9990
hole: 48 area:1.8827e+08
score:4.3378e+11

seed:1039  N:100
elapsed:3.9850
hole: 48 area:1.8719e+08
score:4.3128e+11

seed:1040  N:100
elapsed:3.9990
hole: 48 area:1.6552e+08
score:3.8136e+11

seed:1041  N:100
elapsed:3.9820
hole: 48 area:1.6253e+08
score:3.7448e+11

seed:1042  N:100
elapsed:3.9990
hole: 48 area:1.8594e+08
score:4.2841e+11

seed:1043  N:100
elapsed:3.9890
hole: 47 area:1.9677e+08
score:4.3468e+11

seed:1044  N:100
elapsed:3.9810
hole: 47 area:1.6101e+08
score:3.5568e+11

seed:1045  N:100
elapsed:3.9820
hole: 46 area:1.9976e+08
score:4.2270e+11

seed:1046  N:100
elapsed:3.9990
hole: 46 area:1.7635e+08
score:3.7316e+11

seed:1047  N:100
elapsed:3.9500
hole: 46 area:1.9961e+08
score:4.2238e+11

seed:1048  N:100
elapsed:3.9860
hole: 49 area:1.7972e+08
score:4.3150e+11

seed:1049  N:100
elapsed:3.9990
hole: 47 area:1.9431e+08
score:4.2924e+11

seed:1050  N:100
elapsed:3.9810
hole: 47 area:1.7169e+08
score:3.7927e+11

seed:1051  N:100
elapsed:3.9870
hole: 47 area:1.7498e+08
score:3.8652e+11

seed:1052  N:100
elapsed:3.9990
hole: 49 area:1.6341e+08
score:3.9234e+11

seed:1053  N:100
elapsed:3.9810
hole: 45 area:1.9557e+08
score:3.9602e+11

seed:1054  N:100
elapsed:3.9990
hole: 44 area:2.0090e+08
score:3.8895e+11

seed:1055  N:100
elapsed:3.9570
hole: 46 area:2.0094e+08
score:4.2518e+11

seed:1056  N:100
elapsed:3.9990
hole: 48 area:1.7678e+08
score:4.0731e+11

seed:1057  N:100
elapsed:3.9820
hole: 49 area:1.6453e+08
score:3.9505e+11

seed:1058  N:100
elapsed:3.9990
hole: 48 area:1.7634e+08
score:4.0629e+11

seed:1059  N:100
elapsed:3.9800
hole: 48 area:1.7329e+08
score:3.9926e+11

seed:1060  N:100
elapsed:3.9990
hole: 48 area:1.7233e+08
score:3.9706e+11

seed:1061  N:100
elapsed:3.9990
hole: 46 area:2.0952e+08
score:4.4334e+11

seed:1062  N:100
elapsed:3.9770
hole: 47 area:1.8003e+08
score:3.9769e+11

seed:1063  N:100
elapsed:3.9510
hole: 47 area:1.8040e+08
score:3.9850e+11

seed:1064  N:100
elapsed:3.9990
hole: 49 area:1.6008e+08
score:3.8434e+11

seed:1065  N:100
elapsed:3.9990
hole: 48 area:1.9246e+08
score:4.4344e+11

seed:1066  N:100
elapsed:3.9990
hole: 46 area:1.9325e+08
score:4.0891e+11

seed:1067  N:100
elapsed:3.9760
hole: 48 area:1.8077e+08
score:4.1649e+11

seed:1068  N:100
elapsed:4.0120
hole: 48 area:1.8477e+08
score:4.2571e+11

seed:1069  N:100
elapsed:3.9990
hole: 49 area:1.8786e+08
score:4.5105e+11

seed:1070  N:100
elapsed:3.9830
hole: 48 area:1.7621e+08
score:4.0600e+11

seed:1071  N:100
elapsed:3.9990
hole: 48 area:1.6551e+08
score:3.8134e+11

seed:1072  N:100
elapsed:3.9830
hole: 46 area:2.0150e+08
score:4.2638e+11

seed:1073  N:100
elapsed:3.9800
hole: 49 area:1.7386e+08
score:4.1745e+11

seed:1074  N:100
elapsed:3.9800
hole: 48 area:1.7352e+08
score:3.9979e+11

seed:1075  N:100
elapsed:4.0200
hole: 47 area:1.9487e+08
score:4.3047e+11

seed:1076  N:100
elapsed:3.9990
hole: 48 area:1.7090e+08
score:3.9375e+11

seed:1077  N:100
elapsed:3.9990
hole: 48 area:1.9006e+08
score:4.3791e+11

seed:1078  N:100
elapsed:3.9990
hole: 45 area:1.8967e+08
score:3.8409e+11

seed:1079  N:100
elapsed:3.9990
hole: 45 area:1.8475e+08
score:3.7411e+11

seed:1080  N:100
elapsed:3.9990
hole: 47 area:1.6135e+08
score:3.5641e+11

seed:1081  N:100
elapsed:3.9850
hole: 49 area:1.9154e+08
score:4.5990e+11

seed:1082  N:100
elapsed:3.9770
hole: 46 area:1.9740e+08
score:4.1770e+11

seed:1083  N:100
elapsed:3.9740
hole: 46 area:1.8495e+08
score:3.9136e+11

seed:1084  N:100
elapsed:3.9810
hole: 46 area:2.0408e+08
score:4.3184e+11

seed:1085  N:100
elapsed:3.9480
hole: 48 area:1.7438e+08
score:4.0176e+11

seed:1086  N:100
elapsed:3.9990
hole: 48 area:1.8330e+08
score:4.2232e+11

seed:1087  N:100
elapsed:3.9990
hole: 47 area:1.8292e+08
score:4.0408e+11

seed:1088  N:100
elapsed:3.9840
hole: 45 area:2.1399e+08
score:4.3334e+11

seed:1089  N:100
elapsed:3.9810
hole: 47 area:1.8427e+08
score:4.0706e+11

seed:1090  N:100
elapsed:3.9720
hole: 46 area:1.9758e+08
score:4.1808e+11

seed:1091  N:100
elapsed:3.9990
hole: 47 area:1.8559e+08
score:4.0996e+11

seed:1092  N:100
elapsed:3.9990
hole: 45 area:2.0255e+08
score:4.1017e+11

seed:1093  N:100
elapsed:3.9990
hole: 48 area:1.6478e+08
score:3.7966e+11

seed:1094  N:100
elapsed:3.9990
hole: 47 area:1.7840e+08
score:3.9409e+11

seed:1095  N:100
elapsed:3.9990
hole: 44 area:1.9867e+08
score:3.8463e+11

seed:1096  N:100
elapsed:3.9990
hole: 47 area:1.9513e+08
score:4.3104e+11

seed:1097  N:100
elapsed:3.9810
hole: 46 area:1.9277e+08
score:4.0791e+11

seed:1098  N:100
elapsed:3.9820
hole: 47 area:1.9733e+08
score:4.3589e+11

seed:1099  N:100
elapsed:3.9990
hole: 48 area:1.9272e+08
score:4.4403e+11

seed:1100  N:100
elapsed:3.9990
hole: 48 area:1.6789e+08
score:3.8682e+11

seed:1101  N:200
elapsed:3.9990
hole: 95 area:7.3362e+08
score:6.6209e+12

seed:1102  N:200
elapsed:3.9830
hole: 93 area:7.9089e+08
score:6.8404e+12

seed:1103  N:200
elapsed:3.9980
hole: 96 area:7.5027e+08
score:6.9145e+12

seed:1104  N:200
elapsed:3.9980
hole: 97 area:6.8549e+08
score:6.4498e+12

seed:1105  N:200
elapsed:3.9850
hole: 95 area:7.7500e+08
score:6.9943e+12

seed:1106  N:200
elapsed:3.9880
hole: 93 area:7.7474e+08
score:6.7008e+12

seed:1107  N:200
elapsed:3.9870
hole: 94 area:7.2169e+08
score:6.3769e+12

seed:1108  N:200
elapsed:3.9840
hole: 94 area:8.0980e+08
score:7.1554e+12

seed:1109  N:200
elapsed:3.9980
hole: 92 area:7.8976e+08
score:6.6846e+12

seed:1110  N:200
elapsed:3.9980
hole: 95 area:7.8535e+08
score:7.0878e+12

seed:1111  N:200
elapsed:3.9980
hole: 96 area:7.6381e+08
score:7.0393e+12

seed:1112  N:200
elapsed:3.9970
hole: 95 area:7.4086e+08
score:6.6863e+12

seed:1113  N:200
elapsed:3.9970
hole: 95 area:7.7903e+08
score:7.0307e+12

seed:1114  N:200
elapsed:3.9980
hole: 97 area:7.7908e+08
score:7.3304e+12

seed:1115  N:200
elapsed:3.9820
hole: 95 area:7.8030e+08
score:7.0423e+12

seed:1116  N:200
elapsed:3.9870
hole: 97 area:7.3798e+08
score:6.9437e+12

seed:1117  N:200
elapsed:3.9890
hole: 95 area:7.4338e+08
score:6.7090e+12

seed:1118  N:200
elapsed:3.9970
hole: 94 area:7.9309e+08
score:7.0078e+12

seed:1119  N:200
elapsed:3.9880
hole: 95 area:7.6134e+08
score:6.8711e+12

seed:1120  N:200
elapsed:3.9970
hole: 96 area:7.3491e+08
score:6.7729e+12

seed:1121  N:200
elapsed:3.9820
hole: 94 area:7.6758e+08
score:6.7823e+12

seed:1122  N:200
elapsed:3.9750
hole: 96 area:7.7017e+08
score:7.0979e+12

seed:1123  N:200
elapsed:3.9980
hole: 96 area:7.6543e+08
score:7.0542e+12

seed:1124  N:200
elapsed:3.9870
hole: 96 area:7.1906e+08
score:6.6269e+12

seed:1125  N:200
elapsed:3.9790
hole: 96 area:7.9948e+08
score:7.3680e+12

seed:1126  N:200
elapsed:3.9980
hole: 96 area:8.0303e+08
score:7.4007e+12

seed:1127  N:200
elapsed:3.9840
hole: 96 area:7.6740e+08
score:7.0724e+12

seed:1128  N:200
elapsed:3.9760
hole: 96 area:7.3216e+08
score:6.7476e+12

seed:1129  N:200
elapsed:3.9780
hole: 97 area:7.6198e+08
score:7.1695e+12

seed:1130  N:200
elapsed:3.9890
hole: 96 area:7.3598e+08
score:6.7828e+12

seed:1131  N:200
elapsed:3.9970
hole: 96 area:7.7992e+08
score:7.1877e+12

seed:1132  N:200
elapsed:3.9860
hole: 95 area:7.6786e+08
score:6.9300e+12

seed:1133  N:200
elapsed:3.9870
hole: 97 area:7.2577e+08
score:6.8288e+12

seed:1134  N:200
elapsed:3.9990
hole: 96 area:7.6236e+08
score:7.0259e+12

seed:1135  N:200
elapsed:3.9760
hole: 97 area:7.4034e+08
score:6.9658e+12

seed:1136  N:200
elapsed:3.9990
hole: 96 area:6.9525e+08
score:6.4074e+12

seed:1137  N:200
elapsed:3.9980
hole: 95 area:7.1892e+08
score:6.4882e+12

seed:1138  N:200
elapsed:3.9650
hole: 95 area:7.5369e+08
score:6.8021e+12

seed:1139  N:200
elapsed:3.9990
hole: 96 area:6.9455e+08
score:6.4010e+12

seed:1140  N:200
elapsed:3.9880
hole: 95 area:7.7179e+08
score:6.9654e+12

seed:1141  N:200
elapsed:3.9970
hole: 97 area:7.3327e+08
score:6.8993e+12

seed:1142  N:200
elapsed:3.9860
hole: 97 area:7.5520e+08
score:7.1057e+12

seed:1143  N:200
elapsed:3.9980
hole: 93 area:7.8408e+08
score:6.7815e+12

seed:1144  N:200
elapsed:3.9740
hole: 93 area:7.6557e+08
score:6.6214e+12

seed:1145  N:200
elapsed:3.9880
hole: 94 area:8.0953e+08
score:7.1530e+12

seed:1146  N:200
elapsed:3.9880
hole: 93 area:7.7492e+08
score:6.7023e+12

seed:1147  N:200
elapsed:3.9980
hole: 96 area:7.0965e+08
score:6.5401e+12

seed:1148  N:200
elapsed:3.9880
hole: 95 area:7.6740e+08
score:6.9258e+12

seed:1149  N:200
elapsed:3.9840
hole: 95 area:7.5412e+08
score:6.8059e+12

seed:1150  N:200
elapsed:3.9980
hole: 96 area:7.5332e+08
score:6.9426e+12

seed:1151  N:200
elapsed:3.9850
hole: 94 area:7.2208e+08
score:6.3803e+12

seed:1152  N:200
elapsed:3.9970
hole: 93 area:8.2425e+08
score:7.1289e+12

seed:1153  N:200
elapsed:3.9950
hole: 96 area:7.3759e+08
score:6.7976e+12

seed:1154  N:200
elapsed:3.9990
hole: 96 area:7.5490e+08
score:6.9572e+12

seed:1155  N:200
elapsed:3.9980
hole: 95 area:7.3835e+08
score:6.6637e+12

seed:1156  N:200
elapsed:3.9900
hole: 93 area:8.1798e+08
score:7.0747e+12

seed:1157  N:200
elapsed:3.9980
hole: 96 area:7.2237e+08
score:6.6574e+12

seed:1158  N:200
elapsed:3.9970
hole: 95 area:8.0021e+08
score:7.2219e+12

seed:1159  N:200
elapsed:3.9880
hole: 97 area:7.4038e+08
score:6.9662e+12

seed:1160  N:200
elapsed:3.9900
hole: 95 area:7.6503e+08
score:6.9044e+12

seed:1161  N:200
elapsed:3.9870
hole: 97 area:7.6090e+08
score:7.1593e+12

seed:1162  N:200
elapsed:3.9880
hole: 96 area:7.1676e+08
score:6.6057e+12

seed:1163  N:200
elapsed:3.9870
hole: 96 area:7.4213e+08
score:6.8395e+12

seed:1164  N:200
elapsed:3.9870
hole: 97 area:7.3172e+08
score:6.8848e+12

seed:1165  N:200
elapsed:3.9860
hole: 94 area:7.5803e+08
score:6.6980e+12

seed:1166  N:200
elapsed:3.9760
hole: 96 area:7.7630e+08
score:7.1543e+12

seed:1167  N:200
elapsed:3.9820
hole: 97 area:7.2545e+08
score:6.8257e+12

seed:1168  N:200
elapsed:3.9890
hole: 96 area:7.5436e+08
score:6.9522e+12

seed:1169  N:200
elapsed:3.9870
hole: 94 area:7.7191e+08
score:6.8206e+12

seed:1170  N:200
elapsed:3.9870
hole: 97 area:7.3183e+08
score:6.8858e+12

seed:1171  N:200
elapsed:3.9820
hole: 95 area:7.2770e+08
score:6.5675e+12

seed:1172  N:200
elapsed:3.9870
hole: 94 area:8.3855e+08
score:7.4094e+12

seed:1173  N:200
elapsed:3.9560
hole: 97 area:7.5591e+08
score:7.1123e+12

seed:1174  N:200
elapsed:3.9890
hole: 95 area:7.5546e+08
score:6.8181e+12

seed:1175  N:200
elapsed:3.9790
hole: 98 area:7.1281e+08
score:6.8458e+12

seed:1176  N:200
elapsed:3.9850
hole: 96 area:7.2090e+08
score:6.6439e+12

seed:1177  N:200
elapsed:3.9860
hole: 96 area:7.9287e+08
score:7.3071e+12

seed:1178  N:200
elapsed:3.9880
hole: 96 area:7.1810e+08
score:6.6180e+12

seed:1179  N:200
elapsed:3.9870
hole: 92 area:8.7620e+08
score:7.4161e+12

seed:1180  N:200
elapsed:3.9820
hole: 96 area:7.2084e+08
score:6.6432e+12

seed:1181  N:200
elapsed:3.9840
hole: 96 area:7.5291e+08
score:6.9388e+12

seed:1182  N:200
elapsed:3.9890
hole: 94 area:7.1902e+08
score:6.3533e+12

seed:1183  N:200
elapsed:3.9410
hole: 93 area:7.6607e+08
score:6.6258e+12

seed:1184  N:200
elapsed:3.9770
hole: 95 area:7.6385e+08
score:6.8938e+12

seed:1185  N:200
elapsed:3.9970
hole: 96 area:8.0312e+08
score:7.4015e+12

seed:1186  N:200
elapsed:3.9890
hole: 96 area:7.6049e+08
score:7.0086e+12

seed:1187  N:200
elapsed:3.9900
hole: 96 area:7.4699e+08
score:6.8843e+12

seed:1188  N:200
elapsed:3.9880
hole: 95 area:7.2736e+08
score:6.5645e+12

seed:1189  N:200
elapsed:3.9970
hole: 95 area:7.8450e+08
score:7.0801e+12

seed:1190  N:200
elapsed:3.9970
hole: 94 area:7.7864e+08
score:6.8800e+12

seed:1191  N:200
elapsed:3.9850
hole: 95 area:7.1605e+08
score:6.4623e+12

seed:1192  N:200
elapsed:3.9870
hole: 93 area:7.9429e+08
score:6.8698e+12

seed:1193  N:200
elapsed:3.9880
hole: 95 area:7.5848e+08
score:6.8453e+12

seed:1194  N:200
elapsed:3.9560
hole: 97 area:7.5887e+08
score:7.1402e+12

seed:1195  N:200
elapsed:3.9950
hole: 96 area:7.2896e+08
score:6.7181e+12

seed:1196  N:200
elapsed:3.9890
hole: 96 area:7.1246e+08
score:6.5660e+12

seed:1197  N:200
elapsed:3.9980
hole: 95 area:7.9087e+08
score:7.1376e+12

seed:1198  N:200
elapsed:3.9870
hole: 96 area:7.4355e+08
score:6.8526e+12

seed:1199  N:200
elapsed:3.9950
hole: 92 area:7.5640e+08
score:6.4022e+12

seed:1200  N:200
elapsed:3.9880
hole: 96 area:7.6020e+08
score:7.0060e+12

seed:1201  N:300
elapsed:3.9860
hole:144 area:1.7030e+09
score:3.5313e+13

seed:1202  N:300
elapsed:3.9790
hole:145 area:1.6521e+09
score:3.4735e+13

seed:1203  N:300
elapsed:3.9730
hole:143 area:1.7382e+09
score:3.5544e+13

seed:1204  N:300
elapsed:3.9860
hole:143 area:1.6703e+09
score:3.4156e+13

seed:1205  N:300
elapsed:3.9860
hole:145 area:1.6750e+09
score:3.5217e+13

seed:1206  N:300
elapsed:3.9900
hole:145 area:1.7666e+09
score:3.7142e+13

seed:1207  N:300
elapsed:3.9830
hole:144 area:1.6742e+09
score:3.4717e+13

seed:1208  N:300
elapsed:3.9840
hole:145 area:1.7346e+09
score:3.6471e+13

seed:1209  N:300
elapsed:3.9900
hole:143 area:1.7217e+09
score:3.5207e+13

seed:1210  N:300
elapsed:3.9810
hole:143 area:1.6905e+09
score:3.4568e+13

seed:1211  N:300
elapsed:3.9840
hole:145 area:1.6523e+09
score:3.4740e+13

seed:1212  N:300
elapsed:3.9870
hole:144 area:1.6770e+09
score:3.4774e+13

seed:1213  N:300
elapsed:3.9660
hole:144 area:1.6369e+09
score:3.3942e+13

seed:1214  N:300
elapsed:3.9810
hole:143 area:1.6769e+09
score:3.4291e+13

seed:1215  N:300
elapsed:3.9740
hole:143 area:1.7437e+09
score:3.5657e+13

seed:1216  N:300
elapsed:3.9880
hole:144 area:1.6364e+09
score:3.3932e+13

seed:1217  N:300
elapsed:3.9880
hole:144 area:1.6848e+09
score:3.4937e+13

seed:1218  N:300
elapsed:3.9850
hole:143 area:1.7036e+09
score:3.4837e+13

seed:1219  N:300
elapsed:3.9810
hole:144 area:1.7559e+09
score:3.6410e+13

seed:1220  N:300
elapsed:3.9890
hole:145 area:1.6454e+09
score:3.4594e+13

seed:1221  N:300
elapsed:3.9770
hole:143 area:1.6107e+09
score:3.2938e+13

seed:1222  N:300
elapsed:3.9820
hole:144 area:1.7547e+09
score:3.6386e+13

seed:1223  N:300
elapsed:3.9810
hole:146 area:1.7011e+09
score:3.6260e+13

seed:1224  N:300
elapsed:3.9810
hole:144 area:1.7133e+09
score:3.5526e+13

seed:1225  N:300
elapsed:3.9840
hole:144 area:1.7491e+09
score:3.6270e+13

seed:1226  N:300
elapsed:3.9840
hole:143 area:1.7585e+09
score:3.5960e+13

seed:1227  N:300
elapsed:3.9730
hole:145 area:1.7404e+09
score:3.6592e+13

seed:1228  N:300
elapsed:3.9490
hole:144 area:1.7236e+09
score:3.5740e+13

seed:1229  N:300
elapsed:3.9810
hole:142 area:1.7868e+09
score:3.6029e+13

seed:1230  N:300
elapsed:3.9840
hole:144 area:1.8199e+09
score:3.7738e+13

seed:1231  N:300
elapsed:3.9780
hole:145 area:1.7009e+09
score:3.5761e+13

seed:1232  N:300
elapsed:3.9770
hole:144 area:1.6676e+09
score:3.4579e+13

seed:1233  N:300
elapsed:3.9780
hole:144 area:1.6681e+09
score:3.4589e+13

seed:1234  N:300
elapsed:3.9810
hole:144 area:1.7328e+09
score:3.5932e+13

seed:1235  N:300
elapsed:3.9830
hole:145 area:1.6342e+09
score:3.4359e+13

seed:1236  N:300
elapsed:3.9860
hole:143 area:1.7404e+09
score:3.5590e+13

seed:1237  N:300
elapsed:3.9750
hole:143 area:1.7065e+09
score:3.4896e+13

seed:1238  N:300
elapsed:3.9720
hole:144 area:1.8070e+09
score:3.7469e+13

seed:1239  N:300
elapsed:3.9830
hole:144 area:1.6707e+09
score:3.4644e+13

seed:1240  N:300
elapsed:3.9560
hole:145 area:1.6973e+09
score:3.5686e+13

seed:1241  N:300
elapsed:3.9860
hole:144 area:1.7821e+09
score:3.6954e+13

seed:1242  N:300
elapsed:3.9840
hole:144 area:1.6384e+09
score:3.3975e+13

seed:1243  N:300
elapsed:3.9820
hole:143 area:1.6674e+09
score:3.4098e+13

seed:1244  N:300
elapsed:3.9870
hole:144 area:1.6989e+09
score:3.5229e+13

seed:1245  N:300
elapsed:3.9800
hole:143 area:1.7096e+09
score:3.4959e+13

seed:1246  N:300
elapsed:3.9830
hole:142 area:1.7088e+09
score:3.4457e+13

seed:1247  N:300
elapsed:3.9660
hole:144 area:1.6971e+09
score:3.5191e+13

seed:1248  N:300
elapsed:3.9870
hole:142 area:1.7894e+09
score:3.6082e+13

seed:1249  N:300
elapsed:3.9740
hole:144 area:1.6801e+09
score:3.4839e+13

seed:1250  N:300
elapsed:3.9960
hole:145 area:1.8008e+09
score:3.7862e+13

seed:1251  N:300
elapsed:3.9870
hole:145 area:1.8121e+09
score:3.8100e+13

seed:1252  N:300
elapsed:3.9850
hole:143 area:1.6661e+09
score:3.4070e+13

seed:1253  N:300
elapsed:3.9890
hole:145 area:1.6918e+09
score:3.5571e+13

seed:1254  N:300
elapsed:3.9730
hole:143 area:1.7574e+09
score:3.5936e+13

seed:1255  N:300
elapsed:3.9930
hole:145 area:1.6804e+09
score:3.5330e+13

seed:1256  N:300
elapsed:3.9880
hole:144 area:1.6447e+09
score:3.4105e+13

seed:1257  N:300
elapsed:3.9810
hole:144 area:1.7318e+09
score:3.5910e+13

seed:1258  N:300
elapsed:3.9840
hole:143 area:1.6831e+09
score:3.4418e+13

seed:1259  N:300
elapsed:3.9920
hole:144 area:1.7348e+09
score:3.5972e+13

seed:1260  N:300
elapsed:3.9920
hole:144 area:1.6532e+09
score:3.4282e+13

seed:1261  N:300
elapsed:3.9930
hole:142 area:1.7906e+09
score:3.6105e+13

seed:1262  N:300
elapsed:3.9920
hole:143 area:1.6671e+09
score:3.4090e+13

seed:1263  N:300
elapsed:3.9850
hole:144 area:1.6656e+09
score:3.4537e+13

seed:1264  N:300
elapsed:3.9740
hole:144 area:1.7424e+09
score:3.6130e+13

seed:1265  N:300
elapsed:4.0040
hole:143 area:1.7165e+09
score:3.5100e+13

seed:1266  N:300
elapsed:3.9910
hole:145 area:1.6972e+09
score:3.5685e+13

seed:1267  N:300
elapsed:3.9820
hole:143 area:1.6663e+09
score:3.4074e+13

seed:1268  N:300
elapsed:3.9730
hole:144 area:1.5689e+09
score:3.2533e+13

seed:1269  N:300
elapsed:3.9830
hole:144 area:1.7342e+09
score:3.5960e+13

seed:1270  N:300
elapsed:3.9950
hole:143 area:1.7240e+09
score:3.5253e+13

seed:1271  N:300
elapsed:3.9780
hole:144 area:1.6716e+09
score:3.4663e+13

seed:1272  N:300
elapsed:3.9860
hole:144 area:1.6704e+09
score:3.4638e+13

seed:1273  N:300
elapsed:3.9840
hole:143 area:1.8088e+09
score:3.6988e+13

seed:1274  N:300
elapsed:3.9840
hole:144 area:1.7397e+09
score:3.6074e+13

seed:1275  N:300
elapsed:3.9820
hole:144 area:1.6851e+09
score:3.4943e+13

seed:1276  N:300
elapsed:3.9770
hole:143 area:1.6417e+09
score:3.3572e+13

seed:1277  N:300
elapsed:3.9750
hole:143 area:1.7880e+09
score:3.6563e+13

seed:1278  N:300
elapsed:3.9820
hole:143 area:1.6448e+09
score:3.3634e+13

seed:1279  N:300
elapsed:3.9880
hole:143 area:1.7325e+09
score:3.5427e+13

seed:1280  N:300
elapsed:3.9840
hole:144 area:1.5699e+09
score:3.2553e+13

seed:1281  N:300
elapsed:3.9820
hole:144 area:1.7052e+09
score:3.5359e+13

seed:1282  N:300
elapsed:3.9790
hole:145 area:1.7442e+09
score:3.6671e+13

seed:1283  N:300
elapsed:3.9820
hole:144 area:1.6271e+09
score:3.3740e+13

seed:1284  N:300
elapsed:3.9840
hole:145 area:1.7904e+09
score:3.7643e+13

seed:1285  N:300
elapsed:3.9810
hole:145 area:1.5950e+09
score:3.3535e+13

seed:1286  N:300
elapsed:3.9820
hole:144 area:1.8354e+09
score:3.8059e+13

seed:1287  N:300
elapsed:3.9810
hole:144 area:1.6804e+09
score:3.4844e+13

seed:1288  N:300
elapsed:3.9860
hole:143 area:1.7657e+09
score:3.6107e+13

seed:1289  N:300
elapsed:3.9670
hole:146 area:1.6496e+09
score:3.5164e+13

seed:1290  N:300
elapsed:3.9800
hole:143 area:1.6734e+09
score:3.4220e+13

seed:1291  N:300
elapsed:3.9810
hole:144 area:1.8909e+09
score:3.9210e+13

seed:1292  N:300
elapsed:3.9780
hole:144 area:1.7307e+09
score:3.5888e+13

seed:1293  N:300
elapsed:3.9870
hole:144 area:1.7419e+09
score:3.6119e+13

seed:1294  N:300
elapsed:3.9770
hole:142 area:1.7811e+09
score:3.5914e+13

seed:1295  N:300
elapsed:3.9840
hole:144 area:1.7069e+09
score:3.5393e+13

seed:1296  N:300
elapsed:3.9830
hole:143 area:1.7151e+09
score:3.5072e+13

seed:1297  N:300
elapsed:3.9840
hole:145 area:1.6246e+09
score:3.4157e+13

seed:1298  N:300
elapsed:3.9840
hole:144 area:1.7284e+09
score:3.5839e+13

seed:1299  N:300
elapsed:3.9870
hole:144 area:1.6858e+09
score:3.4957e+13

seed:1300  N:300
elapsed:3.9780
hole:143 area:1.7043e+09
score:3.4851e+13

seed:1301  N:400
elapsed:3.9710
hole:193 area:3.1175e+09
score:1.1612e+14

seed:1302  N:400
elapsed:3.9740
hole:190 area:3.1297e+09
score:1.1298e+14

seed:1303  N:400
elapsed:3.9790
hole:192 area:3.0474e+09
score:1.1234e+14

seed:1304  N:400
elapsed:3.9790
hole:192 area:2.9634e+09
score:1.0924e+14

seed:1305  N:400
elapsed:3.9810
hole:192 area:2.7453e+09
score:1.0120e+14

seed:1306  N:400
elapsed:3.9770
hole:191 area:2.9441e+09
score:1.0740e+14

seed:1307  N:400
elapsed:3.9720
hole:192 area:3.0218e+09
score:1.1140e+14

seed:1308  N:400
elapsed:3.9460
hole:192 area:3.0324e+09
score:1.1179e+14

seed:1309  N:400
elapsed:3.9840
hole:191 area:3.0030e+09
score:1.0955e+14

seed:1310  N:400
elapsed:3.9750
hole:193 area:3.1948e+09
score:1.1900e+14

seed:1311  N:400
elapsed:3.9730
hole:191 area:2.9998e+09
score:1.0944e+14

seed:1312  N:400
elapsed:3.9800
hole:192 area:3.0122e+09
score:1.1104e+14

seed:1313  N:400
elapsed:3.9780
hole:192 area:3.0729e+09
score:1.1328e+14

seed:1314  N:400
elapsed:3.9750
hole:192 area:2.9712e+09
score:1.0953e+14

seed:1315  N:400
elapsed:3.9820
hole:192 area:2.9887e+09
score:1.1017e+14

seed:1316  N:400
elapsed:3.9310
hole:192 area:3.0705e+09
score:1.1319e+14

seed:1317  N:400
elapsed:3.9870
hole:193 area:2.8828e+09
score:1.0738e+14

seed:1318  N:400
elapsed:3.9800
hole:194 area:3.0144e+09
score:1.1345e+14

seed:1319  N:400
elapsed:3.9310
hole:193 area:3.0095e+09
score:1.1210e+14

seed:1320  N:400
elapsed:3.9790
hole:191 area:3.1152e+09
score:1.1365e+14

seed:1321  N:400
elapsed:3.9780
hole:191 area:2.7726e+09
score:1.0115e+14

seed:1322  N:400
elapsed:3.9760
hole:192 area:3.0651e+09
score:1.1299e+14

seed:1323  N:400
elapsed:3.9790
hole:192 area:3.2566e+09
score:1.2005e+14

seed:1324  N:400
elapsed:3.9740
hole:192 area:3.1629e+09
score:1.1660e+14

seed:1325  N:400
elapsed:3.9770
hole:192 area:3.1192e+09
score:1.1499e+14

seed:1326  N:400
elapsed:3.9760
hole:192 area:2.9984e+09
score:1.1053e+14

seed:1327  N:400
elapsed:3.9680
hole:192 area:3.1434e+09
score:1.1588e+14

seed:1328  N:400
elapsed:3.9560
hole:193 area:3.1237e+09
score:1.1635e+14

seed:1329  N:400
elapsed:3.9770
hole:193 area:3.1965e+09
score:1.1907e+14

seed:1330  N:400
elapsed:3.9800
hole:194 area:3.0134e+09
score:1.1341e+14

seed:1331  N:400
elapsed:3.9800
hole:191 area:3.1471e+09
score:1.1481e+14

seed:1332  N:400
elapsed:3.9830
hole:193 area:2.9373e+09
score:1.0941e+14

seed:1333  N:400
elapsed:3.9850
hole:193 area:3.0017e+09
score:1.1181e+14

seed:1334  N:400
elapsed:3.9790
hole:191 area:3.0969e+09
score:1.1298e+14

seed:1335  N:400
elapsed:3.9760
hole:192 area:3.0519e+09
score:1.1250e+14

seed:1336  N:400
elapsed:3.9730
hole:192 area:2.9076e+09
score:1.0718e+14

seed:1337  N:400
elapsed:3.9760
hole:192 area:3.0674e+09
score:1.1308e+14

seed:1338  N:400
elapsed:3.9610
hole:192 area:3.1207e+09
score:1.1504e+14

seed:1339  N:400
elapsed:3.9580
hole:192 area:3.0781e+09
score:1.1347e+14

seed:1340  N:400
elapsed:3.9800
hole:192 area:2.9900e+09
score:1.1022e+14

seed:1341  N:400
elapsed:3.9860
hole:192 area:3.0942e+09
score:1.1406e+14

seed:1342  N:400
elapsed:3.9510
hole:191 area:3.0828e+09
score:1.1246e+14

seed:1343  N:400
elapsed:3.9840
hole:191 area:3.1552e+09
score:1.1510e+14

seed:1344  N:400
elapsed:3.9820
hole:192 area:3.0463e+09
score:1.1230e+14

seed:1345  N:400
elapsed:3.9840
hole:193 area:2.9740e+09
score:1.1078e+14

seed:1346  N:400
elapsed:3.9480
hole:193 area:3.1104e+09
score:1.1586e+14

seed:1347  N:400
elapsed:3.9810
hole:191 area:3.1188e+09
score:1.1378e+14

seed:1348  N:400
elapsed:3.9690
hole:192 area:3.0919e+09
score:1.1398e+14

seed:1349  N:400
elapsed:3.9710
hole:192 area:3.0953e+09
score:1.1411e+14

seed:1350  N:400
elapsed:3.9820
hole:191 area:2.9753e+09
score:1.0854e+14

seed:1351  N:400
elapsed:3.9900
hole:192 area:3.0769e+09
score:1.1343e+14

seed:1352  N:400
elapsed:3.9790
hole:192 area:3.0949e+09
score:1.1409e+14

seed:1353  N:400
elapsed:3.9780
hole:193 area:3.2038e+09
score:1.1934e+14

seed:1354  N:400
elapsed:3.9660
hole:191 area:3.0835e+09
score:1.1249e+14

seed:1355  N:400
elapsed:3.9670
hole:192 area:3.1102e+09
score:1.1466e+14

seed:1356  N:400
elapsed:3.9540
hole:191 area:2.9959e+09
score:1.0929e+14

seed:1357  N:400
elapsed:3.9730
hole:195 area:2.9615e+09
score:1.1261e+14

seed:1358  N:400
elapsed:3.9690
hole:192 area:3.0308e+09
score:1.1173e+14

seed:1359  N:400
elapsed:3.9710
hole:191 area:3.0403e+09
score:1.1091e+14

seed:1360  N:400
elapsed:3.9750
hole:192 area:3.1506e+09
score:1.1614e+14

seed:1361  N:400
elapsed:3.9760
hole:191 area:3.1075e+09
score:1.1336e+14

seed:1362  N:400
elapsed:3.9730
hole:192 area:3.0425e+09
score:1.1216e+14

seed:1363  N:400
elapsed:3.9800
hole:193 area:3.1449e+09
score:1.1714e+14

seed:1364  N:400
elapsed:3.9720
hole:192 area:2.9854e+09
score:1.1005e+14

seed:1365  N:400
elapsed:3.9850
hole:192 area:2.9984e+09
score:1.1053e+14

seed:1366  N:400
elapsed:3.9840
hole:191 area:2.9593e+09
score:1.0796e+14

seed:1367  N:400
elapsed:3.9690
hole:194 area:3.1461e+09
score:1.1841e+14

seed:1368  N:400
elapsed:3.9730
hole:193 area:3.0392e+09
score:1.1321e+14

seed:1369  N:400
elapsed:3.9560
hole:193 area:2.9734e+09
score:1.1076e+14

seed:1370  N:400
elapsed:3.9740
hole:193 area:2.9973e+09
score:1.1165e+14

seed:1371  N:400
elapsed:3.9760
hole:193 area:2.8569e+09
score:1.0642e+14

seed:1372  N:400
elapsed:3.9620
hole:191 area:2.9778e+09
score:1.0863e+14

seed:1373  N:400
elapsed:3.9330
hole:193 area:3.1312e+09
score:1.1663e+14

seed:1374  N:400
elapsed:3.9690
hole:191 area:3.1331e+09
score:1.1430e+14

seed:1375  N:400
elapsed:3.9760
hole:191 area:3.0968e+09
score:1.1298e+14

seed:1376  N:400
elapsed:3.9720
hole:193 area:2.9352e+09
score:1.0933e+14

seed:1377  N:400
elapsed:3.9490
hole:193 area:3.0489e+09
score:1.1357e+14

seed:1378  N:400
elapsed:3.9710
hole:193 area:3.1240e+09
score:1.1637e+14

seed:1379  N:400
elapsed:3.9770
hole:191 area:3.1643e+09
score:1.1544e+14

seed:1380  N:400
elapsed:3.9780
hole:192 area:3.0131e+09
score:1.1107e+14

seed:1381  N:400
elapsed:3.9750
hole:192 area:3.0091e+09
score:1.1093e+14

seed:1382  N:400
elapsed:3.9550
hole:192 area:3.0029e+09
score:1.1070e+14

seed:1383  N:400
elapsed:3.9790
hole:193 area:3.0177e+09
score:1.1241e+14

seed:1384  N:400
elapsed:3.9690
hole:192 area:2.9004e+09
score:1.0692e+14

seed:1385  N:400
elapsed:3.9770
hole:193 area:2.9727e+09
score:1.1073e+14

seed:1386  N:400
elapsed:3.9700
hole:193 area:3.0606e+09
score:1.1401e+14

seed:1387  N:400
elapsed:3.9700
hole:192 area:3.0948e+09
score:1.1409e+14

seed:1388  N:400
elapsed:3.9740
hole:192 area:3.0157e+09
score:1.1117e+14

seed:1389  N:400
elapsed:3.9750
hole:192 area:3.0129e+09
score:1.1107e+14

seed:1390  N:400
elapsed:3.9520
hole:192 area:2.9897e+09
score:1.1021e+14

seed:1391  N:400
elapsed:3.9550
hole:193 area:3.0927e+09
score:1.1520e+14

seed:1392  N:400
elapsed:3.9680
hole:194 area:3.1132e+09
score:1.1717e+14

seed:1393  N:400
elapsed:3.9760
hole:192 area:3.0766e+09
score:1.1341e+14

seed:1394  N:400
elapsed:3.9500
hole:192 area:2.8623e+09
score:1.0552e+14

seed:1395  N:400
elapsed:3.9710
hole:192 area:3.1544e+09
score:1.1628e+14

seed:1396  N:400
elapsed:3.9710
hole:192 area:3.1208e+09
score:1.1505e+14

seed:1397  N:400
elapsed:3.9770
hole:191 area:3.1531e+09
score:1.1503e+14

seed:1398  N:400
elapsed:3.9650
hole:191 area:2.8979e+09
score:1.0572e+14

seed:1399  N:400
elapsed:3.9750
hole:193 area:3.1261e+09
score:1.1645e+14

seed:1400  N:400
elapsed:3.9780
hole:191 area:3.0319e+09
score:1.1061e+14

seed:1401  N:500
elapsed:3.9630
hole:240 area:4.7222e+09
score:2.7200e+14

seed:1402  N:500
elapsed:3.9600
hole:239 area:4.8303e+09
score:2.7591e+14

seed:1403  N:500
elapsed:3.9600
hole:240 area:4.5413e+09
score:2.6158e+14

seed:1404  N:500
elapsed:3.9670
hole:242 area:4.7185e+09
score:2.7633e+14

seed:1405  N:500
elapsed:3.9590
hole:240 area:4.8238e+09
score:2.7785e+14

seed:1406  N:500
elapsed:3.9770
hole:240 area:4.6235e+09
score:2.6632e+14

seed:1407  N:500
elapsed:3.9660
hole:240 area:4.6145e+09
score:2.6579e+14

seed:1408  N:500
elapsed:3.9380
hole:240 area:4.7986e+09
score:2.7640e+14

seed:1409  N:500
elapsed:3.9780
hole:240 area:4.6904e+09
score:2.7016e+14

seed:1410  N:500
elapsed:3.9660
hole:241 area:4.8608e+09
score:2.8232e+14

seed:1411  N:500
elapsed:3.9700
hole:241 area:4.6965e+09
score:2.7278e+14

seed:1412  N:500
elapsed:3.9620
hole:242 area:4.6307e+09
score:2.7119e+14

seed:1413  N:500
elapsed:3.9280
hole:239 area:5.0383e+09
score:2.8779e+14

seed:1414  N:500
elapsed:3.9600
hole:241 area:4.7040e+09
score:2.7322e+14

seed:1415  N:500
elapsed:3.9690
hole:240 area:4.6703e+09
score:2.6901e+14

seed:1416  N:500
elapsed:3.9690
hole:239 area:4.8853e+09
score:2.7906e+14

seed:1417  N:500
elapsed:3.9650
hole:242 area:4.8969e+09
score:2.8678e+14

seed:1418  N:500
elapsed:3.9690
hole:241 area:4.9839e+09
score:2.8947e+14

seed:1419  N:500
elapsed:3.9710
hole:240 area:4.7427e+09
score:2.7318e+14

seed:1420  N:500
elapsed:3.9770
hole:241 area:4.7427e+09
score:2.7546e+14

seed:1421  N:500
elapsed:3.9760
hole:240 area:4.8263e+09
score:2.7799e+14

seed:1422  N:500
elapsed:3.9670
hole:241 area:4.6425e+09
score:2.6964e+14

seed:1423  N:500
elapsed:3.9570
hole:239 area:4.8027e+09
score:2.7434e+14

seed:1424  N:500
elapsed:3.9610
hole:242 area:4.6321e+09
score:2.7128e+14

seed:1425  N:500
elapsed:3.9680
hole:240 area:4.8861e+09
score:2.8144e+14

seed:1426  N:500
elapsed:3.9640
hole:239 area:4.6194e+09
score:2.6386e+14

seed:1427  N:500
elapsed:3.9550
hole:239 area:4.7858e+09
score:2.7337e+14

seed:1428  N:500
elapsed:3.9430
hole:241 area:4.6680e+09
score:2.7112e+14

seed:1429  N:500
elapsed:3.9700
hole:240 area:4.8074e+09
score:2.7691e+14

seed:1430  N:500
elapsed:3.9700
hole:239 area:4.8726e+09
score:2.7833e+14

seed:1431  N:500
elapsed:3.9690
hole:239 area:4.7540e+09
score:2.7155e+14

seed:1432  N:500
elapsed:3.9720
hole:240 area:4.7780e+09
score:2.7521e+14

seed:1433  N:500
elapsed:3.9610
hole:240 area:4.8850e+09
score:2.8137e+14

seed:1434  N:500
elapsed:3.9700
hole:241 area:4.8824e+09
score:2.8358e+14

seed:1435  N:500
elapsed:3.9540
hole:241 area:4.6394e+09
score:2.6946e+14

seed:1436  N:500
elapsed:3.9630
hole:239 area:4.8102e+09
score:2.7476e+14

seed:1437  N:500
elapsed:3.9790
hole:242 area:4.7458e+09
score:2.7793e+14

seed:1438  N:500
elapsed:3.9730
hole:240 area:4.7719e+09
score:2.7486e+14

seed:1439  N:500
elapsed:3.9340
hole:241 area:4.6437e+09
score:2.6971e+14

seed:1440  N:500
elapsed:3.9730
hole:242 area:4.7926e+09
score:2.8068e+14

seed:1441  N:500
elapsed:3.9690
hole:238 area:4.8708e+09
score:2.7590e+14

seed:1442  N:500
elapsed:3.9690
hole:240 area:4.8496e+09
score:2.7933e+14

seed:1443  N:500
elapsed:3.9650
hole:241 area:4.7365e+09
score:2.7510e+14

seed:1444  N:500
elapsed:3.9610
hole:240 area:4.7559e+09
score:2.7394e+14

seed:1445  N:500
elapsed:3.9550
hole:240 area:4.8402e+09
score:2.7880e+14

seed:1446  N:500
elapsed:3.9700
hole:240 area:4.9158e+09
score:2.8315e+14

seed:1447  N:500
elapsed:3.9690
hole:239 area:4.7880e+09
score:2.7349e+14

seed:1448  N:500
elapsed:3.9730
hole:237 area:4.5662e+09
score:2.5648e+14

seed:1449  N:500
elapsed:3.9720
hole:239 area:4.9206e+09
score:2.8107e+14

seed:1450  N:500
elapsed:3.9840
hole:242 area:4.9657e+09
score:2.9081e+14

seed:1451  N:500
elapsed:3.9800
hole:240 area:5.0820e+09
score:2.9272e+14

seed:1452  N:500
elapsed:3.9610
hole:239 area:4.9238e+09
score:2.8125e+14

seed:1453  N:500
elapsed:3.9730
hole:239 area:4.8392e+09
score:2.7642e+14

seed:1454  N:500
elapsed:3.9470
hole:242 area:4.8004e+09
score:2.8113e+14

seed:1455  N:500
elapsed:3.9670
hole:240 area:4.8118e+09
score:2.7716e+14

seed:1456  N:500
elapsed:3.9420
hole:240 area:4.7834e+09
score:2.7552e+14

seed:1457  N:500
elapsed:3.9710
hole:241 area:4.7017e+09
score:2.7308e+14

seed:1458  N:500
elapsed:3.9550
hole:240 area:4.8729e+09
score:2.8068e+14

seed:1459  N:500
elapsed:3.9630
hole:242 area:4.7737e+09
score:2.7957e+14

seed:1460  N:500
elapsed:3.9690
hole:238 area:4.7301e+09
score:2.6793e+14

seed:1461  N:500
elapsed:3.9750
hole:241 area:4.6393e+09
score:2.6945e+14

seed:1462  N:500
elapsed:3.9300
hole:239 area:4.5315e+09
score:2.5885e+14

seed:1463  N:500
elapsed:3.9580
hole:240 area:4.8987e+09
score:2.8217e+14

seed:1464  N:500
elapsed:3.9670
hole:241 area:4.6720e+09
score:2.7136e+14

seed:1465  N:500
elapsed:3.9770
hole:238 area:4.8790e+09
score:2.7636e+14

seed:1466  N:500
elapsed:3.9580
hole:240 area:4.7233e+09
score:2.7206e+14

seed:1467  N:500
elapsed:3.9490
hole:238 area:4.8019e+09
score:2.7200e+14

seed:1468  N:500
elapsed:3.9780
hole:242 area:4.7571e+09
score:2.7859e+14

seed:1469  N:500
elapsed:3.9600
hole:239 area:4.7108e+09
score:2.6909e+14

seed:1470  N:500
elapsed:3.9640
hole:239 area:4.6265e+09
score:2.6427e+14

seed:1471  N:500
elapsed:3.9740
hole:240 area:4.7844e+09
score:2.7558e+14

seed:1472  N:500
elapsed:3.9700
hole:242 area:4.8562e+09
score:2.8440e+14

seed:1473  N:500
elapsed:3.9710
hole:242 area:4.8221e+09
score:2.8240e+14

seed:1474  N:500
elapsed:3.9820
hole:239 area:4.7966e+09
score:2.7399e+14

seed:1475  N:500
elapsed:3.9620
hole:241 area:4.8170e+09
score:2.7977e+14

seed:1476  N:500
elapsed:3.9660
hole:240 area:4.7393e+09
score:2.7298e+14

seed:1477  N:500
elapsed:3.9660
hole:241 area:4.7847e+09
score:2.7790e+14

seed:1478  N:500
elapsed:3.9760
hole:243 area:4.8213e+09
score:2.8469e+14

seed:1479  N:500
elapsed:3.9640
hole:240 area:4.9252e+09
score:2.8369e+14

seed:1480  N:500
elapsed:3.9660
hole:240 area:4.7579e+09
score:2.7405e+14

seed:1481  N:500
elapsed:3.9660
hole:239 area:4.9434e+09
score:2.8237e+14

seed:1482  N:500
elapsed:3.9800
hole:241 area:4.7196e+09
score:2.7412e+14

seed:1483  N:500
elapsed:3.9560
hole:240 area:4.7685e+09
score:2.7466e+14

seed:1484  N:500
elapsed:3.9720
hole:242 area:4.7732e+09
score:2.7954e+14

seed:1485  N:500
elapsed:3.9580
hole:241 area:4.9461e+09
score:2.8728e+14

seed:1486  N:500
elapsed:3.9720
hole:241 area:4.8279e+09
score:2.8041e+14

seed:1487  N:500
elapsed:3.9710
hole:240 area:4.8728e+09
score:2.8068e+14

seed:1488  N:500
elapsed:3.9680
hole:240 area:4.6920e+09
score:2.7026e+14

seed:1489  N:500
elapsed:3.9690
hole:239 area:4.6218e+09
score:2.6400e+14

seed:1490  N:500
elapsed:3.9670
hole:241 area:4.7211e+09
score:2.7420e+14

seed:1491  N:500
elapsed:3.9800
hole:241 area:4.6268e+09
score:2.6873e+14

seed:1492  N:500
elapsed:3.9800
hole:239 area:4.5941e+09
score:2.6242e+14

seed:1493  N:500
elapsed:3.9650
hole:241 area:4.8718e+09
score:2.8296e+14

seed:1494  N:500
elapsed:3.9700
hole:240 area:4.7947e+09
score:2.7618e+14

seed:1495  N:500
elapsed:3.9490
hole:240 area:4.7457e+09
score:2.7335e+14

seed:1496  N:500
elapsed:3.9720
hole:241 area:4.6832e+09
score:2.7200e+14

seed:1497  N:500
elapsed:3.9720
hole:240 area:4.8207e+09
score:2.7767e+14

seed:1498  N:500
elapsed:3.9570
hole:240 area:4.9452e+09
score:2.8484e+14

seed:1499  N:500
elapsed:3.9690
hole:239 area:4.5912e+09
score:2.6225e+14

seed:1500  N:500
elapsed:3.9700
hole:240 area:4.6230e+09
score:2.6628e+14

seed:1501  N:600
elapsed:3.9490
hole:258 area:7.3061e+09
score:4.8633e+14

seed:1502  N:600
elapsed:3.9640
hole:288 area:6.9885e+09
score:5.7966e+14

seed:1503  N:600
elapsed:3.9060
hole:290 area:6.7743e+09
score:5.6972e+14

seed:1504  N:600
elapsed:3.9480
hole:292 area:6.6727e+09
score:5.6894e+14

seed:1505  N:600
elapsed:3.9360
hole:287 area:6.9102e+09
score:5.6919e+14

seed:1506  N:600
elapsed:3.9330
hole:289 area:7.0244e+09
score:5.8668e+14

seed:1507  N:600
elapsed:3.9360
hole:288 area:6.7955e+09
score:5.6365e+14

seed:1508  N:600
elapsed:3.9470
hole:289 area:6.9092e+09
score:5.7706e+14

seed:1509  N:600
elapsed:3.9440
hole:286 area:6.9297e+09
score:5.6682e+14

seed:1510  N:600
elapsed:3.9400
hole:285 area:6.9865e+09
score:5.6748e+14

seed:1511  N:600
elapsed:3.9360
hole:289 area:6.8389e+09
score:5.7119e+14

seed:1512  N:600
elapsed:3.9290
hole:290 area:6.7050e+09
score:5.6389e+14

seed:1513  N:600
elapsed:3.9710
hole:290 area:6.9260e+09
score:5.8248e+14

seed:1514  N:600
elapsed:3.9230
hole:289 area:6.7272e+09
score:5.6186e+14

seed:1515  N:600
elapsed:3.9360
hole:290 area:6.9943e+09
score:5.8822e+14

seed:1516  N:600
elapsed:3.9560
hole:290 area:6.8730e+09
score:5.7802e+14

seed:1517  N:600
elapsed:3.9220
hole:287 area:7.1194e+09
score:5.8642e+14

seed:1518  N:600
elapsed:3.9700
hole:285 area:6.7749e+09
score:5.5029e+14

seed:1519  N:600
elapsed:3.9430
hole:289 area:6.9392e+09
score:5.7957e+14

seed:1520  N:600
elapsed:3.9700
hole:289 area:6.9109e+09
score:5.7721e+14

seed:1521  N:600
elapsed:3.9320
hole:290 area:6.8043e+09
score:5.7224e+14

seed:1522  N:600
elapsed:3.9700
hole:291 area:6.7761e+09
score:5.7381e+14

seed:1523  N:600
elapsed:3.9580
hole:289 area:6.6128e+09
score:5.5230e+14

seed:1524  N:600
elapsed:3.9650
hole:246 area:6.9139e+09
score:4.1840e+14

seed:1525  N:600
elapsed:3.9390
hole:288 area:6.8758e+09
score:5.7031e+14

seed:1526  N:600
elapsed:3.9590
hole:289 area:7.0271e+09
score:5.8691e+14

seed:1527  N:600
elapsed:3.9450
hole:287 area:6.7771e+09
score:5.5822e+14

seed:1528  N:600
elapsed:3.9650
hole:288 area:6.8204e+09
score:5.6571e+14

seed:1529  N:600
elapsed:3.9400
hole:288 area:6.7340e+09
score:5.5855e+14

seed:1530  N:600
elapsed:3.9670
hole:288 area:7.0476e+09
score:5.8456e+14

seed:1531  N:600
elapsed:3.9510
hole:288 area:6.8308e+09
score:5.6657e+14

seed:1532  N:600
elapsed:3.9630
hole:288 area:6.7928e+09
score:5.6342e+14

seed:1533  N:600
elapsed:3.9400
hole:288 area:6.8383e+09
score:5.6719e+14

seed:1534  N:600
elapsed:3.9570
hole:287 area:7.0912e+09
score:5.8409e+14

seed:1535  N:600
elapsed:3.9290
hole:289 area:7.0575e+09
score:5.8945e+14

seed:1536  N:600
elapsed:3.9640
hole:287 area:6.6836e+09
score:5.5052e+14

seed:1537  N:600
elapsed:3.9380
hole:289 area:6.7575e+09
score:5.6439e+14

seed:1538  N:600
elapsed:3.9660
hole:288 area:7.0961e+09
score:5.8858e+14

seed:1539  N:600
elapsed:3.9460
hole:288 area:6.8034e+09
score:5.6430e+14

seed:1540  N:600
elapsed:3.9640
hole:289 area:6.6265e+09
score:5.5345e+14

seed:1541  N:600
elapsed:3.9390
hole:291 area:7.0392e+09
score:5.9609e+14

seed:1542  N:600
elapsed:3.9720
hole:288 area:7.0986e+09
score:5.8879e+14

seed:1543  N:600
elapsed:3.9450
hole:288 area:6.9252e+09
score:5.7441e+14

seed:1544  N:600
elapsed:3.9710
hole:288 area:6.8877e+09
score:5.7130e+14

seed:1545  N:600
elapsed:3.9410
hole:289 area:6.6777e+09
score:5.5773e+14

seed:1546  N:600
elapsed:3.9680
hole:289 area:6.8425e+09
score:5.7150e+14

seed:1547  N:600
elapsed:3.9720
hole:290 area:7.0474e+09
score:5.9268e+14

seed:1548  N:600
elapsed:3.9510
hole:290 area:6.7767e+09
score:5.6992e+14

seed:1549  N:600
elapsed:3.9770
hole:289 area:6.5548e+09
score:5.4746e+14

seed:1550  N:600
elapsed:3.9150
hole:289 area:7.0887e+09
score:5.9206e+14

seed:1551  N:600
elapsed:3.9780
hole:290 area:6.8270e+09
score:5.7415e+14

seed:1552  N:600
elapsed:3.9550
hole:287 area:7.0027e+09
score:5.7680e+14

seed:1553  N:600
elapsed:3.9340
hole:289 area:6.9101e+09
score:5.7714e+14

seed:1554  N:600
elapsed:3.9690
hole:288 area:6.8590e+09
score:5.6891e+14

seed:1555  N:600
elapsed:3.9480
hole:290 area:6.9716e+09
score:5.8631e+14

seed:1556  N:600
elapsed:3.9440
hole:290 area:6.9119e+09
score:5.8129e+14

seed:1557  N:600
elapsed:3.9720
hole:287 area:6.9172e+09
score:5.6976e+14

seed:1558  N:600
elapsed:3.9740
hole:288 area:6.7256e+09
score:5.5785e+14

seed:1559  N:600
elapsed:3.9410
hole:287 area:7.0544e+09
score:5.8106e+14

seed:1560  N:600
elapsed:3.9750
hole:291 area:6.7187e+09
score:5.6895e+14

seed:1561  N:600
elapsed:3.9370
hole:289 area:6.9145e+09
score:5.7750e+14

seed:1562  N:600
elapsed:3.9610
hole:289 area:6.8082e+09
score:5.6863e+14

seed:1563  N:600
elapsed:3.9720
hole:287 area:6.9307e+09
score:5.7087e+14

seed:1564  N:600
elapsed:3.9380
hole:288 area:6.8685e+09
score:5.6970e+14

seed:1565  N:600
elapsed:3.9650
hole:289 area:6.6863e+09
score:5.5845e+14

seed:1566  N:600
elapsed:3.9620
hole:287 area:6.6859e+09
score:5.5071e+14

seed:1567  N:600
elapsed:3.9220
hole:287 area:6.7116e+09
score:5.5283e+14

seed:1568  N:600
elapsed:3.9770
hole:287 area:6.8370e+09
score:5.6316e+14

seed:1569  N:600
elapsed:3.9690
hole:289 area:7.0639e+09
score:5.8998e+14

seed:1570  N:600
elapsed:3.9290
hole:290 area:6.7738e+09
score:5.6968e+14

seed:1571  N:600
elapsed:3.9730
hole:288 area:6.9984e+09
score:5.8048e+14

seed:1572  N:600
elapsed:3.9520
hole:290 area:6.9155e+09
score:5.8159e+14

seed:1573  N:600
elapsed:3.9750
hole:286 area:7.0436e+09
score:5.7614e+14

seed:1574  N:600
elapsed:3.9680
hole:289 area:6.7678e+09
score:5.6525e+14

seed:1575  N:600
elapsed:3.9670
hole:289 area:6.7244e+09
score:5.6163e+14

seed:1576  N:600
elapsed:3.9140
hole:288 area:7.0639e+09
score:5.8591e+14

seed:1577  N:600
elapsed:3.9660
hole:289 area:6.8541e+09
score:5.7246e+14

seed:1578  N:600
elapsed:3.9760
hole:288 area:6.8062e+09
score:5.6453e+14

seed:1579  N:600
elapsed:3.9390
hole:288 area:6.6934e+09
score:5.5518e+14

seed:1580  N:600
elapsed:3.9680
hole:289 area:6.5657e+09
score:5.4837e+14

seed:1581  N:600
elapsed:3.9540
hole:291 area:6.7784e+09
score:5.7401e+14

seed:1582  N:600
elapsed:3.9550
hole:289 area:6.9950e+09
score:5.8423e+14

seed:1583  N:600
elapsed:3.9680
hole:289 area:7.0139e+09
score:5.8581e+14

seed:1584  N:600
elapsed:3.9630
hole:288 area:6.9557e+09
score:5.7693e+14

seed:1585  N:600
elapsed:3.9600
hole:290 area:6.8092e+09
score:5.7266e+14

seed:1586  N:600
elapsed:3.9380
hole:288 area:6.8666e+09
score:5.6955e+14

seed:1587  N:600
elapsed:3.9740
hole:289 area:6.8042e+09
score:5.6829e+14

seed:1588  N:600
elapsed:3.9640
hole:287 area:6.8083e+09
score:5.6079e+14

seed:1589  N:600
elapsed:3.9540
hole:289 area:6.9751e+09
score:5.8257e+14

seed:1590  N:600
elapsed:3.9730
hole:286 area:6.7464e+09
score:5.5183e+14

seed:1591  N:600
elapsed:3.9670
hole:288 area:6.7527e+09
score:5.6009e+14

seed:1592  N:600
elapsed:3.9500
hole:287 area:6.8044e+09
score:5.6047e+14

seed:1593  N:600
elapsed:3.9570
hole:289 area:7.0115e+09
score:5.8561e+14

seed:1594  N:600
elapsed:3.9650
hole:288 area:6.9561e+09
score:5.7696e+14

seed:1595  N:600
elapsed:3.9670
hole:287 area:6.8620e+09
score:5.6521e+14

seed:1596  N:600
elapsed:4.0040
hole:292 area:6.7788e+09
score:5.7798e+14

seed:1597  N:600
elapsed:3.9630
hole:289 area:6.7766e+09
score:5.6599e+14

seed:1598  N:600
elapsed:3.9690
hole:289 area:6.8277e+09
score:5.7026e+14

seed:1599  N:600
elapsed:3.9700
hole:290 area:6.5484e+09
score:5.5072e+14

seed:1600  N:600
elapsed:3.9250
hole:290 area:6.6631e+09
score:5.6037e+14

seed:1601  N:700
elapsed:3.9760
hole:337 area:9.5993e+09
score:1.0902e+15

seed:1602  N:700
elapsed:3.9540
hole:337 area:9.3164e+09
score:1.0581e+15

seed:1603  N:700
elapsed:3.9370
hole:337 area:9.2024e+09
score:1.0451e+15

seed:1604  N:700
elapsed:3.9540
hole:337 area:9.2865e+09
score:1.0547e+15

seed:1605  N:700
elapsed:3.9430
hole:339 area:9.3387e+09
score:1.0732e+15

seed:1606  N:700
elapsed:3.9430
hole:335 area:9.4124e+09
score:1.0563e+15

seed:1607  N:700
elapsed:3.9510
hole:338 area:9.4325e+09
score:1.0776e+15

seed:1608  N:700
elapsed:3.9490
hole:338 area:9.5215e+09
score:1.0878e+15

seed:1609  N:700
elapsed:3.9560
hole:337 area:9.2633e+09
score:1.0520e+15

seed:1610  N:700
elapsed:3.9710
hole:339 area:9.1634e+09
score:1.0531e+15

seed:1611  N:700
elapsed:3.9230
hole:336 area:9.3279e+09
score:1.0531e+15

seed:1612  N:700
elapsed:3.9660
hole:335 area:9.3099e+09
score:1.0448e+15

seed:1613  N:700
elapsed:3.9650
hole:336 area:9.3625e+09
score:1.0570e+15

seed:1614  N:700
elapsed:3.9570
hole:336 area:9.3477e+09
score:1.0553e+15

seed:1615  N:700
elapsed:3.9600
hole:338 area:9.3462e+09
score:1.0678e+15

seed:1616  N:700
elapsed:3.9640
hole:333 area:9.3721e+09
score:1.0393e+15

seed:1617  N:700
elapsed:3.9540
hole:334 area:9.5115e+09
score:1.0611e+15

seed:1618  N:700
elapsed:3.9620
hole:335 area:9.7211e+09
score:1.0910e+15

seed:1619  N:700
elapsed:3.9690
hole:337 area:9.3360e+09
score:1.0603e+15

seed:1620  N:700
elapsed:3.9570
hole:337 area:9.1872e+09
score:1.0434e+15

seed:1621  N:700
elapsed:3.9800
hole:338 area:9.3408e+09
score:1.0671e+15

seed:1622  N:700
elapsed:3.9530
hole:337 area:9.3910e+09
score:1.0665e+15

seed:1623  N:700
elapsed:3.9410
hole:339 area:9.2395e+09
score:1.0618e+15

seed:1624  N:700
elapsed:3.9310
hole:335 area:9.3363e+09
score:1.0478e+15

seed:1625  N:700
elapsed:3.9730
hole:335 area:9.6186e+09
score:1.0795e+15

seed:1626  N:700
elapsed:3.9760
hole:337 area:9.2682e+09
score:1.0526e+15

seed:1627  N:700
elapsed:3.9550
hole:338 area:9.3899e+09
score:1.0727e+15

seed:1628  N:700
elapsed:3.9350
hole:335 area:9.3492e+09
score:1.0492e+15

seed:1629  N:700
elapsed:3.9560
hole:337 area:9.4111e+09
score:1.0688e+15

seed:1630  N:700
elapsed:3.9730
hole:335 area:9.3692e+09
score:1.0515e+15

seed:1631  N:700
elapsed:3.9550
hole:339 area:9.2356e+09
score:1.0614e+15

seed:1632  N:700
elapsed:3.9400
hole:337 area:9.4630e+09
score:1.0747e+15

seed:1633  N:700
elapsed:3.9300
hole:337 area:9.4487e+09
score:1.0731e+15

seed:1634  N:700
elapsed:3.9550
hole:336 area:9.0279e+09
score:1.0192e+15

seed:1635  N:700
elapsed:3.9730
hole:336 area:9.3688e+09
score:1.0577e+15

seed:1636  N:700
elapsed:3.9080
hole:339 area:9.4437e+09
score:1.0853e+15

seed:1637  N:700
elapsed:3.9790
hole:338 area:9.0094e+09
score:1.0293e+15

seed:1638  N:700
elapsed:3.9510
hole:336 area:9.6606e+09
score:1.0906e+15

seed:1639  N:700
elapsed:3.9560
hole:337 area:9.3171e+09
score:1.0581e+15

seed:1640  N:700
elapsed:3.9520
hole:336 area:9.2389e+09
score:1.0430e+15

seed:1641  N:700
elapsed:3.9610
hole:335 area:9.2514e+09
score:1.0382e+15

seed:1642  N:700
elapsed:3.9370
hole:337 area:9.5729e+09
score:1.0872e+15

seed:1643  N:700
elapsed:3.9800
hole:337 area:9.1759e+09
score:1.0421e+15

seed:1644  N:700
elapsed:3.9620
hole:336 area:9.6865e+09
score:1.0936e+15

seed:1645  N:700
elapsed:3.9360
hole:336 area:9.4371e+09
score:1.0654e+15

seed:1646  N:700
elapsed:3.9700
hole:337 area:9.4108e+09
score:1.0688e+15

seed:1647  N:700
elapsed:3.9620
hole:336 area:9.3354e+09
score:1.0539e+15

seed:1648  N:700
elapsed:3.9570
hole:338 area:9.4122e+09
score:1.0753e+15

seed:1649  N:700
elapsed:3.9400
hole:336 area:9.7132e+09
score:1.0966e+15

seed:1650  N:700
elapsed:3.9570
hole:337 area:9.0756e+09
score:1.0307e+15

seed:1651  N:700
elapsed:3.9620
hole:337 area:9.3100e+09
score:1.0573e+15

seed:1652  N:700
elapsed:3.9390
hole:338 area:9.6483e+09
score:1.1023e+15

seed:1653  N:700
elapsed:3.9640
hole:338 area:9.2150e+09
score:1.0528e+15

seed:1654  N:700
elapsed:3.9220
hole:337 area:9.5195e+09
score:1.0811e+15

seed:1655  N:700
elapsed:3.9540
hole:338 area:9.4957e+09
score:1.0848e+15

seed:1656  N:700
elapsed:3.9600
hole:335 area:9.3066e+09
score:1.0444e+15

seed:1657  N:700
elapsed:3.9790
hole:339 area:9.3745e+09
score:1.0773e+15

seed:1658  N:700
elapsed:3.9560
hole:338 area:9.1818e+09
score:1.0490e+15

seed:1659  N:700
elapsed:3.9160
hole:336 area:9.3602e+09
score:1.0567e+15

seed:1660  N:700
elapsed:3.9700
hole:336 area:9.3400e+09
score:1.0545e+15

seed:1661  N:700
elapsed:3.9520
hole:336 area:9.2787e+09
score:1.0475e+15

seed:1662  N:700
elapsed:3.9500
hole:338 area:9.2042e+09
score:1.0515e+15

seed:1663  N:700
elapsed:3.9490
hole:334 area:9.3647e+09
score:1.0447e+15

seed:1664  N:700
elapsed:3.9320
hole:338 area:8.9147e+09
score:1.0184e+15

seed:1665  N:700
elapsed:3.9640
hole:336 area:9.1830e+09
score:1.0367e+15

seed:1666  N:700
elapsed:3.9740
hole:337 area:9.4867e+09
score:1.0774e+15

seed:1667  N:700
elapsed:3.9540
hole:342 area:9.1114e+09
score:1.0657e+15

seed:1668  N:700
elapsed:3.9560
hole:336 area:9.5572e+09
score:1.0790e+15

seed:1669  N:700
elapsed:3.9290
hole:336 area:9.5665e+09
score:1.0800e+15

seed:1670  N:700
elapsed:3.9770
hole:335 area:9.1288e+09
score:1.0245e+15

seed:1671  N:700
elapsed:3.9660
hole:337 area:9.6556e+09
score:1.0966e+15

seed:1672  N:700
elapsed:3.9690
hole:336 area:9.2476e+09
score:1.0440e+15

seed:1673  N:700
elapsed:3.9500
hole:336 area:9.4809e+09
score:1.0704e+15

seed:1674  N:700
elapsed:3.9280
hole:340 area:9.3325e+09
score:1.0788e+15

seed:1675  N:700
elapsed:3.9520
hole:335 area:9.4357e+09
score:1.0589e+15

seed:1676  N:700
elapsed:3.9740
hole:337 area:9.3602e+09
score:1.0630e+15

seed:1677  N:700
elapsed:3.9690
hole:337 area:9.2187e+09
score:1.0470e+15

seed:1678  N:700
elapsed:3.9600
hole:336 area:9.1309e+09
score:1.0308e+15

seed:1679  N:700
elapsed:3.9370
hole:336 area:9.4534e+09
score:1.0673e+15

seed:1680  N:700
elapsed:3.9620
hole:337 area:9.3534e+09
score:1.0623e+15

seed:1681  N:700
elapsed:3.9470
hole:336 area:9.0307e+09
score:1.0195e+15

seed:1682  N:700
elapsed:3.9590
hole:336 area:9.4857e+09
score:1.0709e+15

seed:1683  N:700
elapsed:3.9580
hole:336 area:9.5110e+09
score:1.0737e+15

seed:1684  N:700
elapsed:3.9340
hole:335 area:9.6564e+09
score:1.0837e+15

seed:1685  N:700
elapsed:3.9620
hole:337 area:9.4146e+09
score:1.0692e+15

seed:1686  N:700
elapsed:3.9640
hole:337 area:9.4942e+09
score:1.0783e+15

seed:1687  N:700
elapsed:3.9530
hole:336 area:9.3943e+09
score:1.0606e+15

seed:1688  N:700
elapsed:3.9680
hole:337 area:9.4440e+09
score:1.0725e+15

seed:1689  N:700
elapsed:3.9590
hole:337 area:9.1754e+09
score:1.0420e+15

seed:1690  N:700
elapsed:3.9550
hole:339 area:9.1768e+09
score:1.0546e+15

seed:1691  N:700
elapsed:3.9450
hole:337 area:9.3639e+09
score:1.0635e+15

seed:1692  N:700
elapsed:3.9490
hole:337 area:9.2884e+09
score:1.0549e+15

seed:1693  N:700
elapsed:3.9790
hole:339 area:9.1784e+09
score:1.0548e+15

seed:1694  N:700
elapsed:3.9560
hole:336 area:9.3144e+09
score:1.0516e+15

seed:1695  N:700
elapsed:3.9490
hole:336 area:9.2476e+09
score:1.0440e+15

seed:1696  N:700
elapsed:3.9510
hole:336 area:9.2781e+09
score:1.0475e+15

seed:1697  N:700
elapsed:3.9530
hole:337 area:9.3239e+09
score:1.0589e+15

seed:1698  N:700
elapsed:3.9500
hole:336 area:9.4610e+09
score:1.0681e+15

seed:1699  N:700
elapsed:3.9510
hole:337 area:9.3554e+09
score:1.0625e+15

seed:1700  N:700
elapsed:3.9550
hole:337 area:9.6317e+09
score:1.0939e+15

seed:1701  N:800
elapsed:3.8800
hole:385 area:1.2402e+10
score:1.8383e+15

seed:1702  N:800
elapsed:3.9530
hole:384 area:1.2627e+10
score:1.8619e+15

seed:1703  N:800
elapsed:3.9420
hole:386 area:1.2243e+10
score:1.8241e+15

seed:1704  N:800
elapsed:3.9580
hole:386 area:1.2096e+10
score:1.8022e+15

seed:1705  N:800
elapsed:3.9460
hole:385 area:1.2099e+10
score:1.7934e+15

seed:1706  N:800
elapsed:3.9670
hole:387 area:1.2371e+10
score:1.8527e+15

seed:1707  N:800
elapsed:3.9320
hole:386 area:1.2248e+10
score:1.8249e+15

seed:1708  N:800
elapsed:3.9420
hole:384 area:1.1872e+10
score:1.7506e+15

seed:1709  N:800
elapsed:3.9430
hole:385 area:1.2366e+10
score:1.8330e+15

seed:1710  N:800
elapsed:3.9590
hole:386 area:1.2177e+10
score:1.8144e+15

seed:1711  N:800
elapsed:3.9630
hole:384 area:1.2222e+10
score:1.8022e+15

seed:1712  N:800
elapsed:3.9730
hole:387 area:1.2162e+10
score:1.8215e+15

seed:1713  N:800
elapsed:3.9450
hole:385 area:1.2173e+10
score:1.8043e+15

seed:1714  N:800
elapsed:3.9370
hole:385 area:1.2329e+10
score:1.8275e+15

seed:1715  N:800
elapsed:3.9420
hole:386 area:1.2312e+10
score:1.8344e+15

seed:1716  N:800
elapsed:3.9390
hole:386 area:1.2161e+10
score:1.8119e+15

seed:1717  N:800
elapsed:3.9500
hole:385 area:1.2126e+10
score:1.7974e+15

seed:1718  N:800
elapsed:3.9400
hole:386 area:1.2009e+10
score:1.7892e+15

seed:1719  N:800
elapsed:3.9440
hole:385 area:1.2396e+10
score:1.8374e+15

seed:1720  N:800
elapsed:3.9650
hole:387 area:1.2306e+10
score:1.8431e+15

seed:1721  N:800
elapsed:3.9400
hole:385 area:1.1818e+10
score:1.7517e+15

seed:1722  N:800
elapsed:3.9570
hole:386 area:1.2310e+10
score:1.8342e+15

seed:1723  N:800
elapsed:3.9250
hole:386 area:1.2157e+10
score:1.8113e+15

seed:1724  N:800
elapsed:3.9610
hole:387 area:1.2505e+10
score:1.8729e+15

seed:1725  N:800
elapsed:3.9490
hole:384 area:1.1915e+10
score:1.7569e+15

seed:1726  N:800
elapsed:3.9550
hole:384 area:1.2523e+10
score:1.8466e+15

seed:1727  N:800
elapsed:3.9460
hole:385 area:1.2447e+10
score:1.8449e+15

seed:1728  N:800
elapsed:3.9540
hole:387 area:1.2292e+10
score:1.8410e+15

seed:1729  N:800
elapsed:3.9260
hole:384 area:1.2553e+10
score:1.8510e+15

seed:1730  N:800
elapsed:3.9730
hole:384 area:1.2093e+10
score:1.7832e+15

seed:1731  N:800
elapsed:3.9690
hole:386 area:1.2363e+10
score:1.8421e+15

seed:1732  N:800
elapsed:3.9650
hole:385 area:1.2209e+10
score:1.8097e+15

seed:1733  N:800
elapsed:3.9560
hole:386 area:1.1964e+10
score:1.7826e+15

seed:1734  N:800
elapsed:3.9540
hole:388 area:1.2077e+10
score:1.8181e+15

seed:1735  N:800
elapsed:3.9010
hole:386 area:1.2685e+10
score:1.8900e+15

seed:1736  N:800
elapsed:3.9510
hole:384 area:1.2073e+10
score:1.7802e+15

seed:1737  N:800
elapsed:3.9530
hole:386 area:1.2185e+10
score:1.8156e+15

seed:1738  N:800
elapsed:3.9480
hole:387 area:1.2166e+10
score:1.8220e+15

seed:1739  N:800
elapsed:3.9500
hole:386 area:1.2171e+10
score:1.8134e+15

seed:1740  N:800
elapsed:3.9360
hole:385 area:1.1968e+10
score:1.7740e+15

seed:1741  N:800
elapsed:3.9390
hole:386 area:1.2584e+10
score:1.8750e+15

seed:1742  N:800
elapsed:3.9460
hole:383 area:1.2608e+10
score:1.8495e+15

seed:1743  N:800
elapsed:3.9600
hole:385 area:1.2564e+10
score:1.8623e+15

seed:1744  N:800
elapsed:3.9640
hole:385 area:1.2817e+10
score:1.8998e+15

seed:1745  N:800
elapsed:3.9410
hole:386 area:1.2265e+10
score:1.8274e+15

seed:1746  N:800
elapsed:3.9410
hole:385 area:1.2156e+10
score:1.8018e+15

seed:1747  N:800
elapsed:3.9180
hole:385 area:1.2443e+10
score:1.8444e+15

seed:1748  N:800
elapsed:3.9680
hole:387 area:1.2399e+10
score:1.8570e+15

seed:1749  N:800
elapsed:3.9490
hole:384 area:1.2641e+10
score:1.8640e+15

seed:1750  N:800
elapsed:3.9520
hole:387 area:1.1975e+10
score:1.7934e+15

seed:1751  N:800
elapsed:3.9680
hole:329 area:1.2332e+10
score:1.3348e+15

seed:1752  N:800
elapsed:3.9550
hole:387 area:1.2321e+10
score:1.8453e+15

seed:1753  N:800
elapsed:3.8970
hole:388 area:1.2221e+10
score:1.8398e+15

seed:1754  N:800
elapsed:3.9290
hole:385 area:1.2107e+10
score:1.7946e+15

seed:1755  N:800
elapsed:3.9920
hole:386 area:1.2557e+10
score:1.8709e+15

seed:1756  N:800
elapsed:3.9290
hole:383 area:1.2246e+10
score:1.7963e+15

seed:1757  N:800
elapsed:3.9150
hole:385 area:1.2718e+10
score:1.8851e+15

seed:1758  N:800
elapsed:3.9200
hole:386 area:1.2074e+10
score:1.7989e+15

seed:1759  N:800
elapsed:3.9520
hole:388 area:1.1803e+10
score:1.7769e+15

seed:1760  N:800
elapsed:3.9340
hole:384 area:1.2314e+10
score:1.8158e+15

seed:1761  N:800
elapsed:3.9470
hole:387 area:1.2293e+10
score:1.8412e+15

seed:1762  N:800
elapsed:3.9140
hole:384 area:1.2161e+10
score:1.7933e+15

seed:1763  N:800
elapsed:3.9470
hole:385 area:1.2226e+10
score:1.8122e+15

seed:1764  N:800
elapsed:3.9180
hole:385 area:1.2281e+10
score:1.8204e+15

seed:1765  N:800
elapsed:3.9340
hole:387 area:1.2154e+10
score:1.8203e+15

seed:1766  N:800
elapsed:3.9530
hole:387 area:1.2479e+10
score:1.8690e+15

seed:1767  N:800
elapsed:3.9280
hole:385 area:1.2075e+10
score:1.7899e+15

seed:1768  N:800
elapsed:3.9400
hole:384 area:1.2510e+10
score:1.8446e+15

seed:1769  N:800
elapsed:3.9320
hole:386 area:1.2478e+10
score:1.8592e+15

seed:1770  N:800
elapsed:3.9450
hole:389 area:1.2459e+10
score:1.8854e+15

seed:1771  N:800
elapsed:3.9470
hole:386 area:1.2111e+10
score:1.8045e+15

seed:1772  N:800
elapsed:3.9740
hole:385 area:1.2002e+10
score:1.7790e+15

seed:1773  N:800
elapsed:3.9340
hole:388 area:1.2350e+10
score:1.8593e+15

seed:1774  N:800
elapsed:3.9400
hole:385 area:1.2515e+10
score:1.8550e+15

seed:1775  N:800
elapsed:3.9200
hole:384 area:1.2312e+10
score:1.8154e+15

seed:1776  N:800
elapsed:3.9420
hole:386 area:1.2185e+10
score:1.8156e+15

seed:1777  N:800
elapsed:3.9280
hole:385 area:1.1892e+10
score:1.7627e+15

seed:1778  N:800
elapsed:3.9500
hole:388 area:1.1959e+10
score:1.8004e+15

seed:1779  N:800
elapsed:3.9310
hole:385 area:1.2255e+10
score:1.8165e+15

seed:1780  N:800
elapsed:3.9380
hole:384 area:1.2243e+10
score:1.8053e+15

seed:1781  N:800
elapsed:3.9240
hole:385 area:1.2036e+10
score:1.7841e+15

seed:1782  N:800
elapsed:3.9390
hole:385 area:1.2189e+10
score:1.8067e+15

seed:1783  N:800
elapsed:3.9290
hole:385 area:1.2325e+10
score:1.8269e+15

seed:1784  N:800
elapsed:3.9380
hole:385 area:1.2334e+10
score:1.8283e+15

seed:1785  N:800
elapsed:3.9370
hole:387 area:1.2189e+10
score:1.8255e+15

seed:1786  N:800
elapsed:3.9640
hole:384 area:1.2607e+10
score:1.8590e+15

seed:1787  N:800
elapsed:3.9210
hole:386 area:1.2080e+10
score:1.7998e+15

seed:1788  N:800
elapsed:3.9820
hole:385 area:1.2105e+10
score:1.7943e+15

seed:1789  N:800
elapsed:3.9640
hole:388 area:1.1955e+10
score:1.7998e+15

seed:1790  N:800
elapsed:3.9770
hole:387 area:1.2016e+10
score:1.7996e+15

seed:1791  N:800
elapsed:3.9290
hole:385 area:1.2260e+10
score:1.8172e+15

seed:1792  N:800
elapsed:3.9460
hole:385 area:1.2519e+10
score:1.8556e+15

seed:1793  N:800
elapsed:3.9210
hole:386 area:1.2126e+10
score:1.8067e+15

seed:1794  N:800
elapsed:3.9710
hole:385 area:1.2031e+10
score:1.7833e+15

seed:1795  N:800
elapsed:3.9210
hole:384 area:1.2254e+10
score:1.8069e+15

seed:1796  N:800
elapsed:3.9470
hole:384 area:1.2600e+10
score:1.8579e+15

seed:1797  N:800
elapsed:3.9630
hole:386 area:1.2391e+10
score:1.8462e+15

seed:1798  N:800
elapsed:3.9370
hole:385 area:1.2411e+10
score:1.8396e+15

seed:1799  N:800
elapsed:3.9520
hole:386 area:1.2186e+10
score:1.8157e+15

seed:1800  N:800
elapsed:3.9300
hole:386 area:1.2082e+10
score:1.8002e+15

seed:1801  N:900
elapsed:3.9460
hole:435 area:1.5477e+10
score:2.9287e+15

seed:1802  N:900
elapsed:3.9320
hole:434 area:1.5805e+10
score:2.9769e+15

seed:1803  N:900
elapsed:3.9360
hole:433 area:1.5700e+10
score:2.9435e+15

seed:1804  N:900
elapsed:3.9450
hole:436 area:1.5920e+10
score:3.0263e+15

seed:1805  N:900
elapsed:3.9220
hole:434 area:1.5589e+10
score:2.9363e+15

seed:1806  N:900
elapsed:3.9430
hole:434 area:1.5706e+10
score:2.9584e+15

seed:1807  N:900
elapsed:3.9610
hole:437 area:1.5938e+10
score:3.0436e+15

seed:1808  N:900
elapsed:3.9560
hole:435 area:1.5639e+10
score:2.9593e+15

seed:1809  N:900
elapsed:3.9420
hole:434 area:1.5523e+10
score:2.9238e+15

seed:1810  N:900
elapsed:3.9430
hole:432 area:1.5534e+10
score:2.8989e+15

seed:1811  N:900
elapsed:3.9120
hole:433 area:1.5495e+10
score:2.9051e+15

seed:1812  N:900
elapsed:3.9280
hole:433 area:1.5263e+10
score:2.8616e+15

seed:1813  N:900
elapsed:3.9760
hole:433 area:1.5741e+10
score:2.9513e+15

seed:1814  N:900
elapsed:3.9110
hole:436 area:1.5341e+10
score:2.9163e+15

seed:1815  N:900
elapsed:3.9460
hole:431 area:1.6068e+10
score:2.9847e+15

seed:1816  N:900
elapsed:3.9530
hole:434 area:1.5723e+10
score:2.9615e+15

seed:1817  N:900
elapsed:3.9270
hole:435 area:1.5465e+10
score:2.9264e+15

seed:1818  N:900
elapsed:3.9590
hole:435 area:1.5705e+10
score:2.9718e+15

seed:1819  N:900
elapsed:3.9590
hole:437 area:1.5467e+10
score:2.9537e+15

seed:1820  N:900
elapsed:3.9310
hole:436 area:1.5269e+10
score:2.9026e+15

seed:1821  N:900
elapsed:3.9490
hole:435 area:1.6023e+10
score:3.0319e+15

seed:1822  N:900
elapsed:3.9190
hole:437 area:1.6146e+10
score:3.0833e+15

seed:1823  N:900
elapsed:3.9430
hole:433 area:1.5521e+10
score:2.9101e+15

seed:1824  N:900
elapsed:3.9670
hole:436 area:1.5357e+10
score:2.9194e+15

seed:1825  N:900
elapsed:3.9390
hole:434 area:1.5462e+10
score:2.9124e+15

seed:1826  N:900
elapsed:3.8960
hole:434 area:1.5795e+10
score:2.9751e+15

seed:1827  N:900
elapsed:3.9720
hole:432 area:1.5324e+10
score:2.8599e+15

seed:1828  N:900
elapsed:3.9510
hole:434 area:1.5687e+10
score:2.9548e+15

seed:1829  N:900
elapsed:3.9200
hole:433 area:1.5563e+10
score:2.9178e+15

seed:1830  N:900
elapsed:3.9470
hole:433 area:1.5730e+10
score:2.9491e+15

seed:1831  N:900
elapsed:3.9630
hole:434 area:1.5663e+10
score:2.9502e+15

seed:1832  N:900
elapsed:3.9270
hole:434 area:1.6123e+10
score:3.0368e+15

seed:1833  N:900
elapsed:3.9600
hole:433 area:1.4881e+10
score:2.7901e+15

seed:1834  N:900
elapsed:3.9390
hole:437 area:1.5638e+10
score:2.9863e+15

seed:1835  N:900
elapsed:3.9620
hole:431 area:1.5702e+10
score:2.9168e+15

seed:1836  N:900
elapsed:3.9000
hole:436 area:1.5635e+10
score:2.9722e+15

seed:1837  N:900
elapsed:3.9340
hole:432 area:1.5438e+10
score:2.8812e+15

seed:1838  N:900
elapsed:3.9770
hole:437 area:1.5937e+10
score:3.0436e+15

seed:1839  N:900
elapsed:3.9490
hole:434 area:1.5915e+10
score:2.9976e+15

seed:1840  N:900
elapsed:3.9450
hole:433 area:1.5490e+10
score:2.9041e+15

seed:1841  N:900
elapsed:3.9780
hole:431 area:1.5503e+10
score:2.8799e+15

seed:1842  N:900
elapsed:3.9430
hole:434 area:1.5680e+10
score:2.9533e+15

seed:1843  N:900
elapsed:3.9580
hole:434 area:1.5378e+10
score:2.8965e+15

seed:1844  N:900
elapsed:3.9360
hole:432 area:1.5317e+10
score:2.8585e+15

seed:1845  N:900
elapsed:3.9790
hole:435 area:1.5542e+10
score:2.9410e+15

seed:1846  N:900
elapsed:3.9180
hole:433 area:1.5794e+10
score:2.9613e+15

seed:1847  N:900
elapsed:3.9560
hole:430 area:1.5559e+10
score:2.8768e+15

seed:1848  N:900
elapsed:3.9290
hole:432 area:1.5505e+10
score:2.8937e+15

seed:1849  N:900
elapsed:3.9630
hole:436 area:1.5636e+10
score:2.9722e+15

seed:1850  N:900
elapsed:3.9280
hole:432 area:1.5760e+10
score:2.9413e+15

seed:1851  N:900
elapsed:3.9340
hole:434 area:1.5371e+10
score:2.8952e+15

seed:1852  N:900
elapsed:3.9680
hole:433 area:1.5757e+10
score:2.9542e+15

seed:1853  N:900
elapsed:3.9110
hole:431 area:1.5698e+10
score:2.9161e+15

seed:1854  N:900
elapsed:3.9390
hole:432 area:1.5380e+10
score:2.8702e+15

seed:1855  N:900
elapsed:3.9450
hole:434 area:1.5549e+10
score:2.9287e+15

seed:1856  N:900
elapsed:3.9460
hole:433 area:1.5536e+10
score:2.9129e+15

seed:1857  N:900
elapsed:3.9400
hole:436 area:1.5242e+10
score:2.8974e+15

seed:1858  N:900
elapsed:3.9700
hole:432 area:1.5443e+10
score:2.8821e+15

seed:1859  N:900
elapsed:3.9430
hole:432 area:1.5433e+10
score:2.8802e+15

seed:1860  N:900
elapsed:3.9680
hole:431 area:1.5818e+10
score:2.9383e+15

seed:1861  N:900
elapsed:3.9110
hole:433 area:1.6067e+10
score:3.0124e+15

seed:1862  N:900
elapsed:3.9620
hole:433 area:1.5501e+10
score:2.9062e+15

seed:1863  N:900
elapsed:3.9390
hole:434 area:1.5718e+10
score:2.9607e+15

seed:1864  N:900
elapsed:3.9370
hole:434 area:1.5479e+10
score:2.9155e+15

seed:1865  N:900
elapsed:3.9090
hole:431 area:1.5961e+10
score:2.9650e+15

seed:1866  N:900
elapsed:3.9660
hole:435 area:1.5448e+10
score:2.9232e+15

seed:1867  N:900
elapsed:3.9360
hole:436 area:1.5472e+10
score:2.9412e+15

seed:1868  N:900
elapsed:3.9580
hole:433 area:1.5093e+10
score:2.8298e+15

seed:1869  N:900
elapsed:3.9580
hole:428 area:1.5424e+10
score:2.8255e+15

seed:1870  N:900
elapsed:3.9180
hole:435 area:1.5924e+10
score:3.0133e+15

seed:1871  N:900
elapsed:3.9820
hole:431 area:1.5923e+10
score:2.9579e+15

seed:1872  N:900
elapsed:3.9650
hole:327 area:1.5817e+10
score:1.6913e+15

seed:1873  N:900
elapsed:3.9450
hole:433 area:1.6133e+10
score:3.0247e+15

seed:1874  N:900
elapsed:3.9660
hole:339 area:1.5680e+10
score:1.8019e+15

seed:1875  N:900
elapsed:3.9620
hole:434 area:1.5854e+10
score:2.9862e+15

seed:1876  N:900
elapsed:3.9460
hole:434 area:1.5634e+10
score:2.9448e+15

seed:1877  N:900
elapsed:3.9210
hole:435 area:1.5606e+10
score:2.9530e+15

seed:1878  N:900
elapsed:3.9130
hole:437 area:1.5812e+10
score:3.0195e+15

seed:1879  N:900
elapsed:3.9500
hole:328 area:1.5938e+10
score:1.7146e+15

seed:1880  N:900
elapsed:3.9700
hole:434 area:1.5690e+10
score:2.9553e+15

seed:1881  N:900
elapsed:3.9470
hole:356 area:1.6001e+10
score:2.0279e+15

seed:1882  N:900
elapsed:3.9010
hole:432 area:1.5494e+10
score:2.8915e+15

seed:1883  N:900
elapsed:3.9350
hole:435 area:1.5551e+10
score:2.9427e+15

seed:1884  N:900
elapsed:3.9680
hole:434 area:1.5287e+10
score:2.8793e+15

seed:1885  N:900
elapsed:3.9390
hole:438 area:1.5930e+10
score:3.0560e+15

seed:1886  N:900
elapsed:3.8980
hole:436 area:1.5543e+10
score:2.9547e+15

seed:1887  N:900
elapsed:3.9440
hole:433 area:1.5362e+10
score:2.8803e+15

seed:1888  N:900
elapsed:3.9560
hole:433 area:1.5325e+10
score:2.8733e+15

seed:1889  N:900
elapsed:3.9830
hole:435 area:1.5468e+10
score:2.9269e+15

seed:1890  N:900
elapsed:3.9290
hole:429 area:1.5922e+10
score:2.9304e+15

seed:1891  N:900
elapsed:3.9480
hole:435 area:1.5824e+10
score:2.9943e+15

seed:1892  N:900
elapsed:3.9590
hole:432 area:1.5373e+10
score:2.8689e+15

seed:1893  N:900
elapsed:3.9830
hole:434 area:1.5813e+10
score:2.9785e+15

seed:1894  N:900
elapsed:3.9260
hole:434 area:1.5667e+10
score:2.9509e+15

seed:1895  N:900
elapsed:3.9490
hole:434 area:1.5354e+10
score:2.8920e+15

seed:1896  N:900
elapsed:3.9620
hole:432 area:1.5434e+10
score:2.8803e+15

seed:1897  N:900
elapsed:3.9370
hole:435 area:1.4884e+10
score:2.8165e+15

seed:1898  N:900
elapsed:3.9500
hole:432 area:1.5700e+10
score:2.9300e+15

seed:1899  N:900
elapsed:3.9210
hole:436 area:1.5721e+10
score:2.9885e+15

seed:1900  N:900
elapsed:3.9520
hole:431 area:1.5731e+10
score:2.9222e+15

seed:1901  N:1000
elapsed:3.9260
hole:480 area:1.9310e+10
score:4.4491e+15

seed:1902  N:1000
elapsed:3.9370
hole:480 area:1.9069e+10
score:4.3935e+15

seed:1903  N:1000
elapsed:3.9380
hole:481 area:1.9066e+10
score:4.4111e+15

seed:1904  N:1000
elapsed:3.8690
hole:482 area:1.9274e+10
score:4.4779e+15

seed:1905  N:1000
elapsed:3.9280
hole:482 area:1.9659e+10
score:4.5673e+15

seed:1906  N:1000
elapsed:3.9400
hole:482 area:1.9552e+10
score:4.5423e+15

seed:1907  N:1000
elapsed:3.9570
hole:484 area:1.9250e+10
score:4.5095e+15

seed:1908  N:1000
elapsed:3.9690
hole:484 area:1.8929e+10
score:4.4343e+15

seed:1909  N:1000
elapsed:3.9170
hole:479 area:1.9066e+10
score:4.3745e+15

seed:1910  N:1000
elapsed:3.9720
hole:480 area:1.9276e+10
score:4.4412e+15

seed:1911  N:1000
elapsed:3.9300
hole:483 area:1.9886e+10
score:4.6391e+15

seed:1912  N:1000
elapsed:3.9270
hole:478 area:1.8819e+10
score:4.2999e+15

seed:1913  N:1000
elapsed:3.9650
hole:483 area:1.9128e+10
score:4.4624e+15

seed:1914  N:1000
elapsed:3.8740
hole:481 area:1.8907e+10
score:4.3743e+15

seed:1915  N:1000
elapsed:3.9230
hole:482 area:1.9232e+10
score:4.4682e+15

seed:1916  N:1000
elapsed:3.9630
hole:484 area:1.9083e+10
score:4.4702e+15

seed:1917  N:1000
elapsed:3.9460
hole:480 area:1.9275e+10
score:4.4410e+15

seed:1918  N:1000
elapsed:3.9480
hole:482 area:1.8596e+10
score:4.3204e+15

seed:1919  N:1000
elapsed:3.9120
hole:482 area:1.9701e+10
score:4.5770e+15

seed:1920  N:1000
elapsed:3.9690
hole:484 area:1.9302e+10
score:4.5217e+15

seed:1921  N:1000
elapsed:3.9410
hole:486 area:1.9371e+10
score:4.5754e+15

seed:1922  N:1000
elapsed:3.9690
hole:483 area:1.9339e+10
score:4.5115e+15

seed:1923  N:1000
elapsed:3.9210
hole:482 area:1.9652e+10
score:4.5656e+15

seed:1924  N:1000
elapsed:3.9300
hole:483 area:1.9276e+10
score:4.4969e+15

seed:1925  N:1000
elapsed:3.9460
hole:481 area:1.9016e+10
score:4.3996e+15

seed:1926  N:1000
elapsed:3.9080
hole:374 area:1.9397e+10
score:2.7132e+15

seed:1927  N:1000
elapsed:3.9560
hole:482 area:1.8924e+10
score:4.3966e+15

seed:1928  N:1000
elapsed:3.9740
hole:484 area:1.9490e+10
score:4.5657e+15

seed:1929  N:1000
elapsed:3.8930
hole:484 area:1.8809e+10
score:4.4062e+15

seed:1930  N:1000
elapsed:3.9260
hole:480 area:1.9220e+10
score:4.4284e+15

seed:1931  N:1000
elapsed:3.9160
hole:483 area:1.9402e+10
score:4.5264e+15

seed:1932  N:1000
elapsed:3.9430
hole:483 area:1.9206e+10
score:4.4805e+15

seed:1933  N:1000
elapsed:3.9550
hole:481 area:1.9151e+10
score:4.4307e+15

seed:1934  N:1000
elapsed:3.8910
hole:480 area:1.8879e+10
score:4.3497e+15

seed:1935  N:1000
elapsed:3.9140
hole:485 area:1.8901e+10
score:4.4460e+15

seed:1936  N:1000
elapsed:3.9430
hole:482 area:1.8988e+10
score:4.4113e+15

seed:1937  N:1000
elapsed:3.9530
hole:483 area:1.9248e+10
score:4.4904e+15

seed:1938  N:1000
elapsed:3.9410
hole:481 area:1.8751e+10
score:4.3382e+15

seed:1939  N:1000
elapsed:3.9610
hole:479 area:1.8802e+10
score:4.3139e+15

seed:1940  N:1000
elapsed:3.9110
hole:481 area:1.9301e+10
score:4.4656e+15

seed:1941  N:1000
elapsed:3.9040
hole:486 area:1.9145e+10
score:4.5220e+15

seed:1942  N:1000
elapsed:3.9380
hole:483 area:1.9535e+10
score:4.5573e+15

seed:1943  N:1000
elapsed:3.9540
hole:483 area:1.9324e+10
score:4.5081e+15

seed:1944  N:1000
elapsed:3.9690
hole:483 area:1.8941e+10
score:4.4187e+15

seed:1945  N:1000
elapsed:3.9170
hole:483 area:1.8969e+10
score:4.4252e+15

seed:1946  N:1000
elapsed:3.9660
hole:486 area:1.9458e+10
score:4.5960e+15

seed:1947  N:1000
elapsed:3.9500
hole:483 area:1.9932e+10
score:4.6498e+15

seed:1948  N:1000
elapsed:3.9770
hole:484 area:1.9544e+10
score:4.5784e+15

seed:1949  N:1000
elapsed:3.9120
hole:480 area:1.9305e+10
score:4.4478e+15

seed:1950  N:1000
elapsed:3.9440
hole:484 area:1.9066e+10
score:4.4662e+15

seed:1951  N:1000
elapsed:3.8770
hole:484 area:1.9248e+10
score:4.5090e+15

seed:1952  N:1000
elapsed:3.9600
hole:480 area:1.8719e+10
score:4.3129e+15

seed:1953  N:1000
elapsed:3.9310
hole:484 area:1.9388e+10
score:4.5417e+15

seed:1954  N:1000
elapsed:3.9640
hole:481 area:1.8831e+10
score:4.3567e+15

seed:1955  N:1000
elapsed:3.9620
hole:484 area:1.9821e+10
score:4.6431e+15

seed:1956  N:1000
elapsed:3.9130
hole:480 area:1.8646e+10
score:4.2960e+15

seed:1957  N:1000
elapsed:3.8860
hole:478 area:1.8736e+10
score:4.2809e+15

seed:1958  N:1000
elapsed:3.9300
hole:483 area:1.9448e+10
score:4.5369e+15

seed:1959  N:1000
elapsed:3.9600
hole:481 area:1.9070e+10
score:4.4121e+15

seed:1960  N:1000
elapsed:3.9660
hole:483 area:1.9345e+10
score:4.5129e+15

seed:1961  N:1000
elapsed:3.9320
hole:481 area:1.9307e+10
score:4.4668e+15

seed:1962  N:1000
elapsed:3.9290
hole:481 area:1.8844e+10
score:4.3598e+15

seed:1963  N:1000
elapsed:3.9400
hole:484 area:1.9386e+10
score:4.5413e+15

seed:1964  N:1000
elapsed:3.9520
hole:484 area:1.8481e+10
score:4.3292e+15

seed:1965  N:1000
elapsed:3.9480
hole:482 area:1.9432e+10
score:4.5146e+15

seed:1966  N:1000
elapsed:3.9240
hole:479 area:1.9073e+10
score:4.3762e+15

seed:1967  N:1000
elapsed:3.9240
hole:480 area:1.9203e+10
score:4.4244e+15

seed:1968  N:1000
elapsed:3.8770
hole:482 area:1.9379e+10
score:4.5022e+15

seed:1969  N:1000
elapsed:3.9520
hole:483 area:1.8708e+10
score:4.3643e+15

seed:1970  N:1000
elapsed:3.9470
hole:485 area:1.9023e+10
score:4.4746e+15

seed:1971  N:1000
elapsed:3.9530
hole:480 area:1.9267e+10
score:4.4392e+15

seed:1972  N:1000
elapsed:3.8940
hole:483 area:1.9049e+10
score:4.4439e+15

seed:1973  N:1000
elapsed:3.9280
hole:481 area:1.9287e+10
score:4.4622e+15

seed:1974  N:1000
elapsed:3.9430
hole:482 area:1.9130e+10
score:4.4443e+15

seed:1975  N:1000
elapsed:3.9510
hole:481 area:1.8958e+10
score:4.3862e+15

seed:1976  N:1000
elapsed:3.9280
hole:480 area:1.9960e+10
score:4.5988e+15

seed:1977  N:1000
elapsed:3.9540
hole:480 area:1.9719e+10
score:4.5433e+15

seed:1978  N:1000
elapsed:3.9400
hole:482 area:1.9193e+10
score:4.4590e+15

seed:1979  N:1000
elapsed:3.8920
hole:483 area:1.9531e+10
score:4.5563e+15

seed:1980  N:1000
elapsed:3.9320
hole:481 area:1.9575e+10
score:4.5290e+15

seed:1981  N:1000
elapsed:3.9460
hole:485 area:1.9260e+10
score:4.5303e+15

seed:1982  N:1000
elapsed:3.9200
hole:479 area:1.9005e+10
score:4.3605e+15

seed:1983  N:1000
elapsed:3.9380
hole:481 area:1.8976e+10
score:4.3904e+15

seed:1984  N:1000
elapsed:3.9320
hole:480 area:1.9390e+10
score:4.4674e+15

seed:1985  N:1000
elapsed:3.9180
hole:483 area:1.9442e+10
score:4.5356e+15

seed:1986  N:1000
elapsed:3.9470
hole:481 area:1.8938e+10
score:4.3816e+15

seed:1987  N:1000
elapsed:3.9160
hole:483 area:1.9065e+10
score:4.4476e+15

seed:1988  N:1000
elapsed:3.9670
hole:483 area:1.9272e+10
score:4.4960e+15

seed:1989  N:1000
elapsed:3.9680
hole:482 area:1.9424e+10
score:4.5128e+15

seed:1990  N:1000
elapsed:3.9420
hole:479 area:1.9261e+10
score:4.4193e+15

seed:1991  N:1000
elapsed:3.9070
hole:481 area:1.8699e+10
score:4.3262e+15

seed:1992  N:1000
elapsed:3.9760
hole:481 area:1.8691e+10
score:4.3243e+15

seed:1993  N:1000
elapsed:3.9650
hole:484 area:1.9667e+10
score:4.6072e+15

seed:1994  N:1000
elapsed:3.9160
hole:478 area:1.9048e+10
score:4.3522e+15

seed:1995  N:1000
elapsed:3.9350
hole:484 area:1.9543e+10
score:4.5780e+15

seed:1996  N:1000
elapsed:3.9010
hole:341 area:1.9081e+10
score:2.2187e+15

seed:1997  N:1000
elapsed:3.9350
hole:482 area:1.9579e+10
score:4.5488e+15

seed:1998  N:1000
elapsed:3.9710
hole:482 area:1.9424e+10
score:4.5126e+15

seed:1999  N:1000
elapsed:3.9520
hole:481 area:1.9095e+10
score:4.4179e+15

seed:2000  N:1000
elapsed:3.9540
hole:481 area:1.9867e+10
score:4.5965e+15

ave:1.1191826729928125E15

