0 0 0 0x101b23b40
0 0 1 0x101b23c14
0 0 2 0x101b23ce8
0 0 3 0x101b23dbc
0 0 4 0x101b23e90
0 0 5 0x101b23f64
0 0 6 0x101b24038
0 0 7 0x101b2410c
0 0 8 0x101b241e0
0 0 9 0x101b242b4
0 0 10 0x101b24388
0 0 11 0x101b2445c
0 0 12 0x101b24530
0 0 13 0x101b24604
0 0 14 0x101b246d8
0 0 15 0x101b247ac
0 0 16 0x101b24880
0 0 17 0x101b24954
0 0 18 0x101b24a28
0 0 19 0x101b24afc
0 0 20 0x101b24bd0
0 0 21 0x101b24ca4
0 0 22 0x101b24d78
0 0 23 0x101b24e4c
0 0 24 0x101b24f20
0 0 25 0x101b24ff4
0 0 26 0x101b250c8
0 0 27 0x101b2519c
0 0 28 0x101b25270
0 0 29 0x101b25344
0 0 30 0x101b25418
0 0 31 0x101b254ec
0 0 32 0x101b255c0
0 0 33 0x101b25694
0 0 34 0x101b25768
0 0 35 0x101b2583c
0 0 36 0x101b25910
0 0 37 0x101b259e4
0 0 38 0x101b25ab8
0 0 39 0x101b25b8c
0 0 40 0x101b25c60
0 0 41 0x101b25d34
0 0 42 0x101b25e08
0 0 43 0x101b25edc
0 0 44 0x101b25fb0
0 0 45 0x101b26084
0 0 46 0x101b26158
0 0 47 0x101b2622c
0 0 48 0x101b26300
0 0 49 0x101b263d4
0 0 50 0x101b264a8
0 0 51 0x101b2657c
0 0 52 0x101b26650
0 1 0 0x101b26724
0 1 1 0x101b267f8
0 1 2 0x101b268cc
0 1 3 0x101b269a0
0 1 4 0x101b26a74
0 1 5 0x101b26b48
0 1 6 0x101b26c1c
0 1 7 0x101b26cf0
0 1 8 0x101b26dc4
0 1 9 0x101b26e98
0 1 10 0x101b26f6c
0 1 11 0x101b27040
0 1 12 0x101b27114
0 1 13 0x101b271e8
0 1 14 0x101b272bc
0 1 15 0x101b27390
0 1 16 0x101b27464
0 1 17 0x101b27538
0 1 18 0x101b2760c
0 1 19 0x101b276e0
0 1 20 0x101b277b4
0 1 21 0x101b27888
0 1 22 0x101b2795c
0 1 23 0x101b27a30
0 1 24 0x101b27b04
0 1 25 0x101b27bd8
0 1 26 0x101b27cac
0 1 27 0x101b27d80
0 1 28 0x101b27e54
0 1 29 0x101b27f28
0 1 30 0x101b27ffc
0 1 31 0x101b280d0
0 1 32 0x101b281a4
0 1 33 0x101b28278
0 1 34 0x101b2834c
0 1 35 0x101b28420
0 1 36 0x101b284f4
0 1 37 0x101b285c8
0 1 38 0x101b2869c
0 1 39 0x101b28770
0 1 40 0x101b28844
0 1 41 0x101b28918
0 1 42 0x101b289ec
0 1 43 0x101b28ac0
0 1 44 0x101b28b94
0 1 45 0x101b28c68
0 1 46 0x101b28d3c
0 1 47 0x101b28e10
0 1 48 0x101b28ee4
0 1 49 0x101b28fb8
0 1 50 0x101b2908c
0 1 51 0x101b29160
0 1 52 0x101b29234
0 2 0 0x101b29308
0 2 1 0x101b293dc
0 2 2 0x101b294b0
0 2 3 0x101b29584
0 2 4 0x101b29658
0 2 5 0x101b2972c
0 2 6 0x101b29800
0 2 7 0x101b298d4
0 2 8 0x101b299a8
0 2 9 0x101b29a7c
0 2 10 0x101b29b50
0 2 11 0x101b29c24
0 2 12 0x101b29cf8
0 2 13 0x101b29dcc
0 2 14 0x101b29ea0
0 2 15 0x101b29f74
0 2 16 0x101b2a048
0 2 17 0x101b2a11c
0 2 18 0x101b2a1f0
0 2 19 0x101b2a2c4
0 2 20 0x101b2a398
0 2 21 0x101b2a46c
0 2 22 0x101b2a540
0 2 23 0x101b2a614
0 2 24 0x101b2a6e8
0 2 25 0x101b2a7bc
0 2 26 0x101b2a890
0 2 27 0x101b2a964
0 2 28 0x101b2aa38
0 2 29 0x101b2ab0c
0 2 30 0x101b2abe0
0 2 31 0x101b2acb4
0 2 32 0x101b2ad88
0 2 33 0x101b2ae5c
0 2 34 0x101b2af30
0 2 35 0x101b2b004
0 2 36 0x101b2b0d8
0 2 37 0x101b2b1ac
0 2 38 0x101b2b280
0 2 39 0x101b2b354
0 2 40 0x101b2b428
0 2 41 0x101b2b4fc
0 2 42 0x101b2b5d0
0 2 43 0x101b2b6a4
0 2 44 0x101b2b778
0 2 45 0x101b2b84c
0 2 46 0x101b2b920
0 2 47 0x101b2b9f4
0 2 48 0x101b2bac8
0 2 49 0x101b2bb9c
0 2 50 0x101b2bc70
0 2 51 0x101b2bd44
0 2 52 0x101b2be18
0 3 0 0x101b2beec
0 3 1 0x101b2bfc0
0 3 2 0x101b2c094
0 3 3 0x101b2c168
0 3 4 0x101b2c23c
0 3 5 0x101b2c310
0 3 6 0x101b2c3e4
0 3 7 0x101b2c4b8
0 3 8 0x101b2c58c
0 3 9 0x101b2c660
0 3 10 0x101b2c734
0 3 11 0x101b2c808
0 3 12 0x101b2c8dc
0 3 13 0x101b2c9b0
0 3 14 0x101b2ca84
0 3 15 0x101b2cb58
0 3 16 0x101b2cc2c
0 3 17 0x101b2cd00
0 3 18 0x101b2cdd4
0 3 19 0x101b2cea8
0 3 20 0x101b2cf7c
0 3 21 0x101b2d050
0 3 22 0x101b2d124
0 3 23 0x101b2d1f8
0 3 24 0x101b2d2cc
0 3 25 0x101b2d3a0
0 3 26 0x101b2d474
0 3 27 0x101b2d548
0 3 28 0x101b2d61c
0 3 29 0x101b2d6f0
0 3 30 0x101b2d7c4
0 3 31 0x101b2d898
0 3 32 0x101b2d96c
0 3 33 0x101b2da40
0 3 34 0x101b2db14
0 3 35 0x101b2dbe8
0 3 36 0x101b2dcbc
0 3 37 0x101b2dd90
0 3 38 0x101b2de64
0 3 39 0x101b2df38
0 3 40 0x101b2e00c
0 3 41 0x101b2e0e0
0 3 42 0x101b2e1b4
0 3 43 0x101b2e288
0 3 44 0x101b2e35c
0 3 45 0x101b2e430
0 3 46 0x101b2e504
0 3 47 0x101b2e5d8
0 3 48 0x101b2e6ac
0 3 49 0x101b2e780
0 3 50 0x101b2e854
0 3 51 0x101b2e928
0 3 52 0x101b2e9fc
0 4 0 0x101b2ead0
0 4 1 0x101b2eba4
0 4 2 0x101b2ec78
0 4 3 0x101b2ed4c
0 4 4 0x101b2ee20
0 4 5 0x101b2eef4
0 4 6 0x101b2efc8
0 4 7 0x101b2f09c
0 4 8 0x101b2f170
0 4 9 0x101b2f244
0 4 10 0x101b2f318
0 4 11 0x101b2f3ec
0 4 12 0x101b2f4c0
0 4 13 0x101b2f594
0 4 14 0x101b2f668
0 4 15 0x101b2f73c
0 4 16 0x101b2f810
0 4 17 0x101b2f8e4
0 4 18 0x101b2f9b8
0 4 19 0x101b2fa8c
0 4 20 0x101b2fb60
0 4 21 0x101b2fc34
0 4 22 0x101b2fd08
0 4 23 0x101b2fddc
0 4 24 0x101b2feb0
0 4 25 0x101b2ff84
0 4 26 0x101b30058
0 4 27 0x101b3012c
0 4 28 0x101b30200
0 4 29 0x101b302d4
0 4 30 0x101b303a8
0 4 31 0x101b3047c
0 4 32 0x101b30550
0 4 33 0x101b30624
0 4 34 0x101b306f8
0 4 35 0x101b307cc
0 4 36 0x101b308a0
0 4 37 0x101b30974
0 4 38 0x101b30a48
0 4 39 0x101b30b1c
0 4 40 0x101b30bf0
0 4 41 0x101b30cc4
0 4 42 0x101b30d98
0 4 43 0x101b30e6c
0 4 44 0x101b30f40
0 4 45 0x101b31014
0 4 46 0x101b310e8
0 4 47 0x101b311bc
0 4 48 0x101b31290
0 4 49 0x101b31364
0 4 50 0x101b31438
0 4 51 0x101b3150c
0 4 52 0x101b315e0
0 5 0 0x101b316b4
0 5 1 0x101b31788
0 5 2 0x101b3185c
0 5 3 0x101b31930
0 5 4 0x101b31a04
0 5 5 0x101b31ad8
0 5 6 0x101b31bac
0 5 7 0x101b31c80
0 5 8 0x101b31d54
0 5 9 0x101b31e28
0 5 10 0x101b31efc
0 5 11 0x101b31fd0
0 5 12 0x101b320a4
0 5 13 0x101b32178
0 5 14 0x101b3224c
0 5 15 0x101b32320
0 5 16 0x101b323f4
0 5 17 0x101b324c8
0 5 18 0x101b3259c
0 5 19 0x101b32670
0 5 20 0x101b32744
0 5 21 0x101b32818
0 5 22 0x101b328ec
0 5 23 0x101b329c0
0 5 24 0x101b32a94
0 5 25 0x101b32b68
0 5 26 0x101b32c3c
0 5 27 0x101b32d10
0 5 28 0x101b32de4
0 5 29 0x101b32eb8
0 5 30 0x101b32f8c
0 5 31 0x101b33060
0 5 32 0x101b33134
0 5 33 0x101b33208
0 5 34 0x101b332dc
0 5 35 0x101b333b0
0 5 36 0x101b33484
0 5 37 0x101b33558
0 5 38 0x101b3362c
0 5 39 0x101b33700
0 5 40 0x101b337d4
0 5 41 0x101b338a8
0 5 42 0x101b3397c
0 5 43 0x101b33a50
0 5 44 0x101b33b24
0 5 45 0x101b33bf8
0 5 46 0x101b33ccc
0 5 47 0x101b33da0
0 5 48 0x101b33e74
0 5 49 0x101b33f48
0 5 50 0x101b3401c
0 5 51 0x101b340f0
0 5 52 0x101b341c4
0 6 0 0x101b34298
0 6 1 0x101b3436c
0 6 2 0x101b34440
0 6 3 0x101b34514
0 6 4 0x101b345e8
0 6 5 0x101b346bc
0 6 6 0x101b34790
0 6 7 0x101b34864
0 6 8 0x101b34938
0 6 9 0x101b34a0c
0 6 10 0x101b34ae0
0 6 11 0x101b34bb4
0 6 12 0x101b34c88
0 6 13 0x101b34d5c
0 6 14 0x101b34e30
0 6 15 0x101b34f04
0 6 16 0x101b34fd8
0 6 17 0x101b350ac
0 6 18 0x101b35180
0 6 19 0x101b35254
0 6 20 0x101b35328
0 6 21 0x101b353fc
0 6 22 0x101b354d0
0 6 23 0x101b355a4
0 6 24 0x101b35678
0 6 25 0x101b3574c
0 6 26 0x101b35820
0 6 27 0x101b358f4
0 6 28 0x101b359c8
0 6 29 0x101b35a9c
0 6 30 0x101b35b70
0 6 31 0x101b35c44
0 6 32 0x101b35d18
0 6 33 0x101b35dec
0 6 34 0x101b35ec0
0 6 35 0x101b35f94
0 6 36 0x101b36068
0 6 37 0x101b3613c
0 6 38 0x101b36210
0 6 39 0x101b362e4
0 6 40 0x101b363b8
0 6 41 0x101b3648c
0 6 42 0x101b36560
0 6 43 0x101b36634
0 6 44 0x101b36708
0 6 45 0x101b367dc
0 6 46 0x101b368b0
0 6 47 0x101b36984
0 6 48 0x101b36a58
0 6 49 0x101b36b2c
0 6 50 0x101b36c00
0 6 51 0x101b36cd4
0 6 52 0x101b36da8
0 7 0 0x101b36e7c
0 7 1 0x101b36f50
0 7 2 0x101b37024
0 7 3 0x101b370f8
0 7 4 0x101b371cc
0 7 5 0x101b372a0
0 7 6 0x101b37374
0 7 7 0x101b37448
0 7 8 0x101b3751c
0 7 9 0x101b375f0
0 7 10 0x101b376c4
0 7 11 0x101b37798
0 7 12 0x101b3786c
0 7 13 0x101b37940
0 7 14 0x101b37a14
0 7 15 0x101b37ae8
0 7 16 0x101b37bbc
0 7 17 0x101b37c90
0 7 18 0x101b37d64
0 7 19 0x101b37e38
0 7 20 0x101b37f0c
0 7 21 0x101b37fe0
0 7 22 0x101b380b4
0 7 23 0x101b38188
0 7 24 0x101b3825c
0 7 25 0x101b38330
0 7 26 0x101b38404
0 7 27 0x101b384d8
0 7 28 0x101b385ac
0 7 29 0x101b38680
0 7 30 0x101b38754
0 7 31 0x101b38828
0 7 32 0x101b388fc
0 7 33 0x101b389d0
0 7 34 0x101b38aa4
0 7 35 0x101b38b78
0 7 36 0x101b38c4c
0 7 37 0x101b38d20
0 7 38 0x101b38df4
0 7 39 0x101b38ec8
0 7 40 0x101b38f9c
0 7 41 0x101b39070
0 7 42 0x101b39144
0 7 43 0x101b39218
0 7 44 0x101b392ec
0 7 45 0x101b393c0
0 7 46 0x101b39494
0 7 47 0x101b39568
0 7 48 0x101b3963c
0 7 49 0x101b39710
0 7 50 0x101b397e4
0 7 51 0x101b398b8
0 7 52 0x101b3998c
0 8 0 0x101b39a60
0 8 1 0x101b39b34
0 8 2 0x101b39c08
0 8 3 0x101b39cdc
0 8 4 0x101b39db0
0 8 5 0x101b39e84
0 8 6 0x101b39f58
0 8 7 0x101b3a02c
0 8 8 0x101b3a100
0 8 9 0x101b3a1d4
0 8 10 0x101b3a2a8
0 8 11 0x101b3a37c
0 8 12 0x101b3a450
0 8 13 0x101b3a524
0 8 14 0x101b3a5f8
0 8 15 0x101b3a6cc
0 8 16 0x101b3a7a0
0 8 17 0x101b3a874
0 8 18 0x101b3a948
0 8 19 0x101b3aa1c
0 8 20 0x101b3aaf0
0 8 21 0x101b3abc4
0 8 22 0x101b3ac98
0 8 23 0x101b3ad6c
0 8 24 0x101b3ae40
0 8 25 0x101b3af14
0 8 26 0x101b3afe8
0 8 27 0x101b3b0bc
0 8 28 0x101b3b190
0 8 29 0x101b3b264
0 8 30 0x101b3b338
0 8 31 0x101b3b40c
0 8 32 0x101b3b4e0
0 8 33 0x101b3b5b4
0 8 34 0x101b3b688
0 8 35 0x101b3b75c
0 8 36 0x101b3b830
0 8 37 0x101b3b904
0 8 38 0x101b3b9d8
0 8 39 0x101b3baac
0 8 40 0x101b3bb80
0 8 41 0x101b3bc54
0 8 42 0x101b3bd28
0 8 43 0x101b3bdfc
0 8 44 0x101b3bed0
0 8 45 0x101b3bfa4
0 8 46 0x101b3c078
0 8 47 0x101b3c14c
0 8 48 0x101b3c220
0 8 49 0x101b3c2f4
0 8 50 0x101b3c3c8
0 8 51 0x101b3c49c
0 8 52 0x101b3c570
0 9 0 0x101b3c644
0 9 1 0x101b3c718
0 9 2 0x101b3c7ec
0 9 3 0x101b3c8c0
0 9 4 0x101b3c994
0 9 5 0x101b3ca68
0 9 6 0x101b3cb3c
0 9 7 0x101b3cc10
0 9 8 0x101b3cce4
0 9 9 0x101b3cdb8
0 9 10 0x101b3ce8c
0 9 11 0x101b3cf60
0 9 12 0x101b3d034
0 9 13 0x101b3d108
0 9 14 0x101b3d1dc
0 9 15 0x101b3d2b0
0 9 16 0x101b3d384
0 9 17 0x101b3d458
0 9 18 0x101b3d52c
0 9 19 0x101b3d600
0 9 20 0x101b3d6d4
0 9 21 0x101b3d7a8
0 9 22 0x101b3d87c
0 9 23 0x101b3d950
0 9 24 0x101b3da24
0 9 25 0x101b3daf8
0 9 26 0x101b3dbcc
0 9 27 0x101b3dca0
0 9 28 0x101b3dd74
0 9 29 0x101b3de48
0 9 30 0x101b3df1c
0 9 31 0x101b3dff0
0 9 32 0x101b3e0c4
0 9 33 0x101b3e198
0 9 34 0x101b3e26c
0 9 35 0x101b3e340
0 9 36 0x101b3e414
0 9 37 0x101b3e4e8
0 9 38 0x101b3e5bc
0 9 39 0x101b3e690
0 9 40 0x101b3e764
0 9 41 0x101b3e838
0 9 42 0x101b3e90c
0 9 43 0x101b3e9e0
0 9 44 0x101b3eab4
0 9 45 0x101b3eb88
0 9 46 0x101b3ec5c
0 9 47 0x101b3ed30
0 9 48 0x101b3ee04
0 9 49 0x101b3eed8
0 9 50 0x101b3efac
0 9 51 0x101b3f080
0 9 52 0x101b3f154
1 0 0 0x101b3f228
1 0 1 0x101b3f2fc
1 0 2 0x101b3f3d0
1 0 3 0x101b3f4a4
1 0 4 0x101b3f578
1 0 5 0x101b3f64c
1 0 6 0x101b3f720
1 0 7 0x101b3f7f4
1 0 8 0x101b3f8c8
1 0 9 0x101b3f99c
1 0 10 0x101b3fa70
1 0 11 0x101b3fb44
1 0 12 0x101b3fc18
1 0 13 0x101b3fcec
1 0 14 0x101b3fdc0
1 0 15 0x101b3fe94
1 0 16 0x101b3ff68
1 0 17 0x101b4003c
1 0 18 0x101b40110
1 0 19 0x101b401e4
1 0 20 0x101b402b8
1 0 21 0x101b4038c
1 0 22 0x101b40460
1 0 23 0x101b40534
1 0 24 0x101b40608
1 0 25 0x101b406dc
1 0 26 0x101b407b0
1 0 27 0x101b40884
1 0 28 0x101b40958
1 0 29 0x101b40a2c
1 0 30 0x101b40b00
1 0 31 0x101b40bd4
1 0 32 0x101b40ca8
1 0 33 0x101b40d7c
1 0 34 0x101b40e50
1 0 35 0x101b40f24
1 0 36 0x101b40ff8
1 0 37 0x101b410cc
1 0 38 0x101b411a0
1 0 39 0x101b41274
1 0 40 0x101b41348
1 0 41 0x101b4141c
1 0 42 0x101b414f0
1 0 43 0x101b415c4
1 0 44 0x101b41698
1 0 45 0x101b4176c
1 0 46 0x101b41840
1 0 47 0x101b41914
1 0 48 0x101b419e8
1 0 49 0x101b41abc
1 0 50 0x101b41b90
1 0 51 0x101b41c64
1 0 52 0x101b41d38
1 1 0 0x101b41e0c
1 1 1 0x101b41ee0
1 1 2 0x101b41fb4
1 1 3 0x101b42088
1 1 4 0x101b4215c
1 1 5 0x101b42230
1 1 6 0x101b42304
1 1 7 0x101b423d8
1 1 8 0x101b424ac
1 1 9 0x101b42580
1 1 10 0x101b42654
1 1 11 0x101b42728
1 1 12 0x101b427fc
1 1 13 0x101b428d0
1 1 14 0x101b429a4
1 1 15 0x101b42a78
1 1 16 0x101b42b4c
1 1 17 0x101b42c20
1 1 18 0x101b42cf4
1 1 19 0x101b42dc8
1 1 20 0x101b42e9c
1 1 21 0x101b42f70
1 1 22 0x101b43044
1 1 23 0x101b43118
1 1 24 0x101b431ec
1 1 25 0x101b432c0
1 1 26 0x101b43394
1 1 27 0x101b43468
1 1 28 0x101b4353c
1 1 29 0x101b43610
1 1 30 0x101b436e4
1 1 31 0x101b437b8
1 1 32 0x101b4388c
1 1 33 0x101b43960
1 1 34 0x101b43a34
1 1 35 0x101b43b08
1 1 36 0x101b43bdc
1 1 37 0x101b43cb0
1 1 38 0x101b43d84
1 1 39 0x101b43e58
1 1 40 0x101b43f2c
1 1 41 0x101b44000
1 1 42 0x101b440d4
1 1 43 0x101b441a8
1 1 44 0x101b4427c
1 1 45 0x101b44350
1 1 46 0x101b44424
1 1 47 0x101b444f8
1 1 48 0x101b445cc
1 1 49 0x101b446a0
1 1 50 0x101b44774
1 1 51 0x101b44848
1 1 52 0x101b4491c
1 2 0 0x101b449f0
1 2 1 0x101b44ac4
1 2 2 0x101b44b98
1 2 3 0x101b44c6c
1 2 4 0x101b44d40
1 2 5 0x101b44e14
1 2 6 0x101b44ee8
1 2 7 0x101b44fbc
1 2 8 0x101b45090
1 2 9 0x101b45164
1 2 10 0x101b45238
1 2 11 0x101b4530c
1 2 12 0x101b453e0
1 2 13 0x101b454b4
1 2 14 0x101b45588
1 2 15 0x101b4565c
1 2 16 0x101b45730
1 2 17 0x101b45804
1 2 18 0x101b458d8
1 2 19 0x101b459ac
1 2 20 0x101b45a80
1 2 21 0x101b45b54
1 2 22 0x101b45c28
1 2 23 0x101b45cfc
1 2 24 0x101b45dd0
1 2 25 0x101b45ea4
1 2 26 0x101b45f78
1 2 27 0x101b4604c
1 2 28 0x101b46120
1 2 29 0x101b461f4
1 2 30 0x101b462c8
1 2 31 0x101b4639c
1 2 32 0x101b46470
1 2 33 0x101b46544
1 2 34 0x101b46618
1 2 35 0x101b466ec
1 2 36 0x101b467c0
1 2 37 0x101b46894
1 2 38 0x101b46968
1 2 39 0x101b46a3c
1 2 40 0x101b46b10
1 2 41 0x101b46be4
1 2 42 0x101b46cb8
1 2 43 0x101b46d8c
1 2 44 0x101b46e60
1 2 45 0x101b46f34
1 2 46 0x101b47008
1 2 47 0x101b470dc
1 2 48 0x101b471b0
1 2 49 0x101b47284
1 2 50 0x101b47358
1 2 51 0x101b4742c
1 2 52 0x101b47500
1 3 0 0x101b475d4
1 3 1 0x101b476a8
1 3 2 0x101b4777c
1 3 3 0x101b47850
1 3 4 0x101b47924
1 3 5 0x101b479f8
1 3 6 0x101b47acc
1 3 7 0x101b47ba0
1 3 8 0x101b47c74
1 3 9 0x101b47d48
1 3 10 0x101b47e1c
1 3 11 0x101b47ef0
1 3 12 0x101b47fc4
1 3 13 0x101b48098
1 3 14 0x101b4816c
1 3 15 0x101b48240
1 3 16 0x101b48314
1 3 17 0x101b483e8
1 3 18 0x101b484bc
1 3 19 0x101b48590
1 3 20 0x101b48664
1 3 21 0x101b48738
1 3 22 0x101b4880c
1 3 23 0x101b488e0
1 3 24 0x101b489b4
1 3 25 0x101b48a88
1 3 26 0x101b48b5c
1 3 27 0x101b48c30
1 3 28 0x101b48d04
1 3 29 0x101b48dd8
1 3 30 0x101b48eac
1 3 31 0x101b48f80
1 3 32 0x101b49054
1 3 33 0x101b49128
1 3 34 0x101b491fc
1 3 35 0x101b492d0
1 3 36 0x101b493a4
1 3 37 0x101b49478
1 3 38 0x101b4954c
1 3 39 0x101b49620
1 3 40 0x101b496f4
1 3 41 0x101b497c8
1 3 42 0x101b4989c
1 3 43 0x101b49970
1 3 44 0x101b49a44
1 3 45 0x101b49b18
1 3 46 0x101b49bec
1 3 47 0x101b49cc0
1 3 48 0x101b49d94
1 3 49 0x101b49e68
1 3 50 0x101b49f3c
1 3 51 0x101b4a010
1 3 52 0x101b4a0e4
1 4 0 0x101b4a1b8
1 4 1 0x101b4a28c
1 4 2 0x101b4a360
1 4 3 0x101b4a434
1 4 4 0x101b4a508
1 4 5 0x101b4a5dc
1 4 6 0x101b4a6b0
1 4 7 0x101b4a784
1 4 8 0x101b4a858
1 4 9 0x101b4a92c
1 4 10 0x101b4aa00
1 4 11 0x101b4aad4
1 4 12 0x101b4aba8
1 4 13 0x101b4ac7c
1 4 14 0x101b4ad50
1 4 15 0x101b4ae24
1 4 16 0x101b4aef8
1 4 17 0x101b4afcc
1 4 18 0x101b4b0a0
1 4 19 0x101b4b174
1 4 20 0x101b4b248
1 4 21 0x101b4b31c
1 4 22 0x101b4b3f0
1 4 23 0x101b4b4c4
1 4 24 0x101b4b598
1 4 25 0x101b4b66c
1 4 26 0x101b4b740
1 4 27 0x101b4b814
1 4 28 0x101b4b8e8
1 4 29 0x101b4b9bc
1 4 30 0x101b4ba90
1 4 31 0x101b4bb64
1 4 32 0x101b4bc38
1 4 33 0x101b4bd0c
1 4 34 0x101b4bde0
1 4 35 0x101b4beb4
1 4 36 0x101b4bf88
1 4 37 0x101b4c05c
1 4 38 0x101b4c130
1 4 39 0x101b4c204
1 4 40 0x101b4c2d8
1 4 41 0x101b4c3ac
1 4 42 0x101b4c480
1 4 43 0x101b4c554
1 4 44 0x101b4c628
1 4 45 0x101b4c6fc
1 4 46 0x101b4c7d0
1 4 47 0x101b4c8a4
1 4 48 0x101b4c978
1 4 49 0x101b4ca4c
1 4 50 0x101b4cb20
1 4 51 0x101b4cbf4
1 4 52 0x101b4ccc8
1 5 0 0x101b4cd9c
1 5 1 0x101b4ce70
1 5 2 0x101b4cf44
1 5 3 0x101b4d018
1 5 4 0x101b4d0ec
1 5 5 0x101b4d1c0
1 5 6 0x101b4d294
1 5 7 0x101b4d368
1 5 8 0x101b4d43c
1 5 9 0x101b4d510
1 5 10 0x101b4d5e4
1 5 11 0x101b4d6b8
1 5 12 0x101b4d78c
1 5 13 0x101b4d860
1 5 14 0x101b4d934
1 5 15 0x101b4da08
1 5 16 0x101b4dadc
1 5 17 0x101b4dbb0
1 5 18 0x101b4dc84
1 5 19 0x101b4dd58
1 5 20 0x101b4de2c
1 5 21 0x101b4df00
1 5 22 0x101b4dfd4
1 5 23 0x101b4e0a8
1 5 24 0x101b4e17c
1 5 25 0x101b4e250
1 5 26 0x101b4e324
1 5 27 0x101b4e3f8
1 5 28 0x101b4e4cc
1 5 29 0x101b4e5a0
1 5 30 0x101b4e674
1 5 31 0x101b4e748
1 5 32 0x101b4e81c
1 5 33 0x101b4e8f0
1 5 34 0x101b4e9c4
1 5 35 0x101b4ea98
1 5 36 0x101b4eb6c
1 5 37 0x101b4ec40
1 5 38 0x101b4ed14
1 5 39 0x101b4ede8
1 5 40 0x101b4eebc
1 5 41 0x101b4ef90
1 5 42 0x101b4f064
1 5 43 0x101b4f138
1 5 44 0x101b4f20c
1 5 45 0x101b4f2e0
1 5 46 0x101b4f3b4
1 5 47 0x101b4f488
1 5 48 0x101b4f55c
1 5 49 0x101b4f630
1 5 50 0x101b4f704
1 5 51 0x101b4f7d8
1 5 52 0x101b4f8ac
1 6 0 0x101b4f980
1 6 1 0x101b4fa54
1 6 2 0x101b4fb28
1 6 3 0x101b4fbfc
1 6 4 0x101b4fcd0
1 6 5 0x101b4fda4
1 6 6 0x101b4fe78
1 6 7 0x101b4ff4c
1 6 8 0x101b50020
1 6 9 0x101b500f4
1 6 10 0x101b501c8
1 6 11 0x101b5029c
1 6 12 0x101b50370
1 6 13 0x101b50444
1 6 14 0x101b50518
1 6 15 0x101b505ec
1 6 16 0x101b506c0
1 6 17 0x101b50794
1 6 18 0x101b50868
1 6 19 0x101b5093c
1 6 20 0x101b50a10
1 6 21 0x101b50ae4
1 6 22 0x101b50bb8
1 6 23 0x101b50c8c
1 6 24 0x101b50d60
1 6 25 0x101b50e34
1 6 26 0x101b50f08
1 6 27 0x101b50fdc
1 6 28 0x101b510b0
1 6 29 0x101b51184
1 6 30 0x101b51258
1 6 31 0x101b5132c
1 6 32 0x101b51400
1 6 33 0x101b514d4
1 6 34 0x101b515a8
1 6 35 0x101b5167c
1 6 36 0x101b51750
1 6 37 0x101b51824
1 6 38 0x101b518f8
1 6 39 0x101b519cc
1 6 40 0x101b51aa0
1 6 41 0x101b51b74
1 6 42 0x101b51c48
1 6 43 0x101b51d1c
1 6 44 0x101b51df0
1 6 45 0x101b51ec4
1 6 46 0x101b51f98
1 6 47 0x101b5206c
1 6 48 0x101b52140
1 6 49 0x101b52214
1 6 50 0x101b522e8
1 6 51 0x101b523bc
1 6 52 0x101b52490
1 7 0 0x101b52564
1 7 1 0x101b52638
1 7 2 0x101b5270c
1 7 3 0x101b527e0
1 7 4 0x101b528b4
1 7 5 0x101b52988
1 7 6 0x101b52a5c
1 7 7 0x101b52b30
1 7 8 0x101b52c04
1 7 9 0x101b52cd8
1 7 10 0x101b52dac
1 7 11 0x101b52e80
1 7 12 0x101b52f54
1 7 13 0x101b53028
1 7 14 0x101b530fc
1 7 15 0x101b531d0
1 7 16 0x101b532a4
1 7 17 0x101b53378
1 7 18 0x101b5344c
1 7 19 0x101b53520
1 7 20 0x101b535f4
1 7 21 0x101b536c8
1 7 22 0x101b5379c
1 7 23 0x101b53870
1 7 24 0x101b53944
1 7 25 0x101b53a18
1 7 26 0x101b53aec
1 7 27 0x101b53bc0
1 7 28 0x101b53c94
1 7 29 0x101b53d68
1 7 30 0x101b53e3c
1 7 31 0x101b53f10
1 7 32 0x101b53fe4
1 7 33 0x101b540b8
1 7 34 0x101b5418c
1 7 35 0x101b54260
1 7 36 0x101b54334
1 7 37 0x101b54408
1 7 38 0x101b544dc
1 7 39 0x101b545b0
1 7 40 0x101b54684
1 7 41 0x101b54758
1 7 42 0x101b5482c
1 7 43 0x101b54900
1 7 44 0x101b549d4
1 7 45 0x101b54aa8
1 7 46 0x101b54b7c
1 7 47 0x101b54c50
1 7 48 0x101b54d24
1 7 49 0x101b54df8
1 7 50 0x101b54ecc
1 7 51 0x101b54fa0
1 7 52 0x101b55074
1 8 0 0x101b55148
1 8 1 0x101b5521c
1 8 2 0x101b552f0
1 8 3 0x101b553c4
1 8 4 0x101b55498
1 8 5 0x101b5556c
1 8 6 0x101b55640
1 8 7 0x101b55714
1 8 8 0x101b557e8
1 8 9 0x101b558bc
1 8 10 0x101b55990
1 8 11 0x101b55a64
1 8 12 0x101b55b38
1 8 13 0x101b55c0c
1 8 14 0x101b55ce0
1 8 15 0x101b55db4
1 8 16 0x101b55e88
1 8 17 0x101b55f5c
1 8 18 0x101b56030
1 8 19 0x101b56104
1 8 20 0x101b561d8
1 8 21 0x101b562ac
1 8 22 0x101b56380
1 8 23 0x101b56454
1 8 24 0x101b56528
1 8 25 0x101b565fc
1 8 26 0x101b566d0
1 8 27 0x101b567a4
1 8 28 0x101b56878
1 8 29 0x101b5694c
1 8 30 0x101b56a20
1 8 31 0x101b56af4
1 8 32 0x101b56bc8
1 8 33 0x101b56c9c
1 8 34 0x101b56d70
1 8 35 0x101b56e44
1 8 36 0x101b56f18
1 8 37 0x101b56fec
1 8 38 0x101b570c0
1 8 39 0x101b57194
1 8 40 0x101b57268
1 8 41 0x101b5733c
1 8 42 0x101b57410
1 8 43 0x101b574e4
1 8 44 0x101b575b8
1 8 45 0x101b5768c
1 8 46 0x101b57760
1 8 47 0x101b57834
1 8 48 0x101b57908
1 8 49 0x101b579dc
1 8 50 0x101b57ab0
1 8 51 0x101b57b84
1 8 52 0x101b57c58
1 9 0 0x101b57d2c
1 9 1 0x101b57e00
1 9 2 0x101b57ed4
1 9 3 0x101b57fa8
1 9 4 0x101b5807c
1 9 5 0x101b58150
1 9 6 0x101b58224
1 9 7 0x101b582f8
1 9 8 0x101b583cc
1 9 9 0x101b584a0
1 9 10 0x101b58574
1 9 11 0x101b58648
1 9 12 0x101b5871c
1 9 13 0x101b587f0
1 9 14 0x101b588c4
1 9 15 0x101b58998
1 9 16 0x101b58a6c
1 9 17 0x101b58b40
1 9 18 0x101b58c14
1 9 19 0x101b58ce8
1 9 20 0x101b58dbc
1 9 21 0x101b58e90
1 9 22 0x101b58f64
1 9 23 0x101b59038
1 9 24 0x101b5910c
1 9 25 0x101b591e0
1 9 26 0x101b592b4
1 9 27 0x101b59388
1 9 28 0x101b5945c
1 9 29 0x101b59530
1 9 30 0x101b59604
1 9 31 0x101b596d8
1 9 32 0x101b597ac
1 9 33 0x101b59880
1 9 34 0x101b59954
1 9 35 0x101b59a28
1 9 36 0x101b59afc
1 9 37 0x101b59bd0
1 9 38 0x101b59ca4
1 9 39 0x101b59d78
1 9 40 0x101b59e4c
1 9 41 0x101b59f20
1 9 42 0x101b59ff4
1 9 43 0x101b5a0c8
1 9 44 0x101b5a19c
1 9 45 0x101b5a270
1 9 46 0x101b5a344
1 9 47 0x101b5a418
1 9 48 0x101b5a4ec
1 9 49 0x101b5a5c0
1 9 50 0x101b5a694
1 9 51 0x101b5a768
1 9 52 0x101b5a83c
retain:800
1 255 10 150
2 255 10 1502
3 255 10 1519
4 255 10 1525
5 255 10 1532
6 255 10 1530
7 255 10 1544
8 255 10 1547
9 255 10 1543
10 255 10 1531
11 255 10 1500
12 255 10 1485
13 255 10 1463
14 255 10 1431
15 255 10 1402
16 255 10 1361
17 255 10 1295
18 255 10 1256
19 255 10 1224
20 255 10 1185
21 255 10 1152
22 255 10 1119
23 255 10 1082
24 255 10 1034
25 255 10 996
26 255 10 970
27 255 10 941
28 255 10 906
29 255 10 869
30 255 10 843
31 255 10 807
32 255 10 762
33 255 10 724
34 255 10 708
35 255 10 685
36 255 10 641
37 255 10 618
38 255 10 614
39 255 10 595
40 255 10 570
41 255 10 550
42 255 10 530
43 255 10 508
44 255 10 472
45 255 10 454
46 255 10 408
47 255 10 368
48 255 10 340
49 255 10 303
50 255 10 279
51 255 10 243
52 255 10 210
53 255 10 170
54 255 10 141
55 255 10 111
56 255 10 84
57 255 10 60
58 255 10 40
[59]
time:27
hist: [0 0]
timer: 13, 9, 0, 0, 3, 0, 0, 0, 14, 0, 
