seed:1001  N:51
elapsed:3.002
score:  0.9272727272727272

seed:1002  N:51
elapsed:3.001
score:  0.9444444444444444

seed:1003  N:51
elapsed:3.001
score:  0.9444444444444444

seed:1004  N:51
elapsed:3.001
score:  0.9107142857142857

seed:1005  N:51
elapsed:3.001
score:  0.9444444444444444

seed:1006  N:51
elapsed:3.001
score:  0.9272727272727272

seed:1007  N:51
elapsed:3.001
score:  0.9444444444444444

seed:1008  N:51
elapsed:3.001
score:  0.9272727272727272

seed:1009  N:51
elapsed:3.001
score:  0.9444444444444444

seed:1010  N:51
elapsed:3.001
score:  0.9444444444444444

seed:1011  N:51
elapsed:3.001
score:  0.9444444444444444

seed:1012  N:51
elapsed:3.001
score:  0.9272727272727272

seed:1013  N:51
elapsed:3.001
score:  0.9107142857142857

seed:1014  N:51
elapsed:3.001
score:  0.8947368421052632

seed:1015  N:51
elapsed:3.002
score:  0.9107142857142857

seed:1016  N:51
elapsed:3.002
score:  0.8947368421052632

seed:1017  N:51
elapsed:3.001
score:  0.9107142857142857

seed:1018  N:51
elapsed:3.002
score:  0.9272727272727272

seed:1019  N:51
elapsed:3.001
score:  0.9444444444444444

seed:1020  N:51
elapsed:3.001
score:  0.8947368421052632

seed:1021  N:52
elapsed:3.001
score:  1.1304347826086956

seed:1022  N:52
elapsed:3.001
score:  1.1304347826086956

seed:1023  N:52
elapsed:3.004
score:  1.1818181818181819

seed:1024  N:52
elapsed:3.001
score:  1.1555555555555554

seed:1025  N:52
elapsed:3.003
score:  1.1555555555555554

seed:1026  N:52
elapsed:3.001
score:  1.1818181818181819

seed:1027  N:52
elapsed:3.001
score:  1.1555555555555554

seed:1028  N:52
elapsed:3.004
score:  1.1063829787234043

seed:1029  N:52
elapsed:3.001
score:  1.3333333333333333

seed:1030  N:52
elapsed:3.001
score:  1.1063829787234043

seed:1031  N:52
elapsed:3.005
score:  1.0833333333333333

seed:1032  N:52
elapsed:3.001
score:  1.1063829787234043

seed:1033  N:52
elapsed:3.004
score:  1.1818181818181819

seed:1034  N:52
elapsed:3.001
score:  1.1304347826086956

seed:1035  N:52
elapsed:3.003
score:  1.1818181818181819

seed:1036  N:52
elapsed:3.008
score:  1.1555555555555554

seed:1037  N:52
elapsed:3.001
score:  1.1818181818181819

seed:1038  N:52
elapsed:3.001
score:  1.1818181818181819

seed:1039  N:52
elapsed:3.001
score:  1.1818181818181819

seed:1040  N:52
elapsed:3.005
score:  1.1555555555555554

seed:1041  N:53
elapsed:3.001
score:  0.9298245614035088

seed:1042  N:53
elapsed:3.001
score:  0.9636363636363636

seed:1043  N:53
elapsed:3.001
score:  0.8688524590163934

seed:1044  N:53
elapsed:3.001
score:  0.9137931034482759

seed:1045  N:53
elapsed:3.001
score:  0.9137931034482759

seed:1046  N:53
elapsed:3.001
score:  0.9298245614035088

seed:1047  N:53
elapsed:3.001
score:  0.8833333333333333

seed:1048  N:53
elapsed:3.001
score:  0.9137931034482759

seed:1049  N:53
elapsed:3.001
score:  0.8983050847457628

seed:1050  N:53
elapsed:3.001
score:  0.9636363636363636

seed:1051  N:53
elapsed:3.001
score:  0.9137931034482759

seed:1052  N:53
elapsed:3.001
score:  0.9137931034482759

seed:1053  N:53
elapsed:3.003
score:  0.9298245614035088

seed:1054  N:53
elapsed:3.001
score:  0.9298245614035088

seed:1055  N:53
elapsed:3.002
score:  0.9137931034482759

seed:1056  N:53
elapsed:3.001
score:  0.9298245614035088

seed:1057  N:53
elapsed:3.003
score:  0.8688524590163934

seed:1058  N:53
elapsed:3.001
score:  0.8983050847457628

seed:1059  N:53
elapsed:3.001
score:  0.9464285714285714

seed:1060  N:53
elapsed:3.007
score:  0.9137931034482759

seed:1061  N:54
elapsed:3.001
score:  1.08

seed:1062  N:54
elapsed:3.002
score:  1.173913043478261

seed:1063  N:54
elapsed:3.001
score:  1.1020408163265305

seed:1064  N:54
elapsed:3.003
score:  1.173913043478261

seed:1065  N:54
elapsed:3.001
score:  1.2

seed:1066  N:54
elapsed:3.001
score:  1.148936170212766

seed:1067  N:54
elapsed:3.002
score:  1.2

seed:1068  N:54
elapsed:3.002
score:  1.173913043478261

seed:1069  N:54
elapsed:3.002
score:  1.148936170212766

seed:1070  N:54
elapsed:3.001
score:  1.173913043478261

seed:1071  N:54
elapsed:3.001
score:  1.1020408163265305

seed:1072  N:54
elapsed:3.001
score:  1.125

seed:1073  N:54
elapsed:3.001
score:  1.0588235294117647

seed:1074  N:54
elapsed:3.003
score:  1.125

seed:1075  N:54
elapsed:3.001
score:  1.255813953488372

seed:1076  N:54
elapsed:3.001
score:  1.148936170212766

seed:1077  N:54
elapsed:3.001
score:  1.125

seed:1078  N:54
elapsed:3.001
score:  1.0588235294117647

seed:1079  N:54
elapsed:3.003
score:  1.125

seed:1080  N:54
elapsed:3.002
score:  1.125

seed:1081  N:55
elapsed:3.001
score:  0.9166666666666666

seed:1082  N:55
elapsed:3.001
score:  0.9322033898305084

seed:1083  N:55
elapsed:3.001
score:  0.9016393442622951

seed:1084  N:55
elapsed:3.002
score:  0.9016393442622951

seed:1085  N:55
elapsed:3.001
score:  0.9322033898305084

seed:1086  N:55
elapsed:3.001
score:  0.8870967741935484

seed:1087  N:55
elapsed:3.004
score:  0.9016393442622951

seed:1088  N:55
elapsed:3.002
score:  0.9016393442622951

seed:1089  N:55
elapsed:3.001
score:  0.9166666666666666

seed:1090  N:55
elapsed:3.001
score:  0.9166666666666666

seed:1091  N:55
elapsed:3.001
score:  0.8870967741935484

seed:1092  N:55
elapsed:3.001
score:  0.8870967741935484

seed:1093  N:55
elapsed:3.001
score:  0.8870967741935484

seed:1094  N:55
elapsed:3.001
score:  0.9166666666666666

seed:1095  N:55
elapsed:3.01
score:  0.9166666666666666

seed:1096  N:55
elapsed:3.002
score:  0.9016393442622951

seed:1097  N:55
elapsed:3.001
score:  0.9016393442622951

seed:1098  N:55
elapsed:3.012
score:  0.9016393442622951

seed:1099  N:55
elapsed:3.003
score:  0.9016393442622951

seed:1100  N:55
elapsed:3.012
score:  0.9166666666666666

seed:1101  N:56
elapsed:3.001
score:  1.1428571428571428

seed:1102  N:56
elapsed:3.001
score:  1.12

seed:1103  N:56
elapsed:3.001
score:  1.12

seed:1104  N:56
elapsed:3.001
score:  1.0769230769230769

seed:1105  N:56
elapsed:3.004
score:  1.2173913043478262

seed:1106  N:56
elapsed:3.001
score:  1.018181818181818

seed:1107  N:56
elapsed:3.008
score:  1.0980392156862746

seed:1108  N:56
elapsed:3.002
score:  1.2444444444444445

seed:1109  N:56
elapsed:3.001
score:  1.1428571428571428

seed:1110  N:56
elapsed:3.001
score:  1.1666666666666667

seed:1111  N:56
elapsed:3.001
score:  1.1428571428571428

seed:1112  N:56
elapsed:3.001
score:  1.0980392156862746

seed:1113  N:56
elapsed:3.001
score:  1.12

seed:1114  N:56
elapsed:3.001
score:  1.2727272727272727

seed:1115  N:56
elapsed:3.001
score:  1.1428571428571428

seed:1116  N:56
elapsed:3.002
score:  1.0980392156862746

seed:1117  N:56
elapsed:3.001
score:  1.1914893617021276

seed:1118  N:56
elapsed:3.001
score:  1.1428571428571428

seed:1119  N:56
elapsed:3.004
score:  1.12

seed:1120  N:56
elapsed:3.001
score:  1.1914893617021276

seed:1121  N:57
elapsed:3.001
score:  0.95

seed:1122  N:57
elapsed:3.001
score:  0.9344262295081968

seed:1123  N:57
elapsed:3.001
score:  0.95

seed:1124  N:57
elapsed:3.005
score:  0.890625

seed:1125  N:57
elapsed:3.001
score:  0.95

seed:1126  N:57
elapsed:3.001
score:  0.890625

seed:1127  N:57
elapsed:3.001
score:  0.8769230769230769

seed:1128  N:57
elapsed:3.002
score:  0.9047619047619048

seed:1129  N:57
elapsed:3.002
score:  0.890625

seed:1130  N:57
elapsed:3.001
score:  0.8769230769230769

seed:1131  N:57
elapsed:3.001
score:  0.9193548387096774

seed:1132  N:57
elapsed:3.001
score:  0.9047619047619048

seed:1133  N:57
elapsed:3.001
score:  0.9344262295081968

seed:1134  N:57
elapsed:3.003
score:  0.9344262295081968

seed:1135  N:57
elapsed:3.002
score:  0.9047619047619048

seed:1136  N:57
elapsed:3.001
score:  0.9344262295081968

seed:1137  N:57
elapsed:3.001
score:  0.9193548387096774

seed:1138  N:57
elapsed:3.001
score:  0.8382352941176471

seed:1139  N:57
elapsed:3.002
score:  0.8636363636363636

seed:1140  N:57
elapsed:3.001
score:  0.95

seed:1141  N:58
elapsed:3.001
score:  1.16

seed:1142  N:58
elapsed:3.004
score:  1.1372549019607843

seed:1143  N:58
elapsed:3.004
score:  1.183673469387755

seed:1144  N:58
elapsed:3.001
score:  1.1153846153846154

seed:1145  N:58
elapsed:3.001
score:  1.1153846153846154

seed:1146  N:58
elapsed:3.001
score:  1.16

seed:1147  N:58
elapsed:3.001
score:  1.2608695652173914

seed:1148  N:58
elapsed:3.001
score:  1.0943396226415094

seed:1149  N:58
elapsed:3.001
score:  1.0357142857142858

seed:1150  N:58
elapsed:3.002
score:  1.1372549019607843

seed:1151  N:58
elapsed:3.001
score:  1.0545454545454545

seed:1152  N:58
elapsed:3.001
score:  1.0740740740740742

seed:1153  N:58
elapsed:3.001
score:  1.1153846153846154

seed:1154  N:58
elapsed:3.001
score:  1.0943396226415094

seed:1155  N:58
elapsed:3.003
score:  1.16

seed:1156  N:58
elapsed:3.002
score:  1.1372549019607843

seed:1157  N:58
elapsed:3.001
score:  1.2340425531914894

seed:1158  N:58
elapsed:3.01
score:  1.0943396226415094

seed:1159  N:58
elapsed:3.001
score:  1.183673469387755

seed:1160  N:58
elapsed:3.001
score:  1.0740740740740742

seed:1161  N:59
elapsed:3.001
score:  0.9076923076923077

seed:1162  N:59
elapsed:3.003
score:  0.9076923076923077

seed:1163  N:59
elapsed:3.001
score:  0.9516129032258065

seed:1164  N:59
elapsed:3.001
score:  0.8805970149253731

seed:1165  N:59
elapsed:3.001
score:  0.9076923076923077

seed:1166  N:59
elapsed:3.001
score:  0.921875

seed:1167  N:59
elapsed:3.003
score:  0.9365079365079365

seed:1168  N:59
elapsed:3.002
score:  0.921875

seed:1169  N:59
elapsed:3.001
score:  0.921875

seed:1170  N:59
elapsed:3.001
score:  0.9076923076923077

seed:1171  N:59
elapsed:3.001
score:  0.8939393939393939

seed:1172  N:59
elapsed:3.001
score:  0.8805970149253731

seed:1173  N:59
elapsed:3.002
score:  0.9672131147540983

seed:1174  N:59
elapsed:3.001
score:  0.8676470588235294

seed:1175  N:59
elapsed:3.001
score:  0.9076923076923077

seed:1176  N:59
elapsed:3.004
score:  0.9365079365079365

seed:1177  N:59
elapsed:3.001
score:  0.9365079365079365

seed:1178  N:59
elapsed:3.001
score:  0.8939393939393939

seed:1179  N:59
elapsed:3.004
score:  0.9365079365079365

seed:1180  N:59
elapsed:3.002
score:  0.9076923076923077

seed:1181  N:60
elapsed:3.004
score:  1.0909090909090908

seed:1182  N:60
elapsed:3.001
score:  1.1320754716981132

seed:1183  N:60
elapsed:3.001
score:  1.1538461538461537

seed:1184  N:60
elapsed:3.001
score:  1.1764705882352942

seed:1185  N:60
elapsed:3.001
score:  1.0909090909090908

seed:1186  N:60
elapsed:3.001
score:  1.1538461538461537

seed:1187  N:60
elapsed:3.004
score:  1.0714285714285714

seed:1188  N:60
elapsed:3.006
score:  1.0714285714285714

seed:1189  N:60
elapsed:3.006
score:  1.1538461538461537

seed:1190  N:60
elapsed:3.009
score:  1.1320754716981132

seed:1191  N:60
elapsed:3.004
score:  1.1320754716981132

seed:1192  N:60
elapsed:3.003
score:  1.1320754716981132

seed:1193  N:60
elapsed:3.006
score:  1.2

seed:1194  N:60
elapsed:3.001
score:  1.0909090909090908

seed:1195  N:60
elapsed:3.001
score:  1.1764705882352942

seed:1196  N:60
elapsed:3.001
score:  1.1764705882352942

seed:1197  N:60
elapsed:3.001
score:  1.1111111111111112

seed:1198  N:60
elapsed:3.002
score:  1.0526315789473684

seed:1199  N:60
elapsed:3.002
score:  1.1538461538461537

seed:1200  N:60
elapsed:3.004
score:  1.1320754716981132

seed:1201  N:61
elapsed:3.001
score:  0.9104477611940298

seed:1202  N:61
elapsed:3.001
score:  0.9242424242424242

seed:1203  N:61
elapsed:3.001
score:  0.953125

seed:1204  N:61
elapsed:3.003
score:  0.9242424242424242

seed:1205  N:61
elapsed:3.004
score:  0.9384615384615385

seed:1206  N:61
elapsed:3.003
score:  0.8243243243243243

seed:1207  N:61
elapsed:3.005
score:  0.8840579710144928

seed:1208  N:61
elapsed:3.001
score:  0.8840579710144928

seed:1209  N:61
elapsed:3.001
score:  0.9242424242424242

seed:1210  N:61
elapsed:3.001
score:  0.9104477611940298

seed:1211  N:61
elapsed:3.001
score:  0.9242424242424242

seed:1212  N:61
elapsed:3.001
score:  0.9242424242424242

seed:1213  N:61
elapsed:3.003
score:  0.8840579710144928

seed:1214  N:61
elapsed:3.001
score:  0.9242424242424242

seed:1215  N:61
elapsed:3.001
score:  0.9242424242424242

seed:1216  N:61
elapsed:3.001
score:  0.9104477611940298

seed:1217  N:61
elapsed:3.001
score:  0.9682539682539683

seed:1218  N:61
elapsed:3.002
score:  0.9384615384615385

seed:1219  N:61
elapsed:3.001
score:  0.9104477611940298

seed:1220  N:61
elapsed:3.001
score:  0.8970588235294118

seed:1221  N:62
elapsed:3.001
score:  1.087719298245614

seed:1222  N:62
elapsed:3.002
score:  1.1923076923076923

seed:1223  N:62
elapsed:3.001
score:  1.1071428571428572

seed:1224  N:62
elapsed:3.001
score:  1.1272727272727272

seed:1225  N:62
elapsed:3.001
score:  1.169811320754717

seed:1226  N:62
elapsed:3.001
score:  1.1071428571428572

seed:1227  N:62
elapsed:3.005
score:  1.2156862745098038

seed:1228  N:62
elapsed:3.001
score:  1.2653061224489797

seed:1229  N:62
elapsed:3.001
score:  1.24

seed:1230  N:62
elapsed:3.003
score:  1.2653061224489797

seed:1231  N:62
elapsed:3.002
score:  1.0508474576271187

seed:1232  N:62
elapsed:3.001
score:  1.1272727272727272

seed:1233  N:62
elapsed:3.001
score:  1.169811320754717

seed:1234  N:62
elapsed:3.009
score:  1.1923076923076923

seed:1235  N:62
elapsed:3.001
score:  1.1071428571428572

seed:1236  N:62
elapsed:3.005
score:  1.0689655172413792

seed:1237  N:62
elapsed:3.001
score:  1.1071428571428572

seed:1238  N:62
elapsed:3.001
score:  1.1481481481481481

seed:1239  N:62
elapsed:3.003
score:  1.24

seed:1240  N:62
elapsed:3.001
score:  1.169811320754717

seed:1241  N:63
elapsed:3.001
score:  0.863013698630137

seed:1242  N:63
elapsed:3.003
score:  0.9

seed:1243  N:63
elapsed:3.001
score:  0.9692307692307692

seed:1244  N:63
elapsed:3.001
score:  0.9

seed:1245  N:63
elapsed:3.001
score:  0.8873239436619719

seed:1246  N:63
elapsed:3.001
score:  0.9

seed:1247  N:63
elapsed:3.001
score:  0.9264705882352942

seed:1248  N:63
elapsed:3.001
score:  0.863013698630137

seed:1249  N:63
elapsed:3.003
score:  0.9

seed:1250  N:63
elapsed:3.001
score:  0.9130434782608695

seed:1251  N:63
elapsed:3.001
score:  0.9130434782608695

seed:1252  N:63
elapsed:3.006
score:  0.9130434782608695

seed:1253  N:63
elapsed:3.001
score:  0.9

seed:1254  N:63
elapsed:3.002
score:  0.9

seed:1255  N:63
elapsed:3.003
score:  0.9

seed:1256  N:63
elapsed:3.001
score:  0.9130434782608695

seed:1257  N:63
elapsed:3.001
score:  0.9264705882352942

seed:1258  N:63
elapsed:3.001
score:  0.8873239436619719

seed:1259  N:63
elapsed:3.001
score:  0.875

seed:1260  N:63
elapsed:3.001
score:  0.9

seed:1261  N:64
elapsed:3.001
score:  1.1228070175438596

seed:1262  N:64
elapsed:3.004
score:  1.0847457627118644

seed:1263  N:64
elapsed:3.001
score:  1.0491803278688525

seed:1264  N:64
elapsed:3.001
score:  1.1228070175438596

seed:1265  N:64
elapsed:3.001
score:  1.103448275862069

seed:1266  N:64
elapsed:3.001
score:  1.032258064516129

seed:1267  N:64
elapsed:3.002
score:  1.103448275862069

seed:1268  N:64
elapsed:3.001
score:  1.1636363636363636

seed:1269  N:64
elapsed:3.001
score:  1.103448275862069

seed:1270  N:64
elapsed:3.003
score:  1.0666666666666667

seed:1271  N:64
elapsed:3.001
score:  1.103448275862069

seed:1272  N:64
elapsed:3.002
score:  1.1228070175438596

seed:1273  N:64
elapsed:3.001
score:  1.1636363636363636

seed:1274  N:64
elapsed:3.012
score:  1.1636363636363636

seed:1275  N:64
elapsed:3.001
score:  1.0491803278688525

seed:1276  N:64
elapsed:3.001
score:  1.103448275862069

seed:1277  N:64
elapsed:3.001
score:  1.1851851851851851

seed:1278  N:64
elapsed:3.001
score:  1.0491803278688525

seed:1279  N:64
elapsed:3.001
score:  1.0491803278688525

seed:1280  N:64
elapsed:3.004
score:  1.0847457627118644

seed:1281  N:65
elapsed:3.001
score:  0.8904109589041096

seed:1282  N:65
elapsed:3.001
score:  0.9027777777777778

seed:1283  N:65
elapsed:3.001
score:  0.9154929577464789

seed:1284  N:65
elapsed:3.002
score:  0.9285714285714286

seed:1285  N:65
elapsed:3.001
score:  0.9027777777777778

seed:1286  N:65
elapsed:3.001
score:  0.8904109589041096

seed:1287  N:65
elapsed:3.001
score:  0.9027777777777778

seed:1288  N:65
elapsed:3.001
score:  0.8333333333333334

seed:1289  N:65
elapsed:3.001
score:  0.9154929577464789

seed:1290  N:65
elapsed:3.001
score:  0.9027777777777778

seed:1291  N:65
elapsed:3.002
score:  0.9154929577464789

seed:1292  N:65
elapsed:3.001
score:  0.9285714285714286

seed:1293  N:65
elapsed:3.001
score:  0.9154929577464789

seed:1294  N:65
elapsed:3.003
score:  0.8783783783783784

seed:1295  N:65
elapsed:3.001
score:  0.8666666666666667

seed:1296  N:65
elapsed:3.001
score:  0.9285714285714286

seed:1297  N:65
elapsed:3.001
score:  0.9154929577464789

seed:1298  N:65
elapsed:3.002
score:  0.8441558441558441

seed:1299  N:65
elapsed:3.001
score:  0.8904109589041096

seed:1300  N:65
elapsed:3.003
score:  0.9027777777777778

seed:1301  N:66
elapsed:3.001
score:  1.0819672131147542

seed:1302  N:66
elapsed:3.001
score:  1.1379310344827587

seed:1303  N:66
elapsed:3.001
score:  1.1379310344827587

seed:1304  N:66
elapsed:3.001
score:  1.11864406779661

seed:1305  N:66
elapsed:3.002
score:  1.0476190476190477

seed:1306  N:66
elapsed:3.001
score:  1.0476190476190477

seed:1307  N:66
elapsed:3.002
score:  1.1578947368421053

seed:1308  N:66
elapsed:3.001
score:  1.2

seed:1309  N:66
elapsed:3.001
score:  1.1

seed:1310  N:66
elapsed:3.001
score:  1.1

seed:1311  N:66
elapsed:3.001
score:  1.1785714285714286

seed:1312  N:66
elapsed:3.001
score:  1.0819672131147542

seed:1313  N:66
elapsed:3.001
score:  1.11864406779661

seed:1314  N:66
elapsed:3.008
score:  1.1578947368421053

seed:1315  N:66
elapsed:3.001
score:  1.0819672131147542

seed:1316  N:66
elapsed:3.001
score:  1.1379310344827587

seed:1317  N:66
elapsed:3.001
score:  1.03125

seed:1318  N:66
elapsed:3.001
score:  1.064516129032258

seed:1319  N:66
elapsed:3.001
score:  1.064516129032258

seed:1320  N:66
elapsed:3.001
score:  1.1785714285714286

seed:1321  N:67
elapsed:3.001
score:  0.9178082191780822

seed:1322  N:67
elapsed:3.001
score:  0.8933333333333333

seed:1323  N:67
elapsed:3.001
score:  0.9305555555555556

seed:1324  N:67
elapsed:3.001
score:  0.9178082191780822

seed:1325  N:67
elapsed:3.001
score:  0.881578947368421

seed:1326  N:67
elapsed:3.003
score:  0.9054054054054054

seed:1327  N:67
elapsed:3.001
score:  0.8589743589743589

seed:1328  N:67
elapsed:3.001
score:  0.9054054054054054

seed:1329  N:67
elapsed:3.001
score:  0.9054054054054054

seed:1330  N:67
elapsed:3.003
score:  0.8933333333333333

seed:1331  N:67
elapsed:3.001
score:  0.881578947368421

seed:1332  N:67
elapsed:3.001
score:  0.8589743589743589

seed:1333  N:67
elapsed:3.001
score:  0.8481012658227848

seed:1334  N:67
elapsed:3.001
score:  0.9305555555555556

seed:1335  N:67
elapsed:3.002
score:  0.8933333333333333

seed:1336  N:67
elapsed:3.001
score:  0.9305555555555556

seed:1337  N:67
elapsed:3.001
score:  0.8701298701298701

seed:1338  N:67
elapsed:3.004
score:  0.8481012658227848

seed:1339  N:67
elapsed:3.001
score:  0.9054054054054054

seed:1340  N:67
elapsed:3.001
score:  0.8701298701298701

seed:1341  N:68
elapsed:3.001
score:  1.0149253731343284

seed:1342  N:68
elapsed:3.001
score:  1.152542372881356

seed:1343  N:68
elapsed:3.001
score:  1.0149253731343284

seed:1344  N:68
elapsed:3.001
score:  1.152542372881356

seed:1345  N:68
elapsed:3.001
score:  1.0461538461538462

seed:1346  N:68
elapsed:3.001
score:  1.1147540983606556

seed:1347  N:68
elapsed:3.001
score:  1.1724137931034482

seed:1348  N:68
elapsed:3.005
score:  1.0625

seed:1349  N:68
elapsed:3.001
score:  1.0625

seed:1350  N:68
elapsed:3.002
score:  1.0793650793650793

seed:1351  N:68
elapsed:3.001
score:  1.0625

seed:1352  N:68
elapsed:3.005
score:  1.1147540983606556

seed:1353  N:68
elapsed:3.001
score:  1.1333333333333333

seed:1354  N:68
elapsed:3.007
score:  1.1147540983606556

seed:1355  N:68
elapsed:3.001
score:  1.0793650793650793

seed:1356  N:68
elapsed:3.003
score:  1.0303030303030303

seed:1357  N:68
elapsed:3.002
score:  1.1724137931034482

seed:1358  N:68
elapsed:3.004
score:  1.0303030303030303

seed:1359  N:68
elapsed:3.004
score:  1.1333333333333333

seed:1360  N:68
elapsed:3.001
score:  1.1147540983606556

seed:1361  N:69
elapsed:3.001
score:  0.8734177215189873

seed:1362  N:69
elapsed:3.001
score:  0.9078947368421053

seed:1363  N:69
elapsed:3.001
score:  0.8961038961038961

seed:1364  N:69
elapsed:3.001
score:  0.92

seed:1365  N:69
elapsed:3.001
score:  0.8734177215189873

seed:1366  N:69
elapsed:3.001
score:  0.8961038961038961

seed:1367  N:69
elapsed:3.001
score:  0.92

seed:1368  N:69
elapsed:3.001
score:  0.92

seed:1369  N:69
elapsed:3.001
score:  0.9078947368421053

seed:1370  N:69
elapsed:3.001
score:  0.8518518518518519

seed:1371  N:69
elapsed:3.001
score:  0.8625

seed:1372  N:69
elapsed:3.001
score:  0.9078947368421053

seed:1373  N:69
elapsed:3.001
score:  0.8625

seed:1374  N:69
elapsed:3.001
score:  0.8625

seed:1375  N:69
elapsed:3.001
score:  0.9078947368421053

seed:1376  N:69
elapsed:3.001
score:  0.8734177215189873

seed:1377  N:69
elapsed:3.003
score:  0.8846153846153846

seed:1378  N:69
elapsed:3.005
score:  0.8961038961038961

seed:1379  N:69
elapsed:3.001
score:  0.8961038961038961

seed:1380  N:69
elapsed:3.001
score:  0.8414634146341463

seed:1381  N:70
elapsed:3.002
score:  1.1290322580645162

seed:1382  N:70
elapsed:3.001
score:  1.1475409836065573

seed:1383  N:70
elapsed:3.001
score:  1.0606060606060606

seed:1384  N:70
elapsed:3.001
score:  1.044776119402985

seed:1385  N:70
elapsed:3.001
score:  1.044776119402985

seed:1386  N:70
elapsed:3.003
score:  1.1864406779661016

seed:1387  N:70
elapsed:3.002
score:  1.09375

seed:1388  N:70
elapsed:3.001
score:  1.09375

seed:1389  N:70
elapsed:3.001
score:  1.2727272727272727

seed:1390  N:70
elapsed:3.001
score:  1.1290322580645162

seed:1391  N:70
elapsed:3.001
score:  1.09375

seed:1392  N:70
elapsed:3.001
score:  1.1290322580645162

seed:1393  N:70
elapsed:3.001
score:  1.1864406779661016

seed:1394  N:70
elapsed:3.004
score:  1.1111111111111112

seed:1395  N:70
elapsed:3.001
score:  1.1290322580645162

seed:1396  N:70
elapsed:3.002
score:  1.1864406779661016

seed:1397  N:70
elapsed:3.001
score:  1.1666666666666667

seed:1398  N:70
elapsed:3.001
score:  1.1864406779661016

seed:1399  N:70
elapsed:3.001
score:  1.1290322580645162

seed:1400  N:70
elapsed:3.004
score:  0.9459459459459459

seed:1401  N:71
elapsed:3.001
score:  0.9102564102564102

seed:1402  N:71
elapsed:3.001
score:  0.9102564102564102

seed:1403  N:71
elapsed:3.003
score:  0.9342105263157895

seed:1404  N:71
elapsed:3.001
score:  0.8452380952380952

seed:1405  N:71
elapsed:3.007
score:  0.8554216867469879

seed:1406  N:71
elapsed:3.001
score:  0.9342105263157895

seed:1407  N:71
elapsed:3.004
score:  0.8987341772151899

seed:1408  N:71
elapsed:3.001
score:  0.9466666666666667

seed:1409  N:71
elapsed:3.001
score:  0.8554216867469879

seed:1410  N:71
elapsed:3.002
score:  0.9102564102564102

seed:1411  N:71
elapsed:3.001
score:  0.8987341772151899

seed:1412  N:71
elapsed:3.001
score:  0.8875

seed:1413  N:71
elapsed:3.001
score:  0.8987341772151899

seed:1414  N:71
elapsed:3.001
score:  0.8875

seed:1415  N:71
elapsed:3.001
score:  0.922077922077922

seed:1416  N:71
elapsed:3.001
score:  0.9342105263157895

seed:1417  N:71
elapsed:3.003
score:  0.922077922077922

seed:1418  N:71
elapsed:3.001
score:  0.922077922077922

seed:1419  N:71
elapsed:3.001
score:  0.8765432098765432

seed:1420  N:71
elapsed:3.001
score:  0.8452380952380952

seed:1421  N:72
elapsed:3.005
score:  1.125

seed:1422  N:72
elapsed:3.001
score:  1.0588235294117647

seed:1423  N:72
elapsed:3.008
score:  1.1428571428571428

seed:1424  N:72
elapsed:3.003
score:  1.0434782608695652

seed:1425  N:72
elapsed:3.002
score:  1.0434782608695652

seed:1426  N:72
elapsed:3.001
score:  1.1428571428571428

seed:1427  N:72
elapsed:3.001
score:  1.0588235294117647

seed:1428  N:72
elapsed:3.001
score:  1.0434782608695652

seed:1429  N:72
elapsed:3.001
score:  1.0434782608695652

seed:1430  N:72
elapsed:3.001
score:  1.1612903225806452

seed:1431  N:72
elapsed:3.001
score:  1.0434782608695652

seed:1432  N:72
elapsed:3.001
score:  1.0588235294117647

seed:1433  N:72
elapsed:3.001
score:  1.1612903225806452

seed:1434  N:72
elapsed:3.001
score:  1.1076923076923078

seed:1435  N:72
elapsed:3.001
score:  1.0588235294117647

seed:1436  N:72
elapsed:3.005
score:  1.0909090909090908

seed:1437  N:72
elapsed:3.001
score:  1.0909090909090908

seed:1438  N:72
elapsed:3.001
score:  1.0909090909090908

seed:1439  N:72
elapsed:3.001
score:  0.96

seed:1440  N:72
elapsed:3.003
score:  1.0746268656716418

seed:1441  N:73
elapsed:3.001
score:  0.9012345679012346

seed:1442  N:73
elapsed:3.001
score:  0.8488372093023255

seed:1443  N:73
elapsed:3.008
score:  0.8902439024390244

seed:1444  N:73
elapsed:3.001
score:  0.8690476190476191

seed:1445  N:73
elapsed:3.001
score:  0.9012345679012346

seed:1446  N:73
elapsed:3.002
score:  0.8690476190476191

seed:1447  N:73
elapsed:3.001
score:  0.8390804597701149

seed:1448  N:73
elapsed:3.001
score:  0.9240506329113924

seed:1449  N:73
elapsed:3.001
score:  0.8902439024390244

seed:1450  N:73
elapsed:3.001
score:  0.9240506329113924

seed:1451  N:73
elapsed:3.001
score:  0.8795180722891566

seed:1452  N:73
elapsed:3.001
score:  0.8795180722891566

seed:1453  N:73
elapsed:3.001
score:  0.8902439024390244

seed:1454  N:73
elapsed:3.001
score:  0.8690476190476191

seed:1455  N:73
elapsed:3.001
score:  0.8795180722891566

seed:1456  N:73
elapsed:3.001
score:  0.9240506329113924

seed:1457  N:73
elapsed:3.001
score:  0.9358974358974359

seed:1458  N:73
elapsed:3.001
score:  0.9733333333333334

seed:1459  N:73
elapsed:3.001
score:  0.8902439024390244

seed:1460  N:73
elapsed:3.001
score:  0.9240506329113924

seed:1461  N:74
elapsed:3.007
score:  1.0422535211267605

seed:1462  N:74
elapsed:3.004
score:  1.1384615384615384

seed:1463  N:74
elapsed:3.001
score:  1.0277777777777777

seed:1464  N:74
elapsed:3.004
score:  1.0136986301369864

seed:1465  N:74
elapsed:3.002
score:  1.2542372881355932

seed:1466  N:74
elapsed:3.001
score:  1.0571428571428572

seed:1467  N:74
elapsed:3.001
score:  1.0571428571428572

seed:1468  N:74
elapsed:3.001
score:  1.2131147540983607

seed:1469  N:74
elapsed:3.001
score:  1.088235294117647

seed:1470  N:74
elapsed:3.001
score:  1.121212121212121

seed:1471  N:74
elapsed:3.001
score:  1.088235294117647

seed:1472  N:74
elapsed:3.001
score:  1.0136986301369864

seed:1473  N:74
elapsed:3.001
score:  1.1746031746031746

seed:1474  N:74
elapsed:3.001
score:  1.121212121212121

seed:1475  N:74
elapsed:3.001
score:  1.088235294117647

seed:1476  N:74
elapsed:3.001
score:  1.121212121212121

seed:1477  N:74
elapsed:3.001
score:  1.0422535211267605

seed:1478  N:74
elapsed:3.001
score:  1.088235294117647

seed:1479  N:74
elapsed:3.001
score:  1.0571428571428572

seed:1480  N:74
elapsed:3.001
score:  1.0277777777777777

seed:1481  N:75
elapsed:3.001
score:  0.9259259259259259

seed:1482  N:75
elapsed:3.006
score:  0.8928571428571429

seed:1483  N:75
elapsed:3.001
score:  0.8928571428571429

seed:1484  N:75
elapsed:3.001
score:  0.8620689655172413

seed:1485  N:75
elapsed:3.001
score:  0.8823529411764706

seed:1486  N:75
elapsed:3.001
score:  0.8426966292134831

seed:1487  N:75
elapsed:3.001
score:  0.8823529411764706

seed:1488  N:75
elapsed:3.001
score:  0.8620689655172413

seed:1489  N:75
elapsed:3.001
score:  0.872093023255814

seed:1490  N:75
elapsed:3.001
score:  0.8928571428571429

seed:1491  N:75
elapsed:3.001
score:  0.872093023255814

seed:1492  N:75
elapsed:3.002
score:  0.8426966292134831

seed:1493  N:75
elapsed:3.003
score:  0.9146341463414634

seed:1494  N:75
elapsed:3.001
score:  0.872093023255814

seed:1495  N:75
elapsed:3.001
score:  0.872093023255814

seed:1496  N:75
elapsed:3.001
score:  0.8620689655172413

seed:1497  N:75
elapsed:3.001
score:  0.8241758241758241

seed:1498  N:75
elapsed:3.001
score:  0.872093023255814

seed:1499  N:75
elapsed:3.001
score:  0.9036144578313253

seed:1500  N:75
elapsed:3.003
score:  0.8823529411764706

seed:1501  N:76
elapsed:3.004
score:  1.1515151515151516

seed:1502  N:76
elapsed:3.014
score:  1.1014492753623188

seed:1503  N:76
elapsed:3.002
score:  1.0704225352112675

seed:1504  N:76
elapsed:3.001
score:  1.1014492753623188

seed:1505  N:76
elapsed:3.001
score:  1.1343283582089552

seed:1506  N:76
elapsed:3.001
score:  1.0704225352112675

seed:1507  N:76
elapsed:3.001
score:  1.0704225352112675

seed:1508  N:76
elapsed:3.002
score:  1.1343283582089552

seed:1509  N:76
elapsed:3.001
score:  1.1515151515151516

seed:1510  N:76
elapsed:3.003
score:  1.1515151515151516

seed:1511  N:76
elapsed:3.005
score:  1.0410958904109588

seed:1512  N:76
elapsed:3.007
score:  1.0857142857142856

seed:1513  N:76
elapsed:3.001
score:  1.0704225352112675

seed:1514  N:76
elapsed:3.002
score:  1.0857142857142856

seed:1515  N:76
elapsed:3.003
score:  1.0704225352112675

seed:1516  N:76
elapsed:3.001
score:  1.2063492063492063

seed:1517  N:76
elapsed:3.001
score:  1.1014492753623188

seed:1518  N:76
elapsed:3.001
score:  1.0704225352112675

seed:1519  N:76
elapsed:3.001
score:  1.2459016393442623

seed:1520  N:76
elapsed:3.001
score:  1.0555555555555556

seed:1521  N:77
elapsed:3.001
score:  0.8850574712643678

seed:1522  N:77
elapsed:3.001
score:  0.9058823529411765

seed:1523  N:77
elapsed:3.001
score:  0.875

seed:1524  N:77
elapsed:3.004
score:  0.8850574712643678

seed:1525  N:77
elapsed:3.001
score:  0.8369565217391305

seed:1526  N:77
elapsed:3.001
score:  0.8850574712643678

seed:1527  N:77
elapsed:3.001
score:  0.8651685393258427

seed:1528  N:77
elapsed:3.001
score:  0.9058823529411765

seed:1529  N:77
elapsed:3.001
score:  0.8651685393258427

seed:1530  N:77
elapsed:3.002
score:  0.9506172839506173

seed:1531  N:77
elapsed:3.002
score:  0.8953488372093024

seed:1532  N:77
elapsed:3.002
score:  0.9058823529411765

seed:1533  N:77
elapsed:3.004
score:  0.8850574712643678

seed:1534  N:77
elapsed:3.001
score:  0.8850574712643678

seed:1535  N:77
elapsed:3.001
score:  0.8461538461538461

seed:1536  N:77
elapsed:3.001
score:  0.9058823529411765

seed:1537  N:77
elapsed:3.001
score:  0.8461538461538461

seed:1538  N:77
elapsed:3.004
score:  0.8369565217391305

seed:1539  N:77
elapsed:3.001
score:  0.875

seed:1540  N:77
elapsed:3.003
score:  0.9058823529411765

seed:1541  N:78
elapsed:3.001
score:  1.04

seed:1542  N:78
elapsed:3.001
score:  1.1818181818181819

seed:1543  N:78
elapsed:3.001
score:  1.04

seed:1544  N:78
elapsed:3.001
score:  1.0129870129870129

seed:1545  N:78
elapsed:3.001
score:  1.0129870129870129

seed:1546  N:78
elapsed:3.001
score:  1.1818181818181819

seed:1547  N:78
elapsed:3.004
score:  1.0985915492957747

seed:1548  N:78
elapsed:3.001
score:  1.1818181818181819

seed:1549  N:78
elapsed:3.001
score:  1.1304347826086956

seed:1550  N:78
elapsed:3.001
score:  1.04

seed:1551  N:78
elapsed:3.003
score:  1.0833333333333333

seed:1552  N:78
elapsed:3.004
score:  1.0129870129870129

seed:1553  N:78
elapsed:3.001
score:  1.1304347826086956

seed:1554  N:78
elapsed:3.001
score:  1.164179104477612

seed:1555  N:78
elapsed:3.011
score:  1.0985915492957747

seed:1556  N:78
elapsed:3.001
score:  1.054054054054054

seed:1557  N:78
elapsed:3.001
score:  1.04

seed:1558  N:78
elapsed:3.001
score:  1.0684931506849316

seed:1559  N:78
elapsed:3.002
score:  1.1470588235294117

seed:1560  N:78
elapsed:3.001
score:  1.0684931506849316

seed:1561  N:79
elapsed:3.003
score:  0.8229166666666666

seed:1562  N:79
elapsed:3.001
score:  0.8876404494382022

seed:1563  N:79
elapsed:3.002
score:  0.9080459770114943

seed:1564  N:79
elapsed:3.001
score:  0.8681318681318682

seed:1565  N:79
elapsed:3.001
score:  0.8977272727272727

seed:1566  N:79
elapsed:3.003
score:  0.8876404494382022

seed:1567  N:79
elapsed:3.001
score:  0.8586956521739131

seed:1568  N:79
elapsed:3.001
score:  0.8977272727272727

seed:1569  N:79
elapsed:3.005
score:  0.8777777777777778

seed:1570  N:79
elapsed:3.001
score:  0.8404255319148937

seed:1571  N:79
elapsed:3.001
score:  0.8977272727272727

seed:1572  N:79
elapsed:3.001
score:  0.8876404494382022

seed:1573  N:79
elapsed:3.001
score:  0.8977272727272727

seed:1574  N:79
elapsed:3.001
score:  0.8777777777777778

seed:1575  N:79
elapsed:3.001
score:  0.9080459770114943

seed:1576  N:79
elapsed:3.001
score:  0.9080459770114943

seed:1577  N:79
elapsed:3.001
score:  0.9080459770114943

seed:1578  N:79
elapsed:3.001
score:  0.8977272727272727

seed:1579  N:79
elapsed:3.001
score:  0.8777777777777778

seed:1580  N:79
elapsed:3.001
score:  0.9186046511627907

seed:1581  N:80
elapsed:3.001
score:  1.1594202898550725

seed:1582  N:80
elapsed:3.002
score:  1.0

seed:1583  N:80
elapsed:3.001
score:  1.0

seed:1584  N:80
elapsed:3.001
score:  0.9523809523809523

seed:1585  N:80
elapsed:3.005
score:  1.0526315789473684

seed:1586  N:80
elapsed:3.001
score:  1.1111111111111112

seed:1587  N:80
elapsed:3.001
score:  0.975609756097561

seed:1588  N:80
elapsed:3.001
score:  1.0666666666666667

seed:1589  N:80
elapsed:3.001
score:  1.1111111111111112

seed:1590  N:80
elapsed:3.001
score:  1.095890410958904

seed:1591  N:80
elapsed:3.001
score:  1.1111111111111112

seed:1592  N:80
elapsed:3.001
score:  1.0810810810810811

seed:1593  N:80
elapsed:3.004
score:  1.1594202898550725

seed:1594  N:80
elapsed:3.001
score:  1.1428571428571428

seed:1595  N:80
elapsed:3.001
score:  1.1428571428571428

seed:1596  N:80
elapsed:3.003
score:  1.1428571428571428

seed:1597  N:80
elapsed:3.001
score:  1.0666666666666667

seed:1598  N:80
elapsed:3.001
score:  1.0

seed:1599  N:80
elapsed:3.001
score:  1.0526315789473684

seed:1600  N:80
elapsed:3.008
score:  1.1594202898550725

seed:1601  N:81
elapsed:3.001
score:  0.8804347826086957

seed:1602  N:81
elapsed:3.001
score:  0.9

seed:1603  N:81
elapsed:3.001
score:  0.8804347826086957

seed:1604  N:81
elapsed:3.001
score:  0.826530612244898

seed:1605  N:81
elapsed:3.003
score:  0.8804347826086957

seed:1606  N:81
elapsed:3.001
score:  0.9310344827586207

seed:1607  N:81
elapsed:3.003
score:  0.8526315789473684

seed:1608  N:81
elapsed:3.001
score:  0.8709677419354839

seed:1609  N:81
elapsed:3.001
score:  0.8901098901098901

seed:1610  N:81
elapsed:3.003
score:  0.9

seed:1611  N:81
elapsed:3.001
score:  0.9310344827586207

seed:1612  N:81
elapsed:3.001
score:  0.8181818181818182

seed:1613  N:81
elapsed:3.001
score:  0.8526315789473684

seed:1614  N:81
elapsed:3.001
score:  0.8709677419354839

seed:1615  N:81
elapsed:3.001
score:  0.8804347826086957

seed:1616  N:81
elapsed:3.004
score:  0.8526315789473684

seed:1617  N:81
elapsed:3.001
score:  0.8709677419354839

seed:1618  N:81
elapsed:3.001
score:  0.9101123595505618

seed:1619  N:81
elapsed:3.001
score:  0.8617021276595744

seed:1620  N:81
elapsed:3.001
score:  0.8804347826086957

seed:1621  N:82
elapsed:3.005
score:  1.0789473684210527

seed:1622  N:82
elapsed:3.001
score:  1.0789473684210527

seed:1623  N:82
elapsed:3.001
score:  1.0649350649350648

seed:1624  N:82
elapsed:3.001
score:  1.0512820512820513

seed:1625  N:82
elapsed:3.001
score:  0.9879518072289156

seed:1626  N:82
elapsed:3.001
score:  1.0379746835443038

seed:1627  N:82
elapsed:3.001
score:  1.0789473684210527

seed:1628  N:82
elapsed:3.002
score:  1.1549295774647887

seed:1629  N:82
elapsed:3.001
score:  0.9761904761904762

seed:1630  N:82
elapsed:3.003
score:  1.0123456790123457

seed:1631  N:82
elapsed:3.001
score:  0.9879518072289156

seed:1632  N:82
elapsed:3.002
score:  1.0512820512820513

seed:1633  N:82
elapsed:3.001
score:  0.9879518072289156

seed:1634  N:82
elapsed:3.001
score:  1.0379746835443038

seed:1635  N:82
elapsed:3.001
score:  1.1081081081081081

seed:1636  N:82
elapsed:3.001
score:  0.9879518072289156

seed:1637  N:82
elapsed:3.001
score:  1.1232876712328768

seed:1638  N:82
elapsed:3.001
score:  1.0933333333333333

seed:1639  N:82
elapsed:3.001
score:  1.0512820512820513

seed:1640  N:82
elapsed:3.001
score:  1.0933333333333333

seed:1641  N:83
elapsed:3.001
score:  0.9325842696629213

seed:1642  N:83
elapsed:3.001
score:  0.8645833333333334

seed:1643  N:83
elapsed:3.001
score:  0.8383838383838383

seed:1644  N:83
elapsed:3.001
score:  0.8924731182795699

seed:1645  N:83
elapsed:3.001
score:  0.8469387755102041

seed:1646  N:83
elapsed:3.001
score:  0.8736842105263158

seed:1647  N:83
elapsed:3.001
score:  0.8736842105263158

seed:1648  N:83
elapsed:3.004
score:  0.8556701030927835

seed:1649  N:83
elapsed:3.001
score:  0.8736842105263158

seed:1650  N:83
elapsed:3.001
score:  0.8829787234042553

seed:1651  N:83
elapsed:3.009
score:  0.8829787234042553

seed:1652  N:83
elapsed:3.001
score:  0.8217821782178217

seed:1653  N:83
elapsed:3.008
score:  0.9120879120879121

seed:1654  N:83
elapsed:3.001
score:  0.8058252427184466

seed:1655  N:83
elapsed:3.001
score:  0.9431818181818182

seed:1656  N:83
elapsed:3.002
score:  0.8469387755102041

seed:1657  N:83
elapsed:3.001
score:  0.8556701030927835

seed:1658  N:83
elapsed:3.001
score:  0.8556701030927835

seed:1659  N:83
elapsed:3.001
score:  0.8829787234042553

seed:1660  N:83
elapsed:3.003
score:  0.8556701030927835

seed:1661  N:84
elapsed:3.001
score:  0.9882352941176471

seed:1662  N:84
elapsed:3.001
score:  1.0909090909090908

seed:1663  N:84
elapsed:3.001
score:  1.12

seed:1664  N:84
elapsed:3.001
score:  1.024390243902439

seed:1665  N:84
elapsed:3.004
score:  0.9655172413793104

seed:1666  N:84
elapsed:3.001
score:  1.05

seed:1667  N:84
elapsed:3.001
score:  1.0909090909090908

seed:1668  N:84
elapsed:3.001
score:  1.105263157894737

seed:1669  N:84
elapsed:3.001
score:  1.1506849315068493

seed:1670  N:84
elapsed:3.002
score:  1.0632911392405062

seed:1671  N:84
elapsed:3.004
score:  1.2173913043478262

seed:1672  N:84
elapsed:3.004
score:  1.0120481927710843

seed:1673  N:84
elapsed:3.001
score:  1.1666666666666667

seed:1674  N:84
elapsed:3.001
score:  1.0909090909090908

seed:1675  N:84
elapsed:3.001
score:  1.05

seed:1676  N:84
elapsed:3.001
score:  1.12

seed:1677  N:84
elapsed:3.001
score:  1.0909090909090908

seed:1678  N:84
elapsed:3.001
score:  0.9655172413793104

seed:1679  N:84
elapsed:3.003
score:  1.0769230769230769

seed:1680  N:84
elapsed:3.006
score:  1.024390243902439

seed:1681  N:85
elapsed:3.009
score:  0.9042553191489362

seed:1682  N:85
elapsed:3.003
score:  0.9340659340659341

seed:1683  N:85
elapsed:3.002
score:  0.9139784946236559

seed:1684  N:85
elapsed:3.005
score:  0.8333333333333334

seed:1685  N:85
elapsed:3.001
score:  0.9042553191489362

seed:1686  N:85
elapsed:3.001
score:  0.8854166666666666

seed:1687  N:85
elapsed:3.001
score:  0.8762886597938144

seed:1688  N:85
elapsed:3.006
score:  0.8947368421052632

seed:1689  N:85
elapsed:3.003
score:  0.8762886597938144

seed:1690  N:85
elapsed:3.008
score:  0.8947368421052632

seed:1691  N:85
elapsed:3.002
score:  0.8762886597938144

seed:1692  N:85
elapsed:3.001
score:  0.8252427184466019

seed:1693  N:85
elapsed:3.001
score:  0.9042553191489362

seed:1694  N:85
elapsed:3.004
score:  0.9340659340659341

seed:1695  N:85
elapsed:3.001
score:  0.8673469387755102

seed:1696  N:85
elapsed:3.005
score:  0.8673469387755102

seed:1697  N:85
elapsed:3.001
score:  0.8415841584158416

seed:1698  N:85
elapsed:3.001
score:  0.9042553191489362

seed:1699  N:85
elapsed:3.001
score:  0.8762886597938144

seed:1700  N:85
elapsed:3.001
score:  0.8415841584158416

seed:1701  N:86
elapsed:3.001
score:  1.1025641025641026

seed:1702  N:86
elapsed:3.001
score:  1.1168831168831168

seed:1703  N:86
elapsed:3.001
score:  1.1466666666666667

seed:1704  N:86
elapsed:3.001
score:  1.011764705882353

seed:1705  N:86
elapsed:3.001
score:  1.1168831168831168

seed:1706  N:86
elapsed:3.003
score:  0.9885057471264368

seed:1707  N:86
elapsed:3.003
score:  0.945054945054945

seed:1708  N:86
elapsed:3.011
score:  1.075

seed:1709  N:86
elapsed:3.003
score:  1.0238095238095237

seed:1710  N:86
elapsed:3.001
score:  1.048780487804878

seed:1711  N:86
elapsed:3.002
score:  1.0

seed:1712  N:86
elapsed:3.001
score:  1.0617283950617284

seed:1713  N:86
elapsed:3.004
score:  1.036144578313253

seed:1714  N:86
elapsed:3.001
score:  1.1168831168831168

seed:1715  N:86
elapsed:3.001
score:  1.0886075949367089

seed:1716  N:86
elapsed:3.004
score:  1.0

seed:1717  N:86
elapsed:3.001
score:  1.0886075949367089

seed:1718  N:86
elapsed:3.001
score:  1.1168831168831168

seed:1719  N:86
elapsed:3.005
score:  1.0238095238095237

seed:1720  N:86
elapsed:3.004
score:  1.178082191780822

seed:1721  N:87
elapsed:3.002
score:  0.8529411764705882

seed:1722  N:87
elapsed:3.008
score:  0.8969072164948454

seed:1723  N:87
elapsed:3.001
score:  0.8613861386138614

seed:1724  N:87
elapsed:3.001
score:  0.90625

seed:1725  N:87
elapsed:3.001
score:  0.9157894736842105

seed:1726  N:87
elapsed:3.001
score:  0.8446601941747572

seed:1727  N:87
elapsed:3.004
score:  0.8613861386138614

seed:1728  N:87
elapsed:3.001
score:  0.8969072164948454

seed:1729  N:87
elapsed:3.002
score:  0.90625

seed:1730  N:87
elapsed:3.001
score:  0.8446601941747572

seed:1731  N:87
elapsed:3.002
score:  0.8613861386138614

seed:1732  N:87
elapsed:3.001
score:  0.8529411764705882

seed:1733  N:87
elapsed:3.001
score:  0.87

seed:1734  N:87
elapsed:3.001
score:  0.8285714285714286

seed:1735  N:87
elapsed:3.001
score:  0.8877551020408163

seed:1736  N:87
elapsed:3.003
score:  0.8613861386138614

seed:1737  N:87
elapsed:3.002
score:  0.9157894736842105

seed:1738  N:87
elapsed:3.001
score:  0.8130841121495327

seed:1739  N:87
elapsed:3.001
score:  0.925531914893617

seed:1740  N:87
elapsed:3.001
score:  0.8613861386138614

seed:1741  N:88
elapsed:3.001
score:  1.035294117647059

seed:1742  N:88
elapsed:3.001
score:  0.9777777777777777

seed:1743  N:88
elapsed:3.002
score:  1.0114942528735633

seed:1744  N:88
elapsed:3.001
score:  0.946236559139785

seed:1745  N:88
elapsed:3.001
score:  1.0602409638554218

seed:1746  N:88
elapsed:3.001
score:  1.0114942528735633

seed:1747  N:88
elapsed:3.002
score:  0.9565217391304348

seed:1748  N:88
elapsed:3.017
score:  1.0864197530864197

seed:1749  N:88
elapsed:3.001
score:  0.946236559139785

seed:1750  N:88
elapsed:3.001
score:  1.0602409638554218

seed:1751  N:88
elapsed:3.001
score:  1.035294117647059

seed:1752  N:88
elapsed:3.001
score:  0.9263157894736842

seed:1753  N:88
elapsed:3.001
score:  1.2054794520547945

seed:1754  N:88
elapsed:3.001
score:  1.0476190476190477

seed:1755  N:88
elapsed:3.001
score:  1.1

seed:1756  N:88
elapsed:3.005
score:  1.0864197530864197

seed:1757  N:88
elapsed:3.001
score:  1.0731707317073171

seed:1758  N:88
elapsed:3.008
score:  1.035294117647059

seed:1759  N:88
elapsed:3.001
score:  1.0602409638554218

seed:1760  N:88
elapsed:3.006
score:  1.1

seed:1761  N:89
elapsed:3.001
score:  0.8725490196078431

seed:1762  N:89
elapsed:3.001
score:  0.8165137614678899

seed:1763  N:89
elapsed:3.005
score:  0.8640776699029126

seed:1764  N:89
elapsed:3.004
score:  0.898989898989899

seed:1765  N:89
elapsed:3.003
score:  0.9081632653061225

seed:1766  N:89
elapsed:3.001
score:  0.8557692307692307

seed:1767  N:89
elapsed:3.001
score:  0.8811881188118812

seed:1768  N:89
elapsed:3.003
score:  0.8557692307692307

seed:1769  N:89
elapsed:3.001
score:  0.8725490196078431

seed:1770  N:89
elapsed:3.002
score:  0.9175257731958762

seed:1771  N:89
elapsed:3.001
score:  0.89

seed:1772  N:89
elapsed:3.003
score:  0.8476190476190476

seed:1773  N:89
elapsed:3.003
score:  0.9175257731958762

seed:1774  N:89
elapsed:3.002
score:  0.8476190476190476

seed:1775  N:89
elapsed:3.001
score:  0.8811881188118812

seed:1776  N:89
elapsed:3.01
score:  0.9081632653061225

seed:1777  N:89
elapsed:3.001
score:  0.89

seed:1778  N:89
elapsed:3.002
score:  0.898989898989899

seed:1779  N:89
elapsed:3.001
score:  0.8640776699029126

seed:1780  N:89
elapsed:3.001
score:  0.839622641509434

seed:1781  N:90
elapsed:3.002
score:  1.0975609756097562

seed:1782  N:90
elapsed:3.006
score:  1.0714285714285714

seed:1783  N:90
elapsed:3.001
score:  1.0227272727272727

seed:1784  N:90
elapsed:3.002
score:  1.0465116279069768

seed:1785  N:90
elapsed:3.005
score:  0.9473684210526315

seed:1786  N:90
elapsed:3.001
score:  1.0112359550561798

seed:1787  N:90
elapsed:3.001
score:  1.0112359550561798

seed:1788  N:90
elapsed:3.004
score:  1.0975609756097562

seed:1789  N:90
elapsed:3.002
score:  1.0465116279069768

seed:1790  N:90
elapsed:3.003
score:  1.0588235294117647

seed:1791  N:90
elapsed:3.001
score:  1.0975609756097562

seed:1792  N:90
elapsed:3.001
score:  0.989010989010989

seed:1793  N:90
elapsed:3.003
score:  1.0465116279069768

seed:1794  N:90
elapsed:3.002
score:  1.0465116279069768

seed:1795  N:90
elapsed:3.001
score:  1.0

seed:1796  N:90
elapsed:3.001
score:  1.1538461538461537

seed:1797  N:90
elapsed:3.001
score:  1.0227272727272727

seed:1798  N:90
elapsed:3.003
score:  1.0975609756097562

seed:1799  N:90
elapsed:3.007
score:  1.0227272727272727

seed:1800  N:90
elapsed:3.001
score:  1.0344827586206897

seed:1801  N:91
elapsed:3.001
score:  0.8584905660377359

seed:1802  N:91
elapsed:3.001
score:  0.7913043478260869

seed:1803  N:91
elapsed:3.001
score:  0.8198198198198198

seed:1804  N:91
elapsed:3.002
score:  0.8584905660377359

seed:1805  N:91
elapsed:3.003
score:  0.8504672897196262

seed:1806  N:91
elapsed:3.001
score:  0.8272727272727273

seed:1807  N:91
elapsed:3.007
score:  0.8666666666666667

seed:1808  N:91
elapsed:3.003
score:  0.8666666666666667

seed:1809  N:91
elapsed:3.004
score:  0.8198198198198198

seed:1810  N:91
elapsed:3.001
score:  0.91

seed:1811  N:91
elapsed:3.001
score:  0.883495145631068

seed:1812  N:91
elapsed:3.001
score:  0.8053097345132744

seed:1813  N:91
elapsed:3.001
score:  0.8504672897196262

seed:1814  N:91
elapsed:3.001
score:  0.8425925925925926

seed:1815  N:91
elapsed:3.001
score:  0.8198198198198198

seed:1816  N:91
elapsed:3.001
score:  0.8921568627450981

seed:1817  N:91
elapsed:3.001
score:  0.91

seed:1818  N:91
elapsed:3.001
score:  0.8272727272727273

seed:1819  N:91
elapsed:3.002
score:  0.8425925925925926

seed:1820  N:91
elapsed:3.001
score:  0.8348623853211009

seed:1821  N:92
elapsed:3.001
score:  1.0574712643678161

seed:1822  N:92
elapsed:3.001
score:  0.989247311827957

seed:1823  N:92
elapsed:3.002
score:  1.1645569620253164

seed:1824  N:92
elapsed:3.001
score:  1.0

seed:1825  N:92
elapsed:3.001
score:  1.0574712643678161

seed:1826  N:92
elapsed:3.001
score:  1.0952380952380953

seed:1827  N:92
elapsed:3.001
score:  1.1358024691358024

seed:1828  N:92
elapsed:3.001
score:  1.0574712643678161

seed:1829  N:92
elapsed:3.001
score:  1.0823529411764705

seed:1830  N:92
elapsed:3.01
score:  0.9787234042553191

seed:1831  N:92
elapsed:3.001
score:  1.0574712643678161

seed:1832  N:92
elapsed:3.006
score:  1.0337078651685394

seed:1833  N:92
elapsed:3.001
score:  1.0337078651685394

seed:1834  N:92
elapsed:3.001
score:  1.069767441860465

seed:1835  N:92
elapsed:3.005
score:  1.0

seed:1836  N:92
elapsed:3.003
score:  0.92

seed:1837  N:92
elapsed:3.001
score:  1.0454545454545454

seed:1838  N:92
elapsed:3.003
score:  0.9787234042553191

seed:1839  N:92
elapsed:3.001
score:  1.0222222222222221

seed:1840  N:92
elapsed:3.001
score:  0.9387755102040817

seed:1841  N:93
elapsed:3.001
score:  0.8532110091743119

seed:1842  N:93
elapsed:3.001
score:  0.8454545454545455

seed:1843  N:93
elapsed:3.001
score:  0.8611111111111112

seed:1844  N:93
elapsed:3.001
score:  0.8303571428571429

seed:1845  N:93
elapsed:3.004
score:  0.8303571428571429

seed:1846  N:93
elapsed:3.004
score:  0.8691588785046729

seed:1847  N:93
elapsed:3.001
score:  0.8532110091743119

seed:1848  N:93
elapsed:3.001
score:  0.8611111111111112

seed:1849  N:93
elapsed:3.001
score:  0.8454545454545455

seed:1850  N:93
elapsed:3.001
score:  0.8454545454545455

seed:1851  N:93
elapsed:3.001
score:  0.8532110091743119

seed:1852  N:93
elapsed:3.008
score:  0.8611111111111112

seed:1853  N:93
elapsed:3.001
score:  0.8773584905660378

seed:1854  N:93
elapsed:3.009
score:  0.8230088495575221

seed:1855  N:93
elapsed:3.001
score:  0.8691588785046729

seed:1856  N:93
elapsed:3.002
score:  0.9207920792079208

seed:1857  N:93
elapsed:3.001
score:  0.8691588785046729

seed:1858  N:93
elapsed:3.001
score:  0.93

seed:1859  N:93
elapsed:3.001
score:  0.8691588785046729

seed:1860  N:93
elapsed:3.001
score:  0.8942307692307693

seed:1861  N:94
elapsed:3.001
score:  1.0561797752808988

seed:1862  N:94
elapsed:3.001
score:  1.119047619047619

seed:1863  N:94
elapsed:3.001
score:  1.032967032967033

seed:1864  N:94
elapsed:3.001
score:  1.0561797752808988

seed:1865  N:94
elapsed:3.003
score:  1.0444444444444445

seed:1866  N:94
elapsed:3.006
score:  1.0681818181818181

seed:1867  N:94
elapsed:3.001
score:  0.9791666666666666

seed:1868  N:94
elapsed:3.001
score:  1.010752688172043

seed:1869  N:94
elapsed:3.002
score:  1.1058823529411765

seed:1870  N:94
elapsed:3.001
score:  1.0

seed:1871  N:94
elapsed:3.001
score:  0.9791666666666666

seed:1872  N:94
elapsed:3.005
score:  1.236842105263158

seed:1873  N:94
elapsed:3.001
score:  1.0217391304347827

seed:1874  N:94
elapsed:3.001
score:  1.0444444444444445

seed:1875  N:94
elapsed:3.001
score:  1.0444444444444445

seed:1876  N:94
elapsed:3.001
score:  1.146341463414634

seed:1877  N:94
elapsed:3.002
score:  1.0217391304347827

seed:1878  N:94
elapsed:3.002
score:  1.0930232558139534

seed:1879  N:94
elapsed:3.001
score:  1.1325301204819278

seed:1880  N:94
elapsed:3.001
score:  1.0217391304347827

seed:1881  N:95
elapsed:3.006
score:  0.8407079646017699

seed:1882  N:95
elapsed:3.001
score:  0.8558558558558559

seed:1883  N:95
elapsed:3.001
score:  0.8636363636363636

seed:1884  N:95
elapsed:3.002
score:  0.8636363636363636

seed:1885  N:95
elapsed:3.002
score:  0.8878504672897196

seed:1886  N:95
elapsed:3.001
score:  0.8482142857142857

seed:1887  N:95
elapsed:3.001
score:  0.8482142857142857

seed:1888  N:95
elapsed:3.001
score:  0.8715596330275229

seed:1889  N:95
elapsed:3.001
score:  0.8407079646017699

seed:1890  N:95
elapsed:3.001
score:  0.8333333333333334

seed:1891  N:95
elapsed:3.001
score:  0.8558558558558559

seed:1892  N:95
elapsed:3.001
score:  0.8636363636363636

seed:1893  N:95
elapsed:3.001
score:  0.8636363636363636

seed:1894  N:95
elapsed:3.002
score:  0.8558558558558559

seed:1895  N:95
elapsed:3.006
score:  0.8260869565217391

seed:1896  N:95
elapsed:3.003
score:  0.811965811965812

seed:1897  N:95
elapsed:3.004
score:  0.8715596330275229

seed:1898  N:95
elapsed:3.001
score:  0.8260869565217391

seed:1899  N:95
elapsed:3.002
score:  0.8333333333333334

seed:1900  N:95
elapsed:3.002
score:  0.7983193277310925

seed:1901  N:96
elapsed:3.001
score:  1.0434782608695652

seed:1902  N:96
elapsed:3.001
score:  1.0105263157894737

seed:1903  N:96
elapsed:3.007
score:  1.1294117647058823

seed:1904  N:96
elapsed:3.003
score:  0.9411764705882353

seed:1905  N:96
elapsed:3.002
score:  1.0786516853932584

seed:1906  N:96
elapsed:3.004
score:  0.9896907216494846

seed:1907  N:96
elapsed:3.001
score:  1.0

seed:1908  N:96
elapsed:3.001
score:  1.0909090909090908

seed:1909  N:96
elapsed:3.001
score:  1.054945054945055

seed:1910  N:96
elapsed:3.001
score:  1.0

seed:1911  N:96
elapsed:3.001
score:  1.0212765957446808

seed:1912  N:96
elapsed:3.001
score:  1.0212765957446808

seed:1913  N:96
elapsed:3.001
score:  1.0909090909090908

seed:1914  N:96
elapsed:3.001
score:  0.9896907216494846

seed:1915  N:96
elapsed:3.002
score:  1.0

seed:1916  N:96
elapsed:3.012
score:  1.0434782608695652

seed:1917  N:96
elapsed:3.001
score:  1.054945054945055

seed:1918  N:96
elapsed:3.001
score:  1.054945054945055

seed:1919  N:96
elapsed:3.001
score:  1.0786516853932584

seed:1920  N:96
elapsed:3.001
score:  1.0

seed:1921  N:97
elapsed:3.005
score:  0.8151260504201681

seed:1922  N:97
elapsed:3.001
score:  0.8584070796460177

seed:1923  N:97
elapsed:3.001
score:  0.7950819672131147

seed:1924  N:97
elapsed:3.001
score:  0.8738738738738738

seed:1925  N:97
elapsed:3.005
score:  0.8899082568807339

seed:1926  N:97
elapsed:3.001
score:  0.8660714285714286

seed:1927  N:97
elapsed:3.001
score:  0.8584070796460177

seed:1928  N:97
elapsed:3.001
score:  0.8220338983050848

seed:1929  N:97
elapsed:3.003
score:  0.8738738738738738

seed:1930  N:97
elapsed:3.001
score:  0.8290598290598291

seed:1931  N:97
elapsed:3.004
score:  0.8584070796460177

seed:1932  N:97
elapsed:3.001
score:  0.8584070796460177

seed:1933  N:97
elapsed:3.001
score:  0.8660714285714286

seed:1934  N:97
elapsed:3.001
score:  0.8508771929824561

seed:1935  N:97
elapsed:3.003
score:  0.8899082568807339

seed:1936  N:97
elapsed:3.002
score:  0.8660714285714286

seed:1937  N:97
elapsed:3.001
score:  0.8660714285714286

seed:1938  N:97
elapsed:3.001
score:  0.8016528925619835

seed:1939  N:97
elapsed:3.001
score:  0.8738738738738738

seed:1940  N:97
elapsed:3.004
score:  0.8584070796460177

seed:1941  N:98
elapsed:3.001
score:  1.065217391304348

seed:1942  N:98
elapsed:3.001
score:  1.053763440860215

seed:1943  N:98
elapsed:3.003
score:  1.0888888888888888

seed:1944  N:98
elapsed:3.001
score:  1.0315789473684212

seed:1945  N:98
elapsed:3.001
score:  0.98989898989899

seed:1946  N:98
elapsed:3.002
score:  1.0103092783505154

seed:1947  N:98
elapsed:3.002
score:  0.9514563106796117

seed:1948  N:98
elapsed:3.002
score:  0.98

seed:1949  N:98
elapsed:3.001
score:  0.9245283018867925

seed:1950  N:98
elapsed:3.002
score:  0.98

seed:1951  N:98
elapsed:3.004
score:  1.0208333333333333

seed:1952  N:98
elapsed:3.001
score:  0.98989898989899

seed:1953  N:98
elapsed:3.003
score:  0.98

seed:1954  N:98
elapsed:3.006
score:  1.1529411764705881

seed:1955  N:98
elapsed:3.007
score:  1.053763440860215

seed:1956  N:98
elapsed:3.004
score:  1.1666666666666667

seed:1957  N:98
elapsed:3.001
score:  1.065217391304348

seed:1958  N:98
elapsed:3.003
score:  1.101123595505618

seed:1959  N:98
elapsed:3.001
score:  0.98989898989899

seed:1960  N:98
elapsed:3.002
score:  1.0425531914893618

seed:1961  N:99
elapsed:3.001
score:  0.825

seed:1962  N:99
elapsed:3.001
score:  0.8761061946902655

seed:1963  N:99
elapsed:3.001
score:  0.8761061946902655

seed:1964  N:99
elapsed:3.001
score:  0.8389830508474576

seed:1965  N:99
elapsed:3.001
score:  0.825

seed:1966  N:99
elapsed:3.001
score:  0.853448275862069

seed:1967  N:99
elapsed:3.001
score:  0.8761061946902655

seed:1968  N:99
elapsed:3.001
score:  0.8389830508474576

seed:1969  N:99
elapsed:3.004
score:  0.868421052631579

seed:1970  N:99
elapsed:3.002
score:  0.8389830508474576

seed:1971  N:99
elapsed:3.001
score:  0.853448275862069

seed:1972  N:99
elapsed:3.003
score:  0.8114754098360656

seed:1973  N:99
elapsed:3.004
score:  0.9166666666666666

seed:1974  N:99
elapsed:3.007
score:  0.9

seed:1975  N:99
elapsed:3.003
score:  0.8608695652173913

seed:1976  N:99
elapsed:3.004
score:  0.853448275862069

seed:1977  N:99
elapsed:3.001
score:  0.8461538461538461

seed:1978  N:99
elapsed:3.001
score:  0.825

seed:1979  N:99
elapsed:3.003
score:  0.825

seed:1980  N:99
elapsed:3.001
score:  0.825

seed:1981  N:100
elapsed:3.008
score:  1.0

seed:1982  N:100
elapsed:3.001
score:  1.0204081632653061

seed:1983  N:100
elapsed:3.001
score:  0.9900990099009901

seed:1984  N:100
elapsed:3.001
score:  1.0101010101010102

seed:1985  N:100
elapsed:3.002
score:  1.1235955056179776

seed:1986  N:100
elapsed:3.001
score:  0.9900990099009901

seed:1987  N:100
elapsed:3.001
score:  1.0416666666666667

seed:1988  N:100
elapsed:3.001
score:  0.9900990099009901

seed:1989  N:100
elapsed:3.001
score:  0.9523809523809523

seed:1990  N:100
elapsed:3.001
score:  1.0204081632653061

seed:1991  N:100
elapsed:3.003
score:  1.0

seed:1992  N:100
elapsed:3.001
score:  1.0416666666666667

seed:1993  N:100
elapsed:3.001
score:  1.0416666666666667

seed:1994  N:100
elapsed:3.001
score:  1.0101010101010102

seed:1995  N:100
elapsed:3.002
score:  1.0

seed:1996  N:100
elapsed:3.001
score:  1.0869565217391304

seed:1997  N:100
elapsed:3.004
score:  1.0869565217391304

seed:1998  N:100
elapsed:3.004
score:  1.0101010101010102

seed:1999  N:100
elapsed:3.001
score:  1.0416666666666667

seed:2000  N:100
elapsed:3.004
score:  1.098901098901099

ave:0.9871893780695987
